; generated by PrusaSlicer 2.2.0+win64 on 2021-01-29 at 18:33:20 UTC

; 

; external perimeters extrusion width = 0.45mm
; perimeters extrusion width = 0.45mm
; infill extrusion width = 0.45mm
; solid infill extrusion width = 0.45mm
; top infill extrusion width = 0.40mm
; support material extrusion width = 0.35mm
; first layer extrusion width = 0.42mm

M73 P0 R2
M73 Q0 S2
M201 X1000 Y1000 Z1000 E5000 ; sets maximum accelerations, mm/sec^2
M203 X200 Y200 Z12 E120 ; sets maximum feedrates, mm/sec
M204 P1250 R1250 T1250 ; sets acceleration (P, T) and retract acceleration (R), mm/sec^2
M205 X8.00 Y8.00 Z0.40 E1.50 ; sets the jerk limits, mm/sec
M205 S0 T0 ; sets the minimum extruding and travel feed rate, mm/sec
M107
M862.3 P "MK3S" ; printer model check
M862.1 P0.4 ; nozzle diameter check
M115 U3.8.1 ; tell printer latest fw version
G90 ; use absolute coordinates
M83 ; extruder relative mode
M104 S215 ; set extruder temp
M140 S75 ; set bed temp
M190 S75 ; wait for bed temp
M109 S215 ; wait for extruder temp
G28 W ; home all without mesh bed level
G80 ; mesh bed leveling
;G1 Y-3.0 F1000.0 ; go outside print area
;G92 E0.0
;G1 X60.0 E9.0 F1000.0 ; intro line
;G1 X100.0 E12.5 F1000.0 ; intro line
G92 E0.0
M221 S95
G21 ; set units to millimeters
G90 ; use absolute coordinates
M83 ; use relative distances for extrusion
M900 K30 ; Filament gcode
;BEFORE_LAYER_CHANGE
G92 E0.0
;0.2


G1 Z0.200 F10800.000
;AFTER_LAYER_CHANGE
;0.2
G1 X12.868 Y13.050
M204 S1000
G1 F900
G1 X17.448 Y13.050 E0.14360
M73 Q0 S2
M73 P0 R2
G1 X17.448 Y17.630 E0.14360
G1 X12.868 Y17.630 E0.14360
G1 X12.868 Y13.110 E0.14172
G1 X13.254 Y13.154 F10800.000
G1 X13.245 Y13.427
G1 F900
G1 X17.071 Y13.427 E0.11996
G1 X17.071 Y17.253 E0.11996
G1 X13.245 Y17.253 E0.11996
G1 X13.245 Y13.487 E0.11808
G1 X13.622 Y13.804 F10800.000
G1 F900
G1 X16.694 Y13.804 E0.09631
G1 X16.694 Y16.876 E0.09631
G1 X13.622 Y16.876 E0.09631
G1 X13.622 Y13.864 E0.09443
G1 X13.999 Y14.182 F10800.000
G1 F900
G1 X16.317 Y14.182 E0.07266
G1 X16.317 Y16.499 E0.07266
G1 X13.999 Y16.499 E0.07266
G1 X13.999 Y14.242 E0.07078
G1 X14.376 Y14.559 F10800.000
G1 F900
G1 X15.940 Y14.559 E0.04902
G1 X15.940 Y16.122 E0.04902
G1 X14.376 Y16.122 E0.04902
G1 X14.376 Y14.619 E0.04714
G1 X15.883 Y15.470 F10800.000
G1 F900
G1 X15.198 Y14.785 E0.03392
G1 X14.603 Y14.785 E0.02083
G1 X15.713 Y15.896 E0.05497
G1 X15.118 Y15.896 E0.02083
G1 X14.433 Y15.210 E0.03392
M106 S255
;BEFORE_LAYER_CHANGE
G92 E0.0
;0.4


G1 Z0.400 F10800.000
;AFTER_LAYER_CHANGE
;0.4
M104 S210 ; set temperature
G1 X12.883 Y13.065
M204 S800
G1 F900
G1 X17.433 Y13.065 E0.15401
G1 X17.433 Y17.615 E0.15401
G1 X12.883 Y17.615 E0.15401
G1 X12.883 Y13.125 E0.15198
M204 S1000
G1 X13.269 Y13.169 F10800.000
G1 X13.290 Y13.472
M204 S800
G1 F900
G1 X17.026 Y13.472 E0.12645
G1 X17.026 Y17.208 E0.12645
G1 X13.290 Y17.208 E0.12645
G1 X13.290 Y13.532 E0.12442
M204 S1000
G1 X13.697 Y13.879 F10800.000
M204 S800
G1 F900
G1 X16.619 Y13.879 E0.09890
G1 X16.619 Y16.801 E0.09890
G1 X13.697 Y16.801 E0.09890
G1 X13.697 Y13.939 E0.09686
M204 S1000
G1 X14.104 Y14.287 F10800.000
M204 S800
G1 F900
G1 X16.212 Y14.287 E0.07134
G1 X16.212 Y16.394 E0.07134
G1 X14.104 Y16.394 E0.07134
G1 X14.104 Y14.347 E0.06931
M204 S1000
G1 X14.511 Y14.694 F10800.000
M204 S800
G1 F900
G1 X15.805 Y14.694 E0.04378
G1 X15.805 Y15.987 E0.04378
G1 X14.511 Y15.987 E0.04378
G1 X14.511 Y14.754 E0.04175
M204 S1000
G1 X14.875 Y15.926 F10800.000
M204 S1250
G1 F900
G1 X15.560 Y15.241 E0.03452
G1 X15.560 Y14.938 E0.01079
G1 X15.257 Y14.938 E0.01080
G1 X14.572 Y15.623 E0.03452
M204 S1000
;BEFORE_LAYER_CHANGE
G92 E0.0
;0.6


G1 Z0.600 F10800.000
;AFTER_LAYER_CHANGE
;0.6
G1 X12.883 Y17.615
M204 S800
G1 F900
G1 X12.883 Y13.065 E0.15401
G1 X17.433 Y13.065 E0.15401
G1 X17.433 Y17.615 E0.15401
G1 X12.943 Y17.615 E0.15198
M204 S1000
G1 X12.987 Y17.229 F10800.000
G1 X13.290 Y17.208
M204 S800
G1 F900
G1 X13.290 Y13.472 E0.12645
G1 X17.026 Y13.472 E0.12645
G1 X17.026 Y17.208 E0.12645
G1 X13.350 Y17.208 E0.12442
M204 S1000
G1 X13.697 Y16.801 F10800.000
M204 S800
G1 F900
G1 X13.697 Y13.879 E0.09890
G1 X16.619 Y13.879 E0.09890
G1 X16.619 Y16.801 E0.09890
G1 X13.757 Y16.801 E0.09686
M204 S1000
G1 X14.104 Y16.394 F10800.000
M204 S800
G1 F900
G1 X14.104 Y14.287 E0.07134
G1 X16.212 Y14.287 E0.07134
G1 X16.212 Y16.394 E0.07134
G1 X14.164 Y16.394 E0.06931
M204 S1000
G1 X14.511 Y15.987 F10800.000
M204 S800
G1 F900
G1 X14.511 Y14.694 E0.04378
G1 X15.805 Y14.694 E0.04378
G1 X15.805 Y15.987 E0.04378
G1 X14.571 Y15.987 E0.04175
M204 S1000
G1 X15.744 Y15.623 F10800.000
M204 S1250
G1 F900
G1 X15.059 Y14.938 E0.03452
G1 X14.756 Y14.938 E0.01079
G1 X14.756 Y15.241 E0.01080
G1 X15.441 Y15.926 E0.03452
M204 S1000
;BEFORE_LAYER_CHANGE
G92 E0.0
;0.8


G1 Z0.800 F10800.000
;AFTER_LAYER_CHANGE
;0.8
G1 X17.433 Y17.615
M204 S800
G1 F900
G1 X12.883 Y17.615 E0.15401
G1 X12.883 Y13.065 E0.15401
G1 X17.433 Y13.065 E0.15401
G1 X17.433 Y17.555 E0.15198
M204 S1000
G1 X17.047 Y17.512 F10800.000
G1 X17.026 Y17.208
M204 S800
G1 F900
G1 X13.290 Y17.208 E0.12645
G1 X13.290 Y13.472 E0.12645
G1 X17.026 Y13.472 E0.12645
G1 X17.026 Y17.148 E0.12442
M204 S1000
G1 X16.619 Y16.801 F10800.000
M204 S800
G1 F900
G1 X13.697 Y16.801 E0.09890
G1 X13.697 Y13.879 E0.09890
G1 X16.619 Y13.879 E0.09890
G1 X16.619 Y16.741 E0.09686
M204 S1000
G1 X16.212 Y16.394 F10800.000
M204 S800
G1 F900
G1 X14.104 Y16.394 E0.07134
G1 X14.104 Y14.287 E0.07134
G1 X16.212 Y14.287 E0.07134
G1 X16.212 Y16.334 E0.06931
M204 S1000
G1 X15.805 Y15.987 F10800.000
M204 S800
G1 F900
G1 X14.511 Y15.987 E0.04378
G1 X14.511 Y14.694 E0.04378
G1 X15.805 Y14.694 E0.04378
G1 X15.805 Y15.927 E0.04175
M204 S1000
G1 X14.572 Y15.623 F10800.000
M204 S1250
G1 F900
G1 X15.257 Y14.938 E0.03452
G1 X15.560 Y14.938 E0.01080
G1 X15.560 Y15.241 E0.01079
G1 X14.875 Y15.926 E0.03452
M204 S1000
;BEFORE_LAYER_CHANGE
G92 E0.0
;1


G1 Z1.000 F10800.000
;AFTER_LAYER_CHANGE
;1
G1 X12.883 Y17.615
M204 S800
G1 F900
G1 X12.883 Y13.065 E0.15401
G1 X17.433 Y13.065 E0.15401
G1 X17.433 Y17.615 E0.15401
G1 X12.943 Y17.615 E0.15198
M204 S1000
G1 X12.987 Y17.229 F10800.000
G1 X13.290 Y17.208
M204 S800
G1 F900
G1 X13.290 Y13.472 E0.12645
G1 X17.026 Y13.472 E0.12645
G1 X17.026 Y17.208 E0.12645
G1 X13.350 Y17.208 E0.12442
M204 S1000
G1 X13.697 Y16.801 F10800.000
M204 S800
G1 F900
G1 X13.697 Y13.879 E0.09890
G1 X16.619 Y13.879 E0.09890
G1 X16.619 Y16.801 E0.09890
G1 X13.757 Y16.801 E0.09686
M204 S1000
G1 X14.104 Y16.394 F10800.000
M204 S800
G1 F900
G1 X14.104 Y14.287 E0.07134
G1 X16.212 Y14.287 E0.07134
G1 X16.212 Y16.394 E0.07134
G1 X14.164 Y16.394 E0.06931
M204 S1000
G1 X14.511 Y15.987 F10800.000
M204 S800
G1 F900
G1 X14.511 Y14.694 E0.04378
G1 X15.805 Y14.694 E0.04378
G1 X15.805 Y15.987 E0.04378
G1 X14.571 Y15.987 E0.04175
M204 S1000
G1 X15.744 Y15.623 F10800.000
M204 S1250
G1 F900
G1 X15.059 Y14.938 E0.03452
G1 X14.756 Y14.938 E0.01079
G1 X14.756 Y15.241 E0.01080
G1 X15.441 Y15.926 E0.03452
M204 S1000
;BEFORE_LAYER_CHANGE
G92 E0.0
;1.2


G1 Z1.200 F10800.000
;AFTER_LAYER_CHANGE
;1.2
G1 X17.433 Y17.615
M204 S800
G1 F900
G1 X12.883 Y17.615 E0.15401
G1 X12.883 Y13.065 E0.15401
G1 X17.433 Y13.065 E0.15401
G1 X17.433 Y17.555 E0.15198
M204 S1000
G1 X17.047 Y17.512 F10800.000
G1 X17.026 Y17.208
M204 S800
G1 F900
G1 X13.290 Y17.208 E0.12645
G1 X13.290 Y13.472 E0.12645
G1 X17.026 Y13.472 E0.12645
G1 X17.026 Y17.148 E0.12442
M204 S1000
G1 X16.619 Y16.801 F10800.000
M204 S800
G1 F900
G1 X13.697 Y16.801 E0.09890
G1 X13.697 Y13.879 E0.09890
G1 X16.619 Y13.879 E0.09890
G1 X16.619 Y16.741 E0.09686
M204 S1000
G1 X16.212 Y16.394 F10800.000
M204 S800
G1 F900
G1 X14.104 Y16.394 E0.07134
G1 X14.104 Y14.287 E0.07134
G1 X16.212 Y14.287 E0.07134
G1 X16.212 Y16.334 E0.06931
M204 S1000
G1 X15.805 Y15.987 F10800.000
M204 S800
G1 F900
G1 X14.511 Y15.987 E0.04378
G1 X14.511 Y14.694 E0.04378
G1 X15.805 Y14.694 E0.04378
G1 X15.805 Y15.927 E0.04175
M204 S1000
;BEFORE_LAYER_CHANGE
G92 E0.0
;1.4


G1 Z1.400 F10800.000
;AFTER_LAYER_CHANGE
;1.4
G1 X17.433 Y17.615
M204 S800
G1 F900
G1 X12.883 Y17.615 E0.15401
G1 X12.883 Y13.065 E0.15401
G1 X17.433 Y13.065 E0.15401
G1 X17.433 Y17.555 E0.15198
M204 S1000
G1 X17.047 Y17.512 F10800.000
G1 X17.026 Y17.208
M204 S800
G1 F900
G1 X13.290 Y17.208 E0.12645
G1 X13.290 Y13.472 E0.12645
G1 X17.026 Y13.472 E0.12645
G1 X17.026 Y17.148 E0.12442
M204 S1000
G1 X16.619 Y16.801 F10800.000
M204 S800
G1 F900
G1 X13.697 Y16.801 E0.09890
G1 X13.697 Y13.879 E0.09890
G1 X16.619 Y13.879 E0.09890
G1 X16.619 Y16.741 E0.09686
M204 S1000
G1 X16.212 Y16.394 F10800.000
M204 S800
G1 F900
G1 X14.104 Y16.394 E0.07134
G1 X14.104 Y14.287 E0.07134
G1 X16.212 Y14.287 E0.07134
G1 X16.212 Y16.334 E0.06931
M204 S1000
G1 X15.805 Y15.987 F10800.000
M204 S800
G1 F900
G1 X14.511 Y15.987 E0.04378
G1 X14.511 Y14.694 E0.04378
G1 X15.805 Y14.694 E0.04378
G1 X15.805 Y15.927 E0.04175
M204 S1000
G1 X14.572 Y15.623 F10800.000
M204 S1250
G1 F900
G1 X15.257 Y14.938 E0.05867
G1 X15.560 Y14.938 E0.01835
G1 X15.560 Y15.241 E0.01834
G1 X14.875 Y15.926 E0.05868
M204 S1000
;BEFORE_LAYER_CHANGE
G92 E0.0
;1.6


G1 Z1.600 F10800.000
;AFTER_LAYER_CHANGE
;1.6
G1 X12.883 Y17.615
M204 S800
G1 F900
G1 X12.883 Y13.065 E0.15401
G1 X17.433 Y13.065 E0.15401
G1 X17.433 Y17.615 E0.15401
G1 X12.943 Y17.615 E0.15198
M204 S1000
G1 X12.987 Y17.229 F10800.000
G1 X13.290 Y17.208
M204 S800
G1 F900
G1 X13.290 Y13.472 E0.12645
G1 X17.026 Y13.472 E0.12645
G1 X17.026 Y17.208 E0.12645
G1 X13.350 Y17.208 E0.12442
M204 S1000
G1 X13.697 Y16.801 F10800.000
M204 S800
G1 F900
G1 X13.697 Y13.879 E0.09890
G1 X16.619 Y13.879 E0.09890
G1 X16.619 Y16.801 E0.09890
G1 X13.757 Y16.801 E0.09686
M204 S1000
G1 X14.104 Y16.394 F10800.000
M204 S800
G1 F900
G1 X14.104 Y14.287 E0.07134
G1 X16.212 Y14.287 E0.07134
G1 X16.212 Y16.394 E0.07134
G1 X14.164 Y16.394 E0.06931
M204 S1000
G1 X14.511 Y15.987 F10800.000
M204 S800
G1 F900
G1 X14.511 Y14.694 E0.04378
G1 X15.805 Y14.694 E0.04378
G1 X15.805 Y15.987 E0.04378
G1 X14.571 Y15.987 E0.04175
M204 S1000
;BEFORE_LAYER_CHANGE
G92 E0.0
;1.8


G1 Z1.800 F10800.000
;AFTER_LAYER_CHANGE
;1.8
G1 X12.883 Y17.615
M204 S800
G1 F900
G1 X12.883 Y13.065 E0.15401
G1 X17.433 Y13.065 E0.15401
G1 X17.433 Y17.615 E0.15401
G1 X12.943 Y17.615 E0.15198
M204 S1000
G1 X12.987 Y17.229 F10800.000
G1 X13.290 Y17.208
M204 S800
G1 F900
G1 X13.290 Y13.472 E0.12645
G1 X17.026 Y13.472 E0.12645
G1 X17.026 Y17.208 E0.12645
G1 X13.350 Y17.208 E0.12442
M204 S1000
G1 X13.697 Y16.801 F10800.000
M204 S800
G1 F900
G1 X13.697 Y13.879 E0.09890
G1 X16.619 Y13.879 E0.09890
G1 X16.619 Y16.801 E0.09890
G1 X13.757 Y16.801 E0.09686
M204 S1000
G1 X14.104 Y16.394 F10800.000
M204 S800
G1 F900
G1 X14.104 Y14.287 E0.07134
G1 X16.212 Y14.287 E0.07134
G1 X16.212 Y16.394 E0.07134
G1 X14.164 Y16.394 E0.06931
M204 S1000
G1 X14.511 Y15.987 F10800.000
M204 S800
G1 F900
G1 X14.511 Y14.694 E0.04378
G1 X15.805 Y14.694 E0.04378
G1 X15.805 Y15.987 E0.04378
G1 X14.571 Y15.987 E0.04175
M204 S1000
G1 X15.744 Y15.623 F10800.000
M204 S1250
G1 F900
G1 X15.059 Y14.938 E0.05868
G1 X14.756 Y14.938 E0.01834
G1 X14.756 Y15.241 E0.01835
G1 X15.441 Y15.926 E0.05867
M204 S1000
;BEFORE_LAYER_CHANGE
G92 E0.0
;2


G1 Z2.000 F10800.000
;AFTER_LAYER_CHANGE
;2
G1 X17.433 Y17.615
M204 S800
G1 F900
G1 X12.883 Y17.615 E0.15401
G1 X12.883 Y13.065 E0.15401
G1 X17.433 Y13.065 E0.15401
G1 X17.433 Y17.555 E0.15198
M204 S1000
G1 X17.047 Y17.512 F10800.000
G1 X17.026 Y17.208
M204 S800
G1 F900
G1 X13.290 Y17.208 E0.12645
G1 X13.290 Y13.472 E0.12645
G1 X17.026 Y13.472 E0.12645
G1 X17.026 Y17.148 E0.12442
M204 S1000
G1 X16.619 Y16.801 F10800.000
M204 S800
G1 F900
G1 X13.697 Y16.801 E0.09890
G1 X13.697 Y13.879 E0.09890
G1 X16.619 Y13.879 E0.09890
G1 X16.619 Y16.741 E0.09686
M204 S1000
G1 X16.212 Y16.394 F10800.000
M204 S800
G1 F900
G1 X14.104 Y16.394 E0.07134
G1 X14.104 Y14.287 E0.07134
G1 X16.212 Y14.287 E0.07134
G1 X16.212 Y16.334 E0.06931
M204 S1000
G1 X15.805 Y15.987 F10800.000
M204 S800
G1 F900
G1 X14.511 Y15.987 E0.04378
G1 X14.511 Y14.694 E0.04378
G1 X15.805 Y14.694 E0.04378
G1 X15.805 Y15.927 E0.04175
M204 S1000
;BEFORE_LAYER_CHANGE
G92 E0.0
;2.2


G1 Z2.200 F10800.000
;AFTER_LAYER_CHANGE
;2.2
G1 X17.433 Y17.615
M204 S800
G1 F900
G1 X12.883 Y17.615 E0.15401
G1 X12.883 Y13.065 E0.15401
G1 X17.433 Y13.065 E0.15401
G1 X17.433 Y17.555 E0.15198
M204 S1000
G1 X17.047 Y17.512 F10800.000
G1 X17.026 Y17.208
M204 S800
G1 F900
G1 X13.290 Y17.208 E0.12645
G1 X13.290 Y13.472 E0.12645
G1 X17.026 Y13.472 E0.12645
G1 X17.026 Y17.148 E0.12442
M204 S1000
G1 X16.619 Y16.801 F10800.000
M204 S800
G1 F900
G1 X13.697 Y16.801 E0.09890
G1 X13.697 Y13.879 E0.09890
G1 X16.619 Y13.879 E0.09890
G1 X16.619 Y16.741 E0.09686
M204 S1000
G1 X16.212 Y16.394 F10800.000
M204 S800
G1 F900
G1 X14.104 Y16.394 E0.07134
G1 X14.104 Y14.287 E0.07134
G1 X16.212 Y14.287 E0.07134
G1 X16.212 Y16.334 E0.06931
M204 S1000
G1 X15.805 Y15.987 F10800.000
M204 S800
G1 F900
G1 X14.511 Y15.987 E0.04378
G1 X14.511 Y14.694 E0.04378
G1 X15.805 Y14.694 E0.04378
G1 X15.805 Y15.927 E0.04175
M204 S1000
G1 X14.572 Y15.623 F10800.000
M204 S1250
G1 F900
G1 X15.257 Y14.938 E0.05867
G1 X15.560 Y14.938 E0.01835
G1 X15.560 Y15.241 E0.01834
G1 X14.875 Y15.926 E0.05868
M204 S1000
;BEFORE_LAYER_CHANGE
G92 E0.0
;2.4


G1 Z2.400 F10800.000
;AFTER_LAYER_CHANGE
;2.4
G1 X12.883 Y17.615
M204 S800
G1 F900
G1 X12.883 Y13.065 E0.15401
G1 X17.433 Y13.065 E0.15401
G1 X17.433 Y17.615 E0.15401
G1 X12.943 Y17.615 E0.15198
M204 S1000
G1 X12.987 Y17.229 F10800.000
G1 X13.290 Y17.208
M204 S800
G1 F900
G1 X13.290 Y13.472 E0.12645
G1 X17.026 Y13.472 E0.12645
G1 X17.026 Y17.208 E0.12645
G1 X13.350 Y17.208 E0.12442
M204 S1000
G1 X13.697 Y16.801 F10800.000
M204 S800
G1 F900
G1 X13.697 Y13.879 E0.09890
G1 X16.619 Y13.879 E0.09890
G1 X16.619 Y16.801 E0.09890
G1 X13.757 Y16.801 E0.09686
M204 S1000
G1 X14.104 Y16.394 F10800.000
M204 S800
G1 F900
G1 X14.104 Y14.287 E0.07134
G1 X16.212 Y14.287 E0.07134
G1 X16.212 Y16.394 E0.07134
G1 X14.164 Y16.394 E0.06931
M204 S1000
G1 X14.511 Y15.987 F10800.000
M204 S800
G1 F900
G1 X14.511 Y14.694 E0.04378
G1 X15.805 Y14.694 E0.04378
G1 X15.805 Y15.987 E0.04378
G1 X14.571 Y15.987 E0.04175
M204 S1000
;BEFORE_LAYER_CHANGE
G92 E0.0
;2.6


G1 Z2.600 F10800.000
;AFTER_LAYER_CHANGE
;2.6
G1 X12.883 Y17.615
M204 S800
G1 F900
G1 X12.883 Y13.065 E0.15401
G1 X17.433 Y13.065 E0.15401
G1 X17.433 Y17.615 E0.15401
G1 X12.943 Y17.615 E0.15198
M204 S1000
G1 X12.987 Y17.229 F10800.000
G1 X13.290 Y17.208
M204 S800
G1 F900
G1 X13.290 Y13.472 E0.12645
G1 X17.026 Y13.472 E0.12645
G1 X17.026 Y17.208 E0.12645
G1 X13.350 Y17.208 E0.12442
M204 S1000
G1 X13.697 Y16.801 F10800.000
M204 S800
G1 F900
G1 X13.697 Y13.879 E0.09890
G1 X16.619 Y13.879 E0.09890
G1 X16.619 Y16.801 E0.09890
G1 X13.757 Y16.801 E0.09686
M204 S1000
G1 X14.104 Y16.394 F10800.000
M204 S800
G1 F900
G1 X14.104 Y14.287 E0.07134
G1 X16.212 Y14.287 E0.07134
G1 X16.212 Y16.394 E0.07134
G1 X14.164 Y16.394 E0.06931
M204 S1000
G1 X14.511 Y15.987 F10800.000
M204 S800
G1 F900
G1 X14.511 Y14.694 E0.04378
G1 X15.805 Y14.694 E0.04378
G1 X15.805 Y15.987 E0.04378
G1 X14.571 Y15.987 E0.04175
M204 S1000
G1 X15.744 Y15.623 F10800.000
M204 S1250
G1 F900
G1 X15.059 Y14.938 E0.05868
G1 X14.756 Y14.938 E0.01834
G1 X14.756 Y15.241 E0.01835
G1 X15.441 Y15.926 E0.05867
M204 S1000
;BEFORE_LAYER_CHANGE
G92 E0.0
;2.8


G1 Z2.800 F10800.000
;AFTER_LAYER_CHANGE
;2.8
G1 X17.433 Y17.615
M204 S800
G1 F900
G1 X12.883 Y17.615 E0.15401
G1 X12.883 Y13.065 E0.15401
G1 X17.433 Y13.065 E0.15401
G1 X17.433 Y17.555 E0.15198
M204 S1000
G1 X17.047 Y17.512 F10800.000
G1 X17.026 Y17.208
M204 S800
G1 F900
G1 X13.290 Y17.208 E0.12645
G1 X13.290 Y13.472 E0.12645
G1 X17.026 Y13.472 E0.12645
G1 X17.026 Y17.148 E0.12442
M204 S1000
G1 X16.619 Y16.801 F10800.000
M204 S800
G1 F900
G1 X13.697 Y16.801 E0.09890
G1 X13.697 Y13.879 E0.09890
G1 X16.619 Y13.879 E0.09890
G1 X16.619 Y16.741 E0.09686
M204 S1000
G1 X16.212 Y16.394 F10800.000
M204 S800
G1 F900
G1 X14.104 Y16.394 E0.07134
M73 Q52 S1
M73 P52 R1
G1 X14.104 Y14.287 E0.07134
G1 X16.212 Y14.287 E0.07134
G1 X16.212 Y16.334 E0.06931
M204 S1000
G1 X15.805 Y15.987 F10800.000
M204 S800
G1 F900
G1 X14.511 Y15.987 E0.04378
G1 X14.511 Y14.694 E0.04378
G1 X15.805 Y14.694 E0.04378
G1 X15.805 Y15.927 E0.04175
M204 S1000
;BEFORE_LAYER_CHANGE
G92 E0.0
;3


G1 Z3.000 F10800.000
;AFTER_LAYER_CHANGE
;3
G1 X17.433 Y17.615
M204 S800
G1 F900
G1 X12.883 Y17.615 E0.15401
G1 X12.883 Y13.065 E0.15401
G1 X17.433 Y13.065 E0.15401
G1 X17.433 Y17.555 E0.15198
M204 S1000
G1 X17.047 Y17.512 F10800.000
G1 X17.026 Y17.208
M204 S800
G1 F900
G1 X13.290 Y17.208 E0.12645
G1 X13.290 Y13.472 E0.12645
G1 X17.026 Y13.472 E0.12645
G1 X17.026 Y17.148 E0.12442
M204 S1000
G1 X16.619 Y16.801 F10800.000
M204 S800
G1 F900
G1 X13.697 Y16.801 E0.09890
G1 X13.697 Y13.879 E0.09890
G1 X16.619 Y13.879 E0.09890
G1 X16.619 Y16.741 E0.09686
M204 S1000
G1 X16.212 Y16.394 F10800.000
M204 S800
G1 F900
G1 X14.104 Y16.394 E0.07134
G1 X14.104 Y14.287 E0.07134
G1 X16.212 Y14.287 E0.07134
G1 X16.212 Y16.334 E0.06931
M204 S1000
G1 X15.805 Y15.987 F10800.000
M204 S800
G1 F900
G1 X14.511 Y15.987 E0.04378
G1 X14.511 Y14.694 E0.04378
G1 X15.805 Y14.694 E0.04378
G1 X15.805 Y15.927 E0.04175
M204 S1000
G1 X14.572 Y15.623 F10800.000
M204 S1250
G1 F900
G1 X15.257 Y14.938 E0.05867
G1 X15.560 Y14.938 E0.01835
G1 X15.560 Y15.241 E0.01834
G1 X14.875 Y15.926 E0.05868
M204 S1000
;BEFORE_LAYER_CHANGE
G92 E0.0
;3.2


G1 Z3.200 F10800.000
;AFTER_LAYER_CHANGE
;3.2
G1 X12.883 Y17.615
M204 S800
G1 F900
G1 X12.883 Y13.065 E0.15401
G1 X17.433 Y13.065 E0.15401
G1 X17.433 Y17.615 E0.15401
G1 X12.943 Y17.615 E0.15198
M204 S1000
G1 X12.987 Y17.229 F10800.000
G1 X13.290 Y17.208
M204 S800
G1 F900
G1 X13.290 Y13.472 E0.12645
G1 X17.026 Y13.472 E0.12645
G1 X17.026 Y17.208 E0.12645
G1 X13.350 Y17.208 E0.12442
M204 S1000
G1 X13.697 Y16.801 F10800.000
M204 S800
G1 F900
G1 X13.697 Y13.879 E0.09890
G1 X16.619 Y13.879 E0.09890
G1 X16.619 Y16.801 E0.09890
G1 X13.757 Y16.801 E0.09686
M204 S1000
G1 X14.104 Y16.394 F10800.000
M204 S800
G1 F900
G1 X14.104 Y14.287 E0.07134
G1 X16.212 Y14.287 E0.07134
G1 X16.212 Y16.394 E0.07134
G1 X14.164 Y16.394 E0.06931
M204 S1000
G1 X14.511 Y15.987 F10800.000
M204 S800
G1 F900
G1 X14.511 Y14.694 E0.04378
G1 X15.805 Y14.694 E0.04378
G1 X15.805 Y15.987 E0.04378
G1 X14.571 Y15.987 E0.04175
M204 S1000
;BEFORE_LAYER_CHANGE
G92 E0.0
;3.4


G1 Z3.400 F10800.000
;AFTER_LAYER_CHANGE
;3.4
G1 X12.883 Y17.615
M204 S800
G1 F900
G1 X12.883 Y13.065 E0.15401
G1 X17.433 Y13.065 E0.15401
G1 X17.433 Y17.615 E0.15401
G1 X12.943 Y17.615 E0.15198
M204 S1000
G1 X12.987 Y17.229 F10800.000
G1 X13.290 Y17.208
M204 S800
G1 F900
G1 X13.290 Y13.472 E0.12645
G1 X17.026 Y13.472 E0.12645
G1 X17.026 Y17.208 E0.12645
G1 X13.350 Y17.208 E0.12442
M204 S1000
G1 X13.697 Y16.801 F10800.000
M204 S800
G1 F900
G1 X13.697 Y13.879 E0.09890
G1 X16.619 Y13.879 E0.09890
G1 X16.619 Y16.801 E0.09890
G1 X13.757 Y16.801 E0.09686
M204 S1000
G1 X14.104 Y16.394 F10800.000
M204 S800
G1 F900
G1 X14.104 Y14.287 E0.07134
G1 X16.212 Y14.287 E0.07134
G1 X16.212 Y16.394 E0.07134
G1 X14.164 Y16.394 E0.06931
M204 S1000
G1 X14.511 Y15.987 F10800.000
M204 S800
G1 F900
G1 X14.511 Y14.694 E0.04378
G1 X15.805 Y14.694 E0.04378
G1 X15.805 Y15.987 E0.04378
G1 X14.571 Y15.987 E0.04175
M204 S1000
G1 X15.744 Y15.623 F10800.000
M204 S1250
G1 F900
G1 X15.059 Y14.938 E0.05868
G1 X14.756 Y14.938 E0.01834
G1 X14.756 Y15.241 E0.01835
G1 X15.441 Y15.926 E0.05867
M204 S1000
;BEFORE_LAYER_CHANGE
G92 E0.0
;3.6


G1 Z3.600 F10800.000
;AFTER_LAYER_CHANGE
;3.6
G1 X17.433 Y17.615
M204 S800
G1 F900
G1 X12.883 Y17.615 E0.15401
G1 X12.883 Y13.065 E0.15401
G1 X17.433 Y13.065 E0.15401
G1 X17.433 Y17.555 E0.15198
M204 S1000
G1 X17.047 Y17.512 F10800.000
G1 X17.026 Y17.208
M204 S800
G1 F900
G1 X13.290 Y17.208 E0.12645
G1 X13.290 Y13.472 E0.12645
G1 X17.026 Y13.472 E0.12645
G1 X17.026 Y17.148 E0.12442
M204 S1000
G1 X16.619 Y16.801 F10800.000
M204 S800
G1 F900
G1 X13.697 Y16.801 E0.09890
G1 X13.697 Y13.879 E0.09890
G1 X16.619 Y13.879 E0.09890
G1 X16.619 Y16.741 E0.09686
M204 S1000
G1 X16.212 Y16.394 F10800.000
M204 S800
G1 F900
G1 X14.104 Y16.394 E0.07134
G1 X14.104 Y14.287 E0.07134
G1 X16.212 Y14.287 E0.07134
G1 X16.212 Y16.334 E0.06931
M204 S1000
G1 X15.805 Y15.987 F10800.000
M204 S800
G1 F900
G1 X14.511 Y15.987 E0.04378
G1 X14.511 Y14.694 E0.04378
G1 X15.805 Y14.694 E0.04378
G1 X15.805 Y15.927 E0.04175
M204 S1000
;BEFORE_LAYER_CHANGE
G92 E0.0
;3.8


G1 Z3.800 F10800.000
;AFTER_LAYER_CHANGE
;3.8
G1 X17.433 Y17.615
M204 S800
G1 F900
G1 X12.883 Y17.615 E0.15401
G1 X12.883 Y13.065 E0.15401
G1 X17.433 Y13.065 E0.15401
G1 X17.433 Y17.555 E0.15198
M204 S1000
G1 X17.047 Y17.512 F10800.000
G1 X17.026 Y17.208
M204 S800
G1 F900
G1 X13.290 Y17.208 E0.12645
G1 X13.290 Y13.472 E0.12645
G1 X17.026 Y13.472 E0.12645
G1 X17.026 Y17.148 E0.12442
M204 S1000
G1 X16.619 Y16.801 F10800.000
M204 S800
G1 F900
G1 X13.697 Y16.801 E0.09890
G1 X13.697 Y13.879 E0.09890
G1 X16.619 Y13.879 E0.09890
G1 X16.619 Y16.741 E0.09686
M204 S1000
G1 X16.212 Y16.394 F10800.000
M204 S800
G1 F900
G1 X14.104 Y16.394 E0.07134
G1 X14.104 Y14.287 E0.07134
G1 X16.212 Y14.287 E0.07134
G1 X16.212 Y16.334 E0.06931
M204 S1000
G1 X15.805 Y15.987 F10800.000
M204 S800
G1 F900
G1 X14.511 Y15.987 E0.04378
G1 X14.511 Y14.694 E0.04378
G1 X15.805 Y14.694 E0.04378
G1 X15.805 Y15.927 E0.04175
M204 S1000
G1 X14.572 Y15.623 F10800.000
M204 S1250
G1 F900
G1 X15.257 Y14.938 E0.05867
G1 X15.560 Y14.938 E0.01835
G1 X15.560 Y15.241 E0.01834
G1 X14.875 Y15.926 E0.05868
M204 S1000
;BEFORE_LAYER_CHANGE
G92 E0.0
;4


G1 Z4.000 F10800.000
;AFTER_LAYER_CHANGE
;4
G1 X12.883 Y17.615
M204 S800
G1 F900
G1 X12.883 Y13.065 E0.15401
G1 X17.433 Y13.065 E0.15401
G1 X17.433 Y17.615 E0.15401
G1 X12.943 Y17.615 E0.15198
M204 S1000
G1 X12.987 Y17.229 F10800.000
G1 X13.290 Y17.208
M204 S800
G1 F900
G1 X13.290 Y13.472 E0.12645
G1 X17.026 Y13.472 E0.12645
G1 X17.026 Y17.208 E0.12645
G1 X13.350 Y17.208 E0.12442
M204 S1000
G1 X13.697 Y16.801 F10800.000
M204 S800
G1 F900
G1 X13.697 Y13.879 E0.09890
G1 X16.619 Y13.879 E0.09890
G1 X16.619 Y16.801 E0.09890
G1 X13.757 Y16.801 E0.09686
M204 S1000
G1 X14.104 Y16.394 F10800.000
M204 S800
G1 F900
G1 X14.104 Y14.287 E0.07134
G1 X16.212 Y14.287 E0.07134
G1 X16.212 Y16.394 E0.07134
G1 X14.164 Y16.394 E0.06931
M204 S1000
G1 X14.511 Y15.987 F10800.000
M204 S800
G1 F900
G1 X14.511 Y14.694 E0.04378
G1 X15.805 Y14.694 E0.04378
G1 X15.805 Y15.987 E0.04378
G1 X14.571 Y15.987 E0.04175
M204 S1000
G1 X14.572 Y15.623 F10800.000
M204 S1250
G1 F900
G1 X15.257 Y14.938 E0.03452
G1 X15.560 Y14.938 E0.01080
G1 X15.560 Y15.241 E0.01079
G1 X14.875 Y15.926 E0.03452
M204 S1000
;BEFORE_LAYER_CHANGE
G92 E0.0
;4.2


G1 Z4.200 F10800.000
;AFTER_LAYER_CHANGE
;4.2
G1 X12.883 Y17.615
M204 S800
G1 F900
G1 X12.883 Y13.065 E0.15401
G1 X17.433 Y13.065 E0.15401
G1 X17.433 Y17.615 E0.15401
G1 X12.943 Y17.615 E0.15198
M204 S1000
G1 X12.987 Y17.229 F10800.000
G1 X13.290 Y17.208
M204 S800
G1 F900
G1 X13.290 Y13.472 E0.12645
G1 X17.026 Y13.472 E0.12645
G1 X17.026 Y17.208 E0.12645
G1 X13.350 Y17.208 E0.12442
M204 S1000
G1 X13.697 Y16.801 F10800.000
M204 S800
G1 F900
G1 X13.697 Y13.879 E0.09890
G1 X16.619 Y13.879 E0.09890
G1 X16.619 Y16.801 E0.09890
G1 X13.757 Y16.801 E0.09686
M204 S1000
G1 X14.104 Y16.394 F10800.000
M204 S800
G1 F900
G1 X14.104 Y14.287 E0.07134
G1 X16.212 Y14.287 E0.07134
G1 X16.212 Y16.394 E0.07134
G1 X14.164 Y16.394 E0.06931
M204 S1000
G1 X14.511 Y15.987 F10800.000
M204 S800
G1 F900
G1 X14.511 Y14.694 E0.04378
G1 X15.805 Y14.694 E0.04378
G1 X15.805 Y15.987 E0.04378
G1 X14.571 Y15.987 E0.04175
M204 S1000
G1 X15.744 Y15.623 F10800.000
M204 S1250
G1 F900
G1 X15.059 Y14.938 E0.03452
G1 X14.756 Y14.938 E0.01079
G1 X14.756 Y15.241 E0.01080
G1 X15.441 Y15.926 E0.03452
M204 S1000
;BEFORE_LAYER_CHANGE
G92 E0.0
;4.4


G1 Z4.400 F10800.000
;AFTER_LAYER_CHANGE
;4.4
G1 X17.433 Y17.615
M204 S800
G1 F900
G1 X12.883 Y17.615 E0.15401
G1 X12.883 Y13.065 E0.15401
G1 X17.433 Y13.065 E0.15401
G1 X17.433 Y17.555 E0.15198
M204 S1000
G1 X17.047 Y17.512 F10800.000
G1 X17.026 Y17.208
M204 S800
G1 F900
G1 X13.290 Y17.208 E0.12645
G1 X13.290 Y13.472 E0.12645
G1 X17.026 Y13.472 E0.12645
G1 X17.026 Y17.148 E0.12442
M204 S1000
G1 X16.619 Y16.801 F10800.000
M204 S800
G1 F900
G1 X13.697 Y16.801 E0.09890
G1 X13.697 Y13.879 E0.09890
G1 X16.619 Y13.879 E0.09890
G1 X16.619 Y16.741 E0.09686
M204 S1000
G1 X16.212 Y16.394 F10800.000
M204 S800
G1 F900
G1 X14.104 Y16.394 E0.07134
G1 X14.104 Y14.287 E0.07134
G1 X16.212 Y14.287 E0.07134
G1 X16.212 Y16.334 E0.06931
M204 S1000
G1 X15.805 Y15.987 F10800.000
M204 S800
G1 F900
G1 X14.511 Y15.987 E0.04378
G1 X14.511 Y14.694 E0.04378
G1 X15.805 Y14.694 E0.04378
G1 X15.805 Y15.927 E0.04175
M204 S1000
G1 X14.572 Y15.623 F10800.000
M204 S1250
G1 F900
G1 X15.257 Y14.938 E0.03452
G1 X15.560 Y14.938 E0.01080
G1 X15.560 Y15.241 E0.01079
G1 X14.875 Y15.926 E0.03452
M204 S1000
;BEFORE_LAYER_CHANGE
G92 E0.0
;4.6


G1 Z4.600 F10800.000
;AFTER_LAYER_CHANGE
;4.6
G1 X12.883 Y17.615
M204 S800
G1 F900
G1 X12.883 Y13.065 E0.15401
G1 X17.433 Y13.065 E0.15401
G1 X17.433 Y17.615 E0.15401
G1 X12.943 Y17.615 E0.15198
M204 S1000
G1 X12.987 Y17.229 F10800.000
G1 X13.290 Y17.208
M204 S800
G1 F900
G1 X13.290 Y13.472 E0.12645
G1 X17.026 Y13.472 E0.12645
G1 X17.026 Y17.208 E0.12645
G1 X13.350 Y17.208 E0.12442
M204 S1000
G1 X13.697 Y16.801 F10800.000
M204 S800
G1 F900
G1 X13.697 Y13.879 E0.09890
G1 X16.619 Y13.879 E0.09890
G1 X16.619 Y16.801 E0.09890
G1 X13.757 Y16.801 E0.09686
M204 S1000
G1 X14.104 Y16.394 F10800.000
M204 S800
G1 F900
G1 X14.104 Y14.287 E0.07134
G1 X16.212 Y14.287 E0.07134
G1 X16.212 Y16.394 E0.07134
G1 X14.164 Y16.394 E0.06931
M204 S1000
G1 X14.511 Y15.987 F10800.000
M204 S800
G1 F900
G1 X14.511 Y14.694 E0.04378
G1 X15.805 Y14.694 E0.04378
G1 X15.805 Y15.987 E0.04378
G1 X14.571 Y15.987 E0.04175
M204 S1000
G1 X15.744 Y15.623 F10800.000
M204 S1250
G1 F900
G1 X15.059 Y14.938 E0.03452
G1 X14.756 Y14.938 E0.01079
G1 X14.756 Y15.241 E0.01080
G1 X15.441 Y15.926 E0.03452
M204 S1000
;BEFORE_LAYER_CHANGE
G92 E0.0
;4.8


G1 Z4.800 F10800.000
;AFTER_LAYER_CHANGE
;4.8
G1 X17.433 Y17.615
M204 S800
G1 F900
G1 X12.883 Y17.615 E0.15401
G1 X12.883 Y13.065 E0.15401
G1 X17.433 Y13.065 E0.15401
G1 X17.433 Y17.555 E0.15198
M204 S1000
G1 X17.047 Y17.512 F10800.000
G1 X17.026 Y17.208
M204 S800
G1 F900
G1 X13.290 Y17.208 E0.12645
G1 X13.290 Y13.472 E0.12645
G1 X17.026 Y13.472 E0.12645
G1 X17.026 Y17.148 E0.12442
M204 S1000
G1 X16.619 Y16.801 F10800.000
M204 S800
G1 F900
G1 X13.697 Y16.801 E0.09890
G1 X13.697 Y13.879 E0.09890
G1 X16.619 Y13.879 E0.09890
G1 X16.619 Y16.741 E0.09686
M204 S1000
G1 X16.212 Y16.394 F10800.000
M204 S800
G1 F900
G1 X14.104 Y16.394 E0.07134
G1 X14.104 Y14.287 E0.07134
G1 X16.212 Y14.287 E0.07134
G1 X16.212 Y16.334 E0.06931
M204 S1000
G1 X15.805 Y15.987 F10800.000
M204 S800
G1 F900
G1 X14.511 Y15.987 E0.04378
G1 X14.511 Y14.694 E0.04378
G1 X15.805 Y14.694 E0.04378
G1 X15.805 Y15.927 E0.04175
M204 S1000
G1 X14.572 Y15.623 F10800.000
M204 S1250
G1 F900
G1 X15.257 Y14.938 E0.03452
G1 X15.560 Y14.938 E0.01080
G1 X15.560 Y15.241 E0.01079
G1 X14.875 Y15.926 E0.03452
M204 S1000
;BEFORE_LAYER_CHANGE
G92 E0.0
;5


G1 Z5.000 F10800.000
;AFTER_LAYER_CHANGE
;5
G1 X12.883 Y17.615
M204 S800
G1 F900
G1 X12.883 Y13.065 E0.15401
G1 X17.433 Y13.065 E0.15401
G1 X17.433 Y17.615 E0.15401
G1 X12.943 Y17.615 E0.15198
M204 S1000
G1 X12.987 Y17.229 F10800.000
G1 X13.290 Y17.208
M204 S800
G1 F900
G1 X13.290 Y13.472 E0.12645
G1 X17.026 Y13.472 E0.12645
G1 X17.026 Y17.208 E0.12645
G1 X13.350 Y17.208 E0.12442
M204 S1000
G1 X13.697 Y16.801 F10800.000
M204 S800
G1 F900
G1 X13.697 Y13.879 E0.09890
G1 X16.619 Y13.879 E0.09890
G1 X16.619 Y16.801 E0.09890
G1 X13.757 Y16.801 E0.09686
M204 S1000
G1 X14.104 Y16.394 F10800.000
M204 S800
G1 F900
G1 X14.104 Y14.287 E0.07134
G1 X16.212 Y14.287 E0.07134
G1 X16.212 Y16.394 E0.07134
G1 X14.164 Y16.394 E0.06931
M204 S1000
G1 X14.511 Y15.987 F10800.000
M204 S800
G1 F900
G1 X14.511 Y14.694 E0.04378
G1 X15.805 Y14.694 E0.04378
G1 X15.805 Y15.987 E0.04378
G1 X14.571 Y15.987 E0.04175
M204 S1000
G1 X15.746 Y15.626 F10800.000
M204 S1250
G1 F900
G1 X15.034 Y14.913 E0.03591
G1 X14.731 Y14.913 E0.01079
G1 X14.731 Y15.216 E0.01080
G1 X15.443 Y15.928 E0.03590
M204 S1000
M107
; Filament-specific end gcode
G4 ; wait
M221 S100
M104 S0 ; turn off temperature
M140 S0 ; turn off heatbed
M107 ; turn off fan
G1 Z35 ; Move print head up
G1 X0 Y200 F3000 ; home X axis
M84 ; disable motors
M73 P100 R0
M73 Q100 S0
; filament used [mm] = 51.3
; filament used [cm3] = 0.1
; filament used [g] = 0.2
; filament cost = 0.0

; total filament used [g] = 0.2
; total filament cost = 0.0
; estimated printing time (normal mode) = 1m 56s
; estimated printing time (silent mode) = 1m 55s

; avoid_crossing_perimeters = 0
; bed_custom_model = 
; bed_custom_texture = 
; bed_shape = 0x0,250x0,250x210,0x210
; bed_temperature = 75
; before_layer_gcode = ;BEFORE_LAYER_CHANGE\nG92 E0.0\n;[layer_z]\n\n
; between_objects_gcode = 
; bottom_fill_pattern = rectilinear
; bottom_solid_layers = 5
; bottom_solid_min_thickness = 0
; bridge_acceleration = 1000
; bridge_angle = 0
; bridge_fan_speed = 100
; bridge_flow_ratio = 0.95
; bridge_speed = 30
; brim_width = 0
; clip_multipart_objects = 1
; compatible_printers_condition_cummulative = "printer_notes=~/.*PRINTER_VENDOR_PRUSA3D.*/ and printer_notes=~/.*PRINTER_MODEL_MK3.*/ and nozzle_diameter[0]==0.4";"! (printer_notes=~/.*PRINTER_VENDOR_PRUSA3D.*/ and printer_notes=~/.*PRINTER_MODEL_MK(2.5|3).*/ and single_extruder_multi_material)"
; complete_objects = 0
; cooling = 1
; cooling_tube_length = 5
; cooling_tube_retraction = 91.5
; default_acceleration = 1000
; default_filament_profile = "Prusament PLA"
; default_print_profile = 0.15mm QUALITY MK3
; deretract_speed = 0
; disable_fan_first_layers = 1
; dont_support_bridges = 1
; draft_shield = 0
; duplicate_distance = 6
; elefant_foot_compensation = 0
; end_filament_gcode = "; Filament-specific end gcode"
; end_gcode = G4 ; wait\nM221 S100\nM104 S0 ; turn off temperature\nM140 S0 ; turn off heatbed\nM107 ; turn off fan\n{if layer_z < max_print_height}G1 Z{z_offset+min(layer_z+30, max_print_height)}{endif} ; Move print head up\nG1 X0 Y200 F3000 ; home X axis\nM84 ; disable motors
; ensure_vertical_shell_thickness = 1
; external_perimeter_extrusion_width = 0.45
; external_perimeter_speed = 35
; external_perimeters_first = 1
; extra_loading_move = -2
; extra_perimeters = 0
; extruder_clearance_height = 25
; extruder_clearance_radius = 45
; extruder_colour = ""
; extruder_offset = 0x0
; extrusion_axis = E
; extrusion_multiplier = 1
; extrusion_width = 0.45
; fan_always_on = 1
; fan_below_layer_time = 100
; filament_colour = #FF8000
; filament_cooling_final_speed = 3.4
; filament_cooling_initial_speed = 2.2
; filament_cooling_moves = 4
; filament_cost = 24.99
; filament_density = 1.24
; filament_diameter = 1.75
; filament_load_time = 0
; filament_loading_speed = 28
; filament_loading_speed_start = 3
; filament_max_volumetric_speed = 12.5
; filament_minimal_purge_on_wipe_tower = 15
; filament_notes = "Affordable filament for everyday printing in premium quality manufactured in-house by Josef Prusa"
; filament_ramming_parameters = "120 100 6.6 6.8 7.2 7.6 7.9 8.2 8.7 9.4 9.9 10.0| 0.05 6.6 0.45 6.8 0.95 7.8 1.45 8.3 1.95 9.7 2.45 10 2.95 7.6 3.45 7.6 3.95 7.6 4.45 7.6 4.95 7.6"
; filament_settings_id = PLA
; filament_soluble = 0
; filament_toolchange_delay = 0
; filament_type = PLA
; filament_unload_time = 0
; filament_unloading_speed = 90
; filament_unloading_speed_start = 100
; filament_vendor = (Unknown)
; fill_angle = 45
; fill_density = 100%
; fill_pattern = rectilinear
; first_layer_acceleration = 1000
; first_layer_bed_temperature = 75
; first_layer_extrusion_width = 0.42
; first_layer_height = 0.2
; first_layer_speed = 20
; first_layer_temperature = 215
; gap_fill_speed = 40
; gcode_comments = 0
; gcode_flavor = marlin
; gcode_label_objects = 0
; high_current_on_filament_swap = 0
; host_type = octoprint
; infill_acceleration = 1250
; infill_every_layers = 2
; infill_extruder = 1
; infill_extrusion_width = 0.45
; infill_first = 0
; infill_only_where_needed = 0
; infill_overlap = 40%
; infill_speed = 200
; inherits_cummulative = "0.20mm SPEED MK3";"Prusament PLA";"Original Prusa i3 MK3S"
; interface_shells = 0
; layer_gcode = ;AFTER_LAYER_CHANGE\n;[layer_z]
; layer_height = 0.2
; machine_max_acceleration_e = 5000,5000
; machine_max_acceleration_extruding = 1250,1250
; machine_max_acceleration_retracting = 1250,1250
; machine_max_acceleration_x = 1000,960
; machine_max_acceleration_y = 1000,960
; machine_max_acceleration_z = 1000,1000
; machine_max_feedrate_e = 120,120
; machine_max_feedrate_x = 200,100
; machine_max_feedrate_y = 200,100
; machine_max_feedrate_z = 12,12
; machine_max_jerk_e = 1.5,1.5
; machine_max_jerk_x = 8,8
; machine_max_jerk_y = 8,8
; machine_max_jerk_z = 0.4,0.4
; machine_min_extruding_rate = 0,0
; machine_min_travel_rate = 0,0
; max_fan_speed = 100
; max_layer_height = 0.25
; max_print_height = 210
; max_print_speed = 200
; max_volumetric_speed = 0
; min_fan_speed = 100
; min_layer_height = 0.07
; min_print_speed = 15
; min_skirt_length = 4
; notes = 
; nozzle_diameter = 0.4
; only_retract_when_crossing_perimeters = 0
; ooze_prevention = 0
; output_filename_format = {input_filename_base}_{total_weight}_{print_time}.gcode
; overhangs = 1
; parking_pos_retraction = 92
; perimeter_acceleration = 800
; perimeter_extruder = 1
; perimeter_extrusion_width = 0.45
; perimeter_speed = 60
; perimeters = 5
; post_process = 
; print_settings_id = 0.20mm SOLIDBOYS
; printer_model = MK3S
; printer_notes = Don't remove the following keywords! These keywords are used in the "compatible printer" condition of the print and filament profiles to link the particular print and filament profiles to this printer profile.\nPRINTER_VENDOR_PRUSA3D\nPRINTER_MODEL_MK3\n
; printer_settings_id = Original Prusa i3 MK3S - NoIntro
; printer_technology = FFF
; printer_variant = 0.4
; printer_vendor = 
; raft_layers = 0
; remaining_times = 1
; resolution = 0
; retract_before_travel = 1
; retract_before_wipe = 0%
; retract_layer_change = 1
; retract_length = 0
; retract_length_toolchange = 4
; retract_lift = 0.6
; retract_lift_above = 0
; retract_lift_below = 209
; retract_restart_extra = 0
; retract_restart_extra_toolchange = 0
; retract_speed = 35
; seam_position = nearest
; serial_port = 
; serial_speed = 250000
; silent_mode = 1
; single_extruder_multi_material = 0
; single_extruder_multi_material_priming = 0
; skirt_distance = 2
; skirt_height = 3
; skirts = 0
; slice_closing_radius = 0.049
; slowdown_below_layer_time = 20
; small_perimeter_speed = 25
; solid_infill_below_area = 0
; solid_infill_every_layers = 0
; solid_infill_extruder = 1
; solid_infill_extrusion_width = 0.45
; solid_infill_speed = 200
; spiral_vase = 0
; standby_temperature_delta = -5
; start_filament_gcode = "M900 K{if printer_notes=~/.*PRINTER_MODEL_MINI.*/ and nozzle_diameter[0]==0.6}0.12{elsif printer_notes=~/.*PRINTER_MODEL_MINI.*/}0.2{elsif printer_notes=~/.*PRINTER_HAS_BOWDEN.*/}200{elsif nozzle_diameter[0]==0.6}18{else}30{endif} ; Filament gcode"
; start_gcode = M862.3 P "[printer_model]" ; printer model check\nM862.1 P[nozzle_diameter] ; nozzle diameter check\nM115 U3.8.1 ; tell printer latest fw version\nG90 ; use absolute coordinates\nM83 ; extruder relative mode\nM104 S[first_layer_temperature] ; set extruder temp\nM140 S[first_layer_bed_temperature] ; set bed temp\nM190 S[first_layer_bed_temperature] ; wait for bed temp\nM109 S[first_layer_temperature] ; wait for extruder temp\nG28 W ; home all without mesh bed level\nG80 ; mesh bed leveling\n;G1 Y-3.0 F1000.0 ; go outside print area\n;G92 E0.0\n;G1 X60.0 E9.0 F1000.0 ; intro line\n;G1 X100.0 E12.5 F1000.0 ; intro line\nG92 E0.0\nM221 S{if layer_height<0.075}100{else}95{endif}
; support_material = 1
; support_material_angle = 0
; support_material_auto = 1
; support_material_buildplate_only = 0
; support_material_contact_distance = 0.1
; support_material_enforce_layers = 0
; support_material_extruder = 0
; support_material_extrusion_width = 0.35
; support_material_interface_contact_loops = 0
; support_material_interface_extruder = 0
; support_material_interface_layers = 2
; support_material_interface_spacing = 0.2
; support_material_interface_speed = 100%
; support_material_pattern = honeycomb
; support_material_spacing = 2
; support_material_speed = 50
; support_material_synchronize_layers = 0
; support_material_threshold = 10
; support_material_with_sheath = 0
; support_material_xy_spacing = 50%
; temperature = 210
; thin_walls = 0
; threads = 12
; thumbnails = 
; toolchange_gcode = 
; top_fill_pattern = rectilinear
; top_infill_extrusion_width = 0.4
; top_solid_infill_speed = 50
; top_solid_layers = 6
; top_solid_min_thickness = 0
; travel_speed = 180
; use_firmware_retraction = 0
; use_relative_e_distances = 1
; use_volumetric_e = 0
; variable_layer_height = 1
; wipe = 1
; wipe_into_infill = 0
; wipe_into_objects = 0
; wipe_tower = 1
; wipe_tower_bridging = 10
; wipe_tower_no_sparse_layers = 0
; wipe_tower_rotation_angle = 0
; wipe_tower_width = 60
; wipe_tower_x = 170
; wipe_tower_y = 125
; wiping_volumes_extruders = 70,70
; wiping_volumes_matrix = 0
; xy_size_compensation = 0
; z_offset = 0
