; generated by PrusaSlicer 2.2.0+win64 on 2021-01-30 at 19:27:21 UTC

; 

; external perimeters extrusion width = 0.45mm
; perimeters extrusion width = 0.45mm
; infill extrusion width = 0.45mm
; solid infill extrusion width = 0.45mm
; top infill extrusion width = 0.40mm
; support material extrusion width = 0.35mm
; first layer extrusion width = 0.42mm

M73 P0 R13
M73 Q0 S13
M201 X1000 Y1000 Z1000 E5000 ; sets maximum accelerations, mm/sec^2
M203 X200 Y200 Z12 E120 ; sets maximum feedrates, mm/sec
M204 P1250 R1250 T1250 ; sets acceleration (P, T) and retract acceleration (R), mm/sec^2
M205 X8.00 Y8.00 Z0.40 E1.50 ; sets the jerk limits, mm/sec
M205 S0 T0 ; sets the minimum extruding and travel feed rate, mm/sec
M107
M862.3 P "MK3S" ; printer model check
M862.1 P0.4 ; nozzle diameter check
M115 U3.8.1 ; tell printer latest fw version
G90 ; use absolute coordinates
M83 ; extruder relative mode
M104 S215 ; set extruder temp
M140 S75 ; set bed temp
M190 S75 ; wait for bed temp
M109 S215 ; wait for extruder temp
G28 W ; home all without mesh bed level
G80 ; mesh bed leveling
G1 Y-3.0 F1000.0 ; go outside print area
G92 E0.0
G1 X60.0 E9.0 F1000.0 ; intro line
M73 Q0 S13
M73 P0 R13
G1 X100.0 E12.5 F1000.0 ; intro line
G92 E0.0
M221 S95
G21 ; set units to millimeters
G90 ; use absolute coordinates
M83 ; use relative distances for extrusion
M900 K30 ; Filament gcode
;BEFORE_LAYER_CHANGE
G92 E0.0
;0.2


G1 Z0.200 F10800.000
;AFTER_LAYER_CHANGE
;0.2
G1 X10.368 Y10.550
M204 S1000
G1 F900
G1 X19.948 Y10.550 E0.30037
G1 X19.948 Y20.130 E0.30037
G1 X10.368 Y20.130 E0.30037
G1 X10.368 Y10.610 E0.29849
G1 X10.754 Y10.654 F10800.000
G1 X10.745 Y10.927
G1 F900
G1 X19.571 Y10.927 E0.27673
G1 X19.571 Y19.753 E0.27673
G1 X10.745 Y19.753 E0.27673
G1 X10.745 Y10.987 E0.27485
G1 X11.122 Y11.304 F10800.000
G1 F900
G1 X19.194 Y11.304 E0.25308
G1 X19.194 Y19.376 E0.25308
G1 X11.122 Y19.376 E0.25308
G1 X11.122 Y11.364 E0.25120
G1 X11.499 Y11.682 F10800.000
G1 F900
G1 X18.817 Y11.682 E0.22944
G1 X18.817 Y18.999 E0.22944
G1 X11.499 Y18.999 E0.22944
G1 X11.499 Y11.742 E0.22755
G1 X11.876 Y12.059 F10800.000
G1 F900
G1 X18.440 Y12.059 E0.20579
G1 X18.440 Y18.622 E0.20579
G1 X11.876 Y18.622 E0.20579
G1 X11.876 Y12.119 E0.20391
G1 X18.383 Y12.889 F10800.000
G1 F900
G1 X17.780 Y12.285 E0.02714
G1 X17.239 Y12.285 E0.01719
G1 X18.214 Y13.260 E0.04382
G1 X18.214 Y13.800 E0.01719
G1 X16.698 Y12.285 E0.06812
G1 X16.158 Y12.285 E0.01719
G1 X18.214 Y14.341 E0.09243
G1 X18.214 Y14.882 E0.01719
G1 X15.617 Y12.285 E0.11674
G1 X15.076 Y12.285 E0.01719
G1 X18.214 Y15.422 E0.14104
G1 X18.214 Y15.963 E0.01719
G1 X14.536 Y12.285 E0.16535
G1 X13.995 Y12.285 E0.01719
G1 X18.214 Y16.503 E0.18965
G1 X18.214 Y17.044 E0.01719
G1 X13.454 Y12.285 E0.21396
G1 X12.914 Y12.285 E0.01719
G1 X18.214 Y17.585 E0.23827
G1 X18.214 Y18.125 E0.01719
G1 X12.373 Y12.285 E0.26257
G1 X12.103 Y12.285 E0.00859
G1 X12.103 Y12.555 E0.00860
G1 X17.943 Y18.396 E0.26257
G1 X17.402 Y18.396 E0.01719
G1 X12.103 Y13.096 E0.23826
G1 X12.103 Y13.637 E0.01719
G1 X16.862 Y18.396 E0.21396
G1 X16.321 Y18.396 E0.01719
G1 X12.103 Y14.177 E0.18965
G1 X12.103 Y14.718 E0.01719
G1 X15.780 Y18.396 E0.16534
G1 X15.240 Y18.396 E0.01719
G1 X12.103 Y15.259 E0.14104
G1 X12.103 Y15.799 E0.01719
G1 X14.699 Y18.396 E0.11673
G1 X14.158 Y18.396 E0.01719
G1 X12.103 Y16.340 E0.09242
G1 X12.103 Y16.881 E0.01719
G1 X13.618 Y18.396 E0.06812
G1 X13.077 Y18.396 E0.01719
G1 X12.103 Y17.421 E0.04381
G1 X12.103 Y17.962 E0.01719
G1 X12.706 Y18.565 E0.02713
M106 S255
;BEFORE_LAYER_CHANGE
G92 E0.0
;0.4


G1 Z0.400 F10800.000
;AFTER_LAYER_CHANGE
;0.4
M104 S210 ; set temperature
G1 X10.383 Y20.115
M204 S800
G1 F900
G1 X10.383 Y10.565 E0.32326
G1 X19.933 Y10.565 E0.32326
G1 X19.933 Y20.115 E0.32326
G1 X10.443 Y20.115 E0.32123
M204 S1000
G1 X10.487 Y19.729 F10800.000
G1 X10.790 Y19.708
M204 S800
G1 F900
G1 X10.790 Y10.972 E0.29570
G1 X19.526 Y10.972 E0.29570
G1 X19.526 Y19.708 E0.29570
G1 X10.850 Y19.708 E0.29367
M204 S1000
G1 X11.197 Y19.301 F10800.000
M204 S800
G1 F900
G1 X11.197 Y11.379 E0.26814
G1 X19.119 Y11.379 E0.26814
G1 X19.119 Y19.301 E0.26814
G1 X11.257 Y19.301 E0.26611
M204 S1000
G1 X11.604 Y18.894 F10800.000
M204 S800
G1 F900
G1 X11.604 Y11.787 E0.24058
G1 X18.712 Y11.787 E0.24058
G1 X18.712 Y18.894 E0.24058
G1 X11.664 Y18.894 E0.23855
M204 S1000
G1 X12.011 Y18.487 F10800.000
M204 S800
G1 F900
G1 X12.011 Y12.194 E0.21302
G1 X18.305 Y12.194 E0.21302
G1 X18.305 Y18.487 E0.21302
G1 X12.071 Y18.487 E0.21099
M204 S1000
G1 X12.919 Y12.255 F10800.000
M204 S1250
G1 F900
G1 X12.256 Y12.918 E0.03264
G1 X12.256 Y13.510 E0.02058
G1 X13.328 Y12.438 E0.05273
G1 X13.919 Y12.438 E0.02058
G1 X12.256 Y14.101 E0.08183
G1 X12.256 Y14.693 E0.02058
G1 X14.511 Y12.438 E0.11094
G1 X15.102 Y12.438 E0.02058
G1 X12.256 Y15.285 E0.14004
G1 X12.256 Y15.876 E0.02058
G1 X15.694 Y12.438 E0.16914
G1 X16.286 Y12.438 E0.02058
G1 X12.256 Y16.468 E0.19825
G1 X12.256 Y17.059 E0.02058
G1 X16.877 Y12.438 E0.22735
G1 X17.469 Y12.438 E0.02058
G1 X12.256 Y17.651 E0.25645
G1 X12.256 Y18.243 E0.02058
G1 X18.060 Y12.438 E0.28556
G1 X18.060 Y13.029 E0.02058
G1 X12.847 Y18.243 E0.25646
G1 X13.439 Y18.243 E0.02058
G1 X18.060 Y13.621 E0.22736
G1 X18.060 Y14.213 E0.02058
G1 X14.030 Y18.243 E0.19825
G1 X14.622 Y18.243 E0.02058
G1 X18.060 Y14.804 E0.16915
G1 X18.060 Y15.396 E0.02058
G1 X15.214 Y18.243 E0.14005
G1 X15.805 Y18.243 E0.02058
G1 X18.060 Y15.987 E0.11094
G1 X18.060 Y16.579 E0.02058
G1 X16.397 Y18.243 E0.08184
G1 X16.988 Y18.243 E0.02058
G1 X18.060 Y17.171 E0.05274
G1 X18.060 Y17.762 E0.02058
G1 X17.397 Y18.426 E0.03264
M204 S1000
;BEFORE_LAYER_CHANGE
G92 E0.0
;0.6


G1 Z0.600 F10800.000
;AFTER_LAYER_CHANGE
;0.6
G1 X19.933 Y20.115
M204 S800
G1 F900
G1 X10.383 Y20.115 E0.32326
G1 X10.383 Y10.565 E0.32326
G1 X19.933 Y10.565 E0.32326
G1 X19.933 Y20.055 E0.32123
M204 S1000
G1 X19.547 Y20.012 F10800.000
G1 X19.526 Y19.708
M204 S800
G1 F900
G1 X10.790 Y19.708 E0.29570
G1 X10.790 Y10.972 E0.29570
G1 X19.526 Y10.972 E0.29570
G1 X19.526 Y19.648 E0.29367
M204 S1000
G1 X19.119 Y19.301 F10800.000
M204 S800
G1 F900
G1 X11.197 Y19.301 E0.26814
G1 X11.197 Y11.379 E0.26814
G1 X19.119 Y11.379 E0.26814
G1 X19.119 Y19.241 E0.26611
M204 S1000
G1 X18.712 Y18.894 F10800.000
M204 S800
G1 F900
G1 X11.604 Y18.894 E0.24058
G1 X11.604 Y11.787 E0.24058
G1 X18.712 Y11.787 E0.24058
G1 X18.712 Y18.834 E0.23855
M204 S1000
G1 X18.305 Y18.487 F10800.000
M204 S800
G1 F900
G1 X12.011 Y18.487 E0.21302
G1 X12.011 Y12.194 E0.21302
G1 X18.305 Y12.194 E0.21302
G1 X18.305 Y18.427 E0.21099
M204 S1000
G1 X12.072 Y17.579 F10800.000
M204 S1250
G1 F900
G1 X12.736 Y18.243 E0.03264
G1 X13.328 Y18.243 E0.02058
G1 X12.256 Y17.171 E0.05273
G1 X12.256 Y16.579 E0.02058
G1 X13.919 Y18.243 E0.08183
G1 X14.511 Y18.243 E0.02058
G1 X12.256 Y15.988 E0.11094
G1 X12.256 Y15.396 E0.02058
G1 X15.102 Y18.243 E0.14004
G1 X15.694 Y18.243 E0.02058
G1 X12.256 Y14.804 E0.16914
G1 X12.256 Y14.213 E0.02058
G1 X16.286 Y18.243 E0.19825
G1 X16.877 Y18.243 E0.02058
G1 X12.256 Y13.621 E0.22735
G1 X12.256 Y13.030 E0.02058
G1 X17.469 Y18.243 E0.25645
G1 X18.060 Y18.243 E0.02058
G1 X12.256 Y12.438 E0.28556
G1 X12.847 Y12.438 E0.02058
G1 X18.060 Y17.651 E0.25646
G1 X18.060 Y17.060 E0.02058
G1 X13.439 Y12.438 E0.22736
G1 X14.030 Y12.438 E0.02058
G1 X18.060 Y16.468 E0.19825
G1 X18.060 Y15.876 E0.02058
G1 X14.622 Y12.438 E0.16915
G1 X15.214 Y12.438 E0.02058
G1 X18.060 Y15.285 E0.14005
G1 X18.060 Y14.693 E0.02058
G1 X15.805 Y12.438 E0.11094
G1 X16.397 Y12.438 E0.02058
G1 X18.060 Y14.102 E0.08184
G1 X18.060 Y13.510 E0.02058
G1 X16.988 Y12.438 E0.05274
G1 X17.580 Y12.438 E0.02058
G1 X18.244 Y13.101 E0.03264
M204 S1000
;BEFORE_LAYER_CHANGE
G92 E0.0
;0.8


G1 Z0.800 F10800.000
;AFTER_LAYER_CHANGE
;0.8
G1 X19.933 Y10.565
M204 S800
G1 F900
G1 X19.933 Y20.115 E0.32326
G1 X10.383 Y20.115 E0.32326
G1 X10.383 Y10.565 E0.32326
G1 X19.873 Y10.565 E0.32123
M204 S1000
G1 X19.830 Y10.952 F10800.000
G1 X19.526 Y10.972
M204 S800
G1 F900
G1 X19.526 Y19.708 E0.29570
G1 X10.790 Y19.708 E0.29570
M73 Q8 S12
G1 X10.790 Y10.972 E0.29570
M73 P8 R12
G1 X19.466 Y10.972 E0.29367
M204 S1000
G1 X19.119 Y11.379 F10800.000
M204 S800
G1 F900
G1 X19.119 Y19.301 E0.26814
G1 X11.197 Y19.301 E0.26814
G1 X11.197 Y11.379 E0.26814
G1 X19.059 Y11.379 E0.26611
M204 S1000
G1 X18.712 Y11.787 F10800.000
M204 S800
G1 F900
G1 X18.712 Y18.894 E0.24058
G1 X11.604 Y18.894 E0.24058
G1 X11.604 Y11.787 E0.24058
G1 X18.652 Y11.787 E0.23855
M204 S1000
G1 X18.305 Y12.194 F10800.000
M204 S800
G1 F900
G1 X18.305 Y18.487 E0.21302
G1 X12.011 Y18.487 E0.21302
G1 X12.011 Y12.194 E0.21302
G1 X18.245 Y12.194 E0.21099
M204 S1000
G1 X17.397 Y18.426 F10800.000
M204 S1250
G1 F900
G1 X18.060 Y17.762 E0.03264
G1 X18.060 Y17.171 E0.02058
G1 X16.988 Y18.243 E0.05274
G1 X16.397 Y18.243 E0.02058
G1 X18.060 Y16.579 E0.08184
G1 X18.060 Y15.987 E0.02058
G1 X15.805 Y18.243 E0.11094
G1 X15.214 Y18.243 E0.02058
G1 X18.060 Y15.396 E0.14005
G1 X18.060 Y14.804 E0.02058
G1 X14.622 Y18.243 E0.16915
G1 X14.030 Y18.243 E0.02058
G1 X18.060 Y14.213 E0.19825
G1 X18.060 Y13.621 E0.02058
G1 X13.439 Y18.243 E0.22736
G1 X12.847 Y18.243 E0.02058
G1 X18.060 Y13.029 E0.25646
G1 X18.060 Y12.438 E0.02058
G1 X12.256 Y18.243 E0.28556
G1 X12.256 Y17.651 E0.02058
G1 X17.469 Y12.438 E0.25645
G1 X16.877 Y12.438 E0.02058
G1 X12.256 Y17.059 E0.22735
G1 X12.256 Y16.468 E0.02058
G1 X16.286 Y12.438 E0.19825
G1 X15.694 Y12.438 E0.02058
G1 X12.256 Y15.876 E0.16914
G1 X12.256 Y15.285 E0.02058
G1 X15.102 Y12.438 E0.14004
G1 X14.511 Y12.438 E0.02058
G1 X12.256 Y14.693 E0.11094
G1 X12.256 Y14.101 E0.02058
G1 X13.919 Y12.438 E0.08183
G1 X13.328 Y12.438 E0.02058
G1 X12.256 Y13.510 E0.05273
G1 X12.256 Y12.918 E0.02058
G1 X12.919 Y12.255 E0.03264
M204 S1000
;BEFORE_LAYER_CHANGE
G92 E0.0
;1


G1 Z1.000 F10800.000
;AFTER_LAYER_CHANGE
;1
G1 X10.383 Y10.565
M204 S800
G1 F900
G1 X19.933 Y10.565 E0.32326
G1 X19.933 Y20.115 E0.32326
G1 X10.383 Y20.115 E0.32326
G1 X10.383 Y10.625 E0.32123
M204 S1000
G1 X10.769 Y10.669 F10800.000
G1 X10.790 Y10.972
M204 S800
G1 F900
G1 X19.526 Y10.972 E0.29570
G1 X19.526 Y19.708 E0.29570
G1 X10.790 Y19.708 E0.29570
G1 X10.790 Y11.032 E0.29367
M204 S1000
G1 X11.197 Y11.379 F10800.000
M204 S800
G1 F900
G1 X19.119 Y11.379 E0.26814
G1 X19.119 Y19.301 E0.26814
G1 X11.197 Y19.301 E0.26814
G1 X11.197 Y11.439 E0.26611
M204 S1000
G1 X11.604 Y11.787 F10800.000
M204 S800
G1 F900
G1 X18.712 Y11.787 E0.24058
G1 X18.712 Y18.894 E0.24058
G1 X11.604 Y18.894 E0.24058
G1 X11.604 Y11.847 E0.23855
M204 S1000
G1 X12.011 Y12.194 F10800.000
M204 S800
G1 F900
G1 X18.305 Y12.194 E0.21302
G1 X18.305 Y18.487 E0.21302
G1 X12.011 Y18.487 E0.21302
G1 X12.011 Y12.254 E0.21099
M204 S1000
G1 X18.244 Y13.101 F10800.000
M204 S1250
G1 F900
G1 X17.580 Y12.438 E0.03264
G1 X16.988 Y12.438 E0.02058
G1 X18.060 Y13.510 E0.05274
G1 X18.060 Y14.102 E0.02058
G1 X16.397 Y12.438 E0.08184
G1 X15.805 Y12.438 E0.02058
G1 X18.060 Y14.693 E0.11094
G1 X18.060 Y15.285 E0.02058
G1 X15.214 Y12.438 E0.14005
G1 X14.622 Y12.438 E0.02058
G1 X18.060 Y15.876 E0.16915
G1 X18.060 Y16.468 E0.02058
G1 X14.030 Y12.438 E0.19825
G1 X13.439 Y12.438 E0.02058
G1 X18.060 Y17.060 E0.22736
G1 X18.060 Y17.651 E0.02058
G1 X12.847 Y12.438 E0.25646
G1 X12.256 Y12.438 E0.02058
G1 X18.060 Y18.243 E0.28556
G1 X17.469 Y18.243 E0.02058
G1 X12.256 Y13.030 E0.25645
G1 X12.256 Y13.621 E0.02058
G1 X16.877 Y18.243 E0.22735
G1 X16.286 Y18.243 E0.02058
G1 X12.256 Y14.213 E0.19825
G1 X12.256 Y14.804 E0.02058
G1 X15.694 Y18.243 E0.16914
G1 X15.102 Y18.243 E0.02058
G1 X12.256 Y15.396 E0.14004
G1 X12.256 Y15.988 E0.02058
G1 X14.511 Y18.243 E0.11094
G1 X13.919 Y18.243 E0.02058
G1 X12.256 Y16.579 E0.08183
G1 X12.256 Y17.171 E0.02058
G1 X13.328 Y18.243 E0.05273
G1 X12.736 Y18.243 E0.02058
G1 X12.072 Y17.579 E0.03264
M204 S1000
;BEFORE_LAYER_CHANGE
G92 E0.0
;1.2


G1 Z1.200 F10800.000
;AFTER_LAYER_CHANGE
;1.2
G1 X10.383 Y20.115
M204 S800
G1 F900
G1 X10.383 Y10.565 E0.32326
G1 X19.933 Y10.565 E0.32326
G1 X19.933 Y20.115 E0.32326
G1 X10.443 Y20.115 E0.32123
M204 S1000
G1 X10.487 Y19.729 F10800.000
G1 X10.790 Y19.708
M204 S800
G1 F900
G1 X10.790 Y10.972 E0.29570
G1 X19.526 Y10.972 E0.29570
G1 X19.526 Y19.708 E0.29570
G1 X10.850 Y19.708 E0.29367
M204 S1000
G1 X11.197 Y19.301 F10800.000
M204 S800
G1 F900
G1 X11.197 Y11.379 E0.26814
G1 X19.119 Y11.379 E0.26814
G1 X19.119 Y19.301 E0.26814
G1 X11.257 Y19.301 E0.26611
M204 S1000
G1 X11.604 Y18.894 F10800.000
M204 S800
G1 F900
G1 X11.604 Y11.787 E0.24058
G1 X18.712 Y11.787 E0.24058
G1 X18.712 Y18.894 E0.24058
G1 X11.664 Y18.894 E0.23855
M204 S1000
G1 X12.011 Y18.487 F10800.000
M204 S800
G1 F900
G1 X12.011 Y12.194 E0.21302
G1 X18.305 Y12.194 E0.21302
G1 X18.305 Y18.487 E0.21302
G1 X12.071 Y18.487 E0.21099
M204 S1000
;BEFORE_LAYER_CHANGE
G92 E0.0
;1.4


G1 Z1.400 F10800.000
;AFTER_LAYER_CHANGE
;1.4
G1 X10.383 Y20.115
M204 S800
G1 F900
G1 X10.383 Y10.565 E0.32326
G1 X19.933 Y10.565 E0.32326
G1 X19.933 Y20.115 E0.32326
G1 X10.443 Y20.115 E0.32123
M204 S1000
G1 X10.487 Y19.729 F10800.000
G1 X10.790 Y19.708
M204 S800
G1 F900
G1 X10.790 Y10.972 E0.29570
G1 X19.526 Y10.972 E0.29570
G1 X19.526 Y19.708 E0.29570
G1 X10.850 Y19.708 E0.29367
M204 S1000
G1 X11.197 Y19.301 F10800.000
M204 S800
G1 F900
G1 X11.197 Y11.379 E0.26814
G1 X19.119 Y11.379 E0.26814
G1 X19.119 Y19.301 E0.26814
G1 X11.257 Y19.301 E0.26611
M204 S1000
G1 X11.604 Y18.894 F10800.000
M204 S800
G1 F900
G1 X11.604 Y11.787 E0.24058
G1 X18.712 Y11.787 E0.24058
G1 X18.712 Y18.894 E0.24058
G1 X11.664 Y18.894 E0.23855
M204 S1000
G1 X12.011 Y18.487 F10800.000
M204 S800
G1 F900
G1 X12.011 Y12.194 E0.21302
G1 X18.305 Y12.194 E0.21302
G1 X18.305 Y18.487 E0.21302
G1 X12.071 Y18.487 E0.21099
M204 S1000
G1 X12.919 Y12.255 F10800.000
M204 S1250
G1 F900
G1 X12.256 Y12.918 E0.05682
G1 X12.256 Y13.510 E0.03583
G1 X13.328 Y12.438 E0.09180
G1 X13.919 Y12.438 E0.03583
G1 X12.256 Y14.101 E0.14247
G1 X12.256 Y14.693 E0.03583
G1 X14.511 Y12.438 E0.19314
G1 X15.102 Y12.438 E0.03583
G1 X12.256 Y15.285 E0.24381
G1 X12.256 Y15.876 E0.03583
G1 X15.694 Y12.438 E0.29448
G1 X16.286 Y12.438 E0.03583
G1 X12.256 Y16.468 E0.34515
G1 X12.256 Y17.059 E0.03583
G1 X16.877 Y12.438 E0.39581
G1 X17.469 Y12.438 E0.03583
G1 X12.256 Y17.651 E0.44648
G1 X12.256 Y18.243 E0.03583
G1 X18.060 Y12.438 E0.49715
G1 X18.060 Y13.029 E0.03582
G1 X12.847 Y18.243 E0.44649
G1 X13.439 Y18.243 E0.03583
G1 X18.060 Y13.621 E0.39582
G1 X18.060 Y14.213 E0.03583
G1 X14.030 Y18.243 E0.34516
G1 X14.622 Y18.243 E0.03583
G1 X18.060 Y14.804 E0.29449
G1 X18.060 Y15.396 E0.03583
G1 X15.214 Y18.243 E0.24382
G1 X15.805 Y18.243 E0.03583
G1 X18.060 Y15.987 E0.19315
G1 X18.060 Y16.579 E0.03583
G1 X16.397 Y18.243 E0.14248
G1 X16.988 Y18.243 E0.03583
G1 X18.060 Y17.171 E0.09181
G1 X18.060 Y17.762 E0.03583
G1 X17.397 Y18.426 E0.05683
M204 S1000
;BEFORE_LAYER_CHANGE
G92 E0.0
;1.6


G1 Z1.600 F10800.000
;AFTER_LAYER_CHANGE
;1.6
G1 X19.933 Y20.115
M204 S800
G1 F900
G1 X10.383 Y20.115 E0.32326
G1 X10.383 Y10.565 E0.32326
M73 Q16 S11
G1 X19.933 Y10.565 E0.32326
M73 P16 R11
G1 X19.933 Y20.055 E0.32123
M204 S1000
G1 X19.547 Y20.012 F10800.000
G1 X19.526 Y19.708
M204 S800
G1 F900
G1 X10.790 Y19.708 E0.29570
G1 X10.790 Y10.972 E0.29570
G1 X19.526 Y10.972 E0.29570
G1 X19.526 Y19.648 E0.29367
M204 S1000
G1 X19.119 Y19.301 F10800.000
M204 S800
G1 F900
G1 X11.197 Y19.301 E0.26814
G1 X11.197 Y11.379 E0.26814
G1 X19.119 Y11.379 E0.26814
G1 X19.119 Y19.241 E0.26611
M204 S1000
G1 X18.712 Y18.894 F10800.000
M204 S800
G1 F900
G1 X11.604 Y18.894 E0.24058
G1 X11.604 Y11.787 E0.24058
G1 X18.712 Y11.787 E0.24058
G1 X18.712 Y18.834 E0.23855
M204 S1000
G1 X18.305 Y18.487 F10800.000
M204 S800
G1 F900
G1 X12.011 Y18.487 E0.21302
G1 X12.011 Y12.194 E0.21302
G1 X18.305 Y12.194 E0.21302
G1 X18.305 Y18.427 E0.21099
M204 S1000
;BEFORE_LAYER_CHANGE
G92 E0.0
;1.8


G1 Z1.800 F10800.000
;AFTER_LAYER_CHANGE
;1.8
G1 X19.933 Y20.115
M204 S800
G1 F900
G1 X10.383 Y20.115 E0.32326
G1 X10.383 Y10.565 E0.32326
G1 X19.933 Y10.565 E0.32326
G1 X19.933 Y20.055 E0.32123
M204 S1000
G1 X19.547 Y20.012 F10800.000
G1 X19.526 Y19.708
M204 S800
G1 F900
G1 X10.790 Y19.708 E0.29570
G1 X10.790 Y10.972 E0.29570
G1 X19.526 Y10.972 E0.29570
G1 X19.526 Y19.648 E0.29367
M204 S1000
G1 X19.119 Y19.301 F10800.000
M204 S800
G1 F900
G1 X11.197 Y19.301 E0.26814
G1 X11.197 Y11.379 E0.26814
G1 X19.119 Y11.379 E0.26814
G1 X19.119 Y19.241 E0.26611
M204 S1000
G1 X18.712 Y18.894 F10800.000
M204 S800
G1 F900
G1 X11.604 Y18.894 E0.24058
G1 X11.604 Y11.787 E0.24058
G1 X18.712 Y11.787 E0.24058
G1 X18.712 Y18.834 E0.23855
M204 S1000
G1 X18.305 Y18.487 F10800.000
M204 S800
G1 F900
G1 X12.011 Y18.487 E0.21302
G1 X12.011 Y12.194 E0.21302
G1 X18.305 Y12.194 E0.21302
G1 X18.305 Y18.427 E0.21099
M204 S1000
G1 X12.072 Y17.579 F10800.000
M204 S1250
G1 F900
G1 X12.736 Y18.243 E0.05682
G1 X13.328 Y18.243 E0.03583
G1 X12.256 Y17.171 E0.09180
G1 X12.256 Y16.579 E0.03583
G1 X13.919 Y18.243 E0.14247
G1 X14.511 Y18.243 E0.03583
G1 X12.256 Y15.988 E0.19314
G1 X12.256 Y15.396 E0.03583
G1 X15.102 Y18.243 E0.24381
G1 X15.694 Y18.243 E0.03583
G1 X12.256 Y14.804 E0.29448
G1 X12.256 Y14.213 E0.03583
G1 X16.286 Y18.243 E0.34515
G1 X16.877 Y18.243 E0.03583
G1 X12.256 Y13.621 E0.39581
G1 X12.256 Y13.030 E0.03583
G1 X17.469 Y18.243 E0.44648
G1 X18.060 Y18.243 E0.03583
G1 X12.256 Y12.438 E0.49715
G1 X12.847 Y12.438 E0.03582
G1 X18.060 Y17.651 E0.44649
G1 X18.060 Y17.060 E0.03583
G1 X13.439 Y12.438 E0.39582
G1 X14.030 Y12.438 E0.03583
G1 X18.060 Y16.468 E0.34516
G1 X18.060 Y15.876 E0.03583
G1 X14.622 Y12.438 E0.29449
G1 X15.214 Y12.438 E0.03583
G1 X18.060 Y15.285 E0.24382
G1 X18.060 Y14.693 E0.03583
G1 X15.805 Y12.438 E0.19315
G1 X16.397 Y12.438 E0.03583
G1 X18.060 Y14.102 E0.14248
G1 X18.060 Y13.510 E0.03583
G1 X16.988 Y12.438 E0.09181
G1 X17.580 Y12.438 E0.03583
G1 X18.244 Y13.101 E0.05683
M204 S1000
;BEFORE_LAYER_CHANGE
G92 E0.0
;2


G1 Z2.000 F10800.000
;AFTER_LAYER_CHANGE
;2
G1 X19.933 Y10.565
M204 S800
G1 F900
G1 X19.933 Y20.115 E0.32326
G1 X10.383 Y20.115 E0.32326
G1 X10.383 Y10.565 E0.32326
G1 X19.873 Y10.565 E0.32123
M204 S1000
G1 X19.830 Y10.952 F10800.000
G1 X19.526 Y10.972
M204 S800
G1 F900
G1 X19.526 Y19.708 E0.29570
G1 X10.790 Y19.708 E0.29570
G1 X10.790 Y10.972 E0.29570
G1 X19.466 Y10.972 E0.29367
M204 S1000
G1 X19.119 Y11.379 F10800.000
M204 S800
G1 F900
G1 X19.119 Y19.301 E0.26814
G1 X11.197 Y19.301 E0.26814
G1 X11.197 Y11.379 E0.26814
G1 X19.059 Y11.379 E0.26611
M204 S1000
G1 X18.712 Y11.787 F10800.000
M204 S800
G1 F900
G1 X18.712 Y18.894 E0.24058
G1 X11.604 Y18.894 E0.24058
G1 X11.604 Y11.787 E0.24058
G1 X18.652 Y11.787 E0.23855
M204 S1000
G1 X18.305 Y12.194 F10800.000
M204 S800
G1 F900
G1 X18.305 Y18.487 E0.21302
G1 X12.011 Y18.487 E0.21302
G1 X12.011 Y12.194 E0.21302
G1 X18.245 Y12.194 E0.21099
M204 S1000
;BEFORE_LAYER_CHANGE
G92 E0.0
;2.2


G1 Z2.200 F10800.000
;AFTER_LAYER_CHANGE
;2.2
G1 X19.933 Y10.565
M204 S800
G1 F900
G1 X19.933 Y20.115 E0.32326
G1 X10.383 Y20.115 E0.32326
G1 X10.383 Y10.565 E0.32326
G1 X19.873 Y10.565 E0.32123
M204 S1000
G1 X19.830 Y10.952 F10800.000
G1 X19.526 Y10.972
M204 S800
G1 F900
G1 X19.526 Y19.708 E0.29570
G1 X10.790 Y19.708 E0.29570
G1 X10.790 Y10.972 E0.29570
G1 X19.466 Y10.972 E0.29367
M204 S1000
G1 X19.119 Y11.379 F10800.000
M204 S800
G1 F900
G1 X19.119 Y19.301 E0.26814
G1 X11.197 Y19.301 E0.26814
G1 X11.197 Y11.379 E0.26814
G1 X19.059 Y11.379 E0.26611
M204 S1000
G1 X18.712 Y11.787 F10800.000
M204 S800
G1 F900
G1 X18.712 Y18.894 E0.24058
G1 X11.604 Y18.894 E0.24058
G1 X11.604 Y11.787 E0.24058
G1 X18.652 Y11.787 E0.23855
M204 S1000
G1 X18.305 Y12.194 F10800.000
M204 S800
G1 F900
G1 X18.305 Y18.487 E0.21302
G1 X12.011 Y18.487 E0.21302
G1 X12.011 Y12.194 E0.21302
G1 X18.245 Y12.194 E0.21099
M204 S1000
G1 X17.397 Y18.426 F10800.000
M204 S1250
G1 F900
G1 X18.060 Y17.762 E0.05683
G1 X18.060 Y17.171 E0.03583
G1 X16.988 Y18.243 E0.09181
G1 X16.397 Y18.243 E0.03583
G1 X18.060 Y16.579 E0.14248
G1 X18.060 Y15.987 E0.03583
G1 X15.805 Y18.243 E0.19315
G1 X15.214 Y18.243 E0.03583
G1 X18.060 Y15.396 E0.24382
G1 X18.060 Y14.804 E0.03583
G1 X14.622 Y18.243 E0.29449
G1 X14.030 Y18.243 E0.03583
G1 X18.060 Y14.213 E0.34516
G1 X18.060 Y13.621 E0.03583
G1 X13.439 Y18.243 E0.39582
G1 X12.847 Y18.243 E0.03583
G1 X18.060 Y13.029 E0.44649
G1 X18.060 Y12.438 E0.03582
G1 X12.256 Y18.243 E0.49715
G1 X12.256 Y17.651 E0.03583
G1 X17.469 Y12.438 E0.44648
G1 X16.877 Y12.438 E0.03583
G1 X12.256 Y17.059 E0.39581
G1 X12.256 Y16.468 E0.03583
G1 X16.286 Y12.438 E0.34515
G1 X15.694 Y12.438 E0.03583
G1 X12.256 Y15.876 E0.29448
G1 X12.256 Y15.285 E0.03583
G1 X15.102 Y12.438 E0.24381
G1 X14.511 Y12.438 E0.03583
G1 X12.256 Y14.693 E0.19314
G1 X12.256 Y14.101 E0.03583
G1 X13.919 Y12.438 E0.14247
G1 X13.328 Y12.438 E0.03583
G1 X12.256 Y13.510 E0.09180
G1 X12.256 Y12.918 E0.03583
G1 X12.919 Y12.255 E0.05682
M204 S1000
;BEFORE_LAYER_CHANGE
G92 E0.0
;2.4


G1 Z2.400 F10800.000
;AFTER_LAYER_CHANGE
;2.4
G1 X10.383 Y10.565
M204 S800
G1 F900
G1 X19.933 Y10.565 E0.32326
G1 X19.933 Y20.115 E0.32326
G1 X10.383 Y20.115 E0.32326
G1 X10.383 Y10.625 E0.32123
M204 S1000
G1 X10.769 Y10.669 F10800.000
G1 X10.790 Y10.972
M204 S800
G1 F900
G1 X19.526 Y10.972 E0.29570
G1 X19.526 Y19.708 E0.29570
G1 X10.790 Y19.708 E0.29570
G1 X10.790 Y11.032 E0.29367
M204 S1000
G1 X11.197 Y11.379 F10800.000
M204 S800
G1 F900
G1 X19.119 Y11.379 E0.26814
M73 Q24 S10
G1 X19.119 Y19.301 E0.26814
M73 P24 R10
G1 X11.197 Y19.301 E0.26814
G1 X11.197 Y11.439 E0.26611
M204 S1000
G1 X11.604 Y11.787 F10800.000
M204 S800
G1 F900
G1 X18.712 Y11.787 E0.24058
G1 X18.712 Y18.894 E0.24058
G1 X11.604 Y18.894 E0.24058
G1 X11.604 Y11.847 E0.23855
M204 S1000
G1 X12.011 Y12.194 F10800.000
M204 S800
G1 F900
G1 X18.305 Y12.194 E0.21302
G1 X18.305 Y18.487 E0.21302
G1 X12.011 Y18.487 E0.21302
G1 X12.011 Y12.254 E0.21099
M204 S1000
;BEFORE_LAYER_CHANGE
G92 E0.0
;2.6


G1 Z2.600 F10800.000
;AFTER_LAYER_CHANGE
;2.6
G1 X10.383 Y10.565
M204 S800
G1 F900
G1 X19.933 Y10.565 E0.32326
G1 X19.933 Y20.115 E0.32326
G1 X10.383 Y20.115 E0.32326
G1 X10.383 Y10.625 E0.32123
M204 S1000
G1 X10.769 Y10.669 F10800.000
G1 X10.790 Y10.972
M204 S800
G1 F900
G1 X19.526 Y10.972 E0.29570
G1 X19.526 Y19.708 E0.29570
G1 X10.790 Y19.708 E0.29570
G1 X10.790 Y11.032 E0.29367
M204 S1000
G1 X11.197 Y11.379 F10800.000
M204 S800
G1 F900
G1 X19.119 Y11.379 E0.26814
G1 X19.119 Y19.301 E0.26814
G1 X11.197 Y19.301 E0.26814
G1 X11.197 Y11.439 E0.26611
M204 S1000
G1 X11.604 Y11.787 F10800.000
M204 S800
G1 F900
G1 X18.712 Y11.787 E0.24058
G1 X18.712 Y18.894 E0.24058
G1 X11.604 Y18.894 E0.24058
G1 X11.604 Y11.847 E0.23855
M204 S1000
G1 X12.011 Y12.194 F10800.000
M204 S800
G1 F900
G1 X18.305 Y12.194 E0.21302
G1 X18.305 Y18.487 E0.21302
G1 X12.011 Y18.487 E0.21302
G1 X12.011 Y12.254 E0.21099
M204 S1000
G1 X18.244 Y13.101 F10800.000
M204 S1250
G1 F900
G1 X17.580 Y12.438 E0.05683
G1 X16.988 Y12.438 E0.03583
G1 X18.060 Y13.510 E0.09181
G1 X18.060 Y14.102 E0.03583
G1 X16.397 Y12.438 E0.14248
G1 X15.805 Y12.438 E0.03583
G1 X18.060 Y14.693 E0.19315
G1 X18.060 Y15.285 E0.03583
G1 X15.214 Y12.438 E0.24382
G1 X14.622 Y12.438 E0.03583
G1 X18.060 Y15.876 E0.29449
G1 X18.060 Y16.468 E0.03583
G1 X14.030 Y12.438 E0.34516
G1 X13.439 Y12.438 E0.03583
G1 X18.060 Y17.060 E0.39582
G1 X18.060 Y17.651 E0.03583
G1 X12.847 Y12.438 E0.44649
G1 X12.256 Y12.438 E0.03582
G1 X18.060 Y18.243 E0.49715
G1 X17.469 Y18.243 E0.03583
G1 X12.256 Y13.030 E0.44648
G1 X12.256 Y13.621 E0.03583
G1 X16.877 Y18.243 E0.39581
G1 X16.286 Y18.243 E0.03583
G1 X12.256 Y14.213 E0.34515
G1 X12.256 Y14.804 E0.03583
G1 X15.694 Y18.243 E0.29448
G1 X15.102 Y18.243 E0.03583
G1 X12.256 Y15.396 E0.24381
G1 X12.256 Y15.988 E0.03583
G1 X14.511 Y18.243 E0.19314
G1 X13.919 Y18.243 E0.03583
G1 X12.256 Y16.579 E0.14247
G1 X12.256 Y17.171 E0.03583
G1 X13.328 Y18.243 E0.09180
G1 X12.736 Y18.243 E0.03583
G1 X12.072 Y17.579 E0.05682
M204 S1000
;BEFORE_LAYER_CHANGE
G92 E0.0
;2.8


G1 Z2.800 F10800.000
;AFTER_LAYER_CHANGE
;2.8
G1 X10.383 Y20.115
M204 S800
G1 F900
G1 X10.383 Y10.565 E0.32326
G1 X19.933 Y10.565 E0.32326
G1 X19.933 Y20.115 E0.32326
G1 X10.443 Y20.115 E0.32123
M204 S1000
G1 X10.487 Y19.729 F10800.000
G1 X10.790 Y19.708
M204 S800
G1 F900
G1 X10.790 Y10.972 E0.29570
G1 X19.526 Y10.972 E0.29570
G1 X19.526 Y19.708 E0.29570
G1 X10.850 Y19.708 E0.29367
M204 S1000
G1 X11.197 Y19.301 F10800.000
M204 S800
G1 F900
G1 X11.197 Y11.379 E0.26814
G1 X19.119 Y11.379 E0.26814
G1 X19.119 Y19.301 E0.26814
G1 X11.257 Y19.301 E0.26611
M204 S1000
G1 X11.604 Y18.894 F10800.000
M204 S800
G1 F900
G1 X11.604 Y11.787 E0.24058
G1 X18.712 Y11.787 E0.24058
G1 X18.712 Y18.894 E0.24058
G1 X11.664 Y18.894 E0.23855
M204 S1000
G1 X12.011 Y18.487 F10800.000
M204 S800
G1 F900
G1 X12.011 Y12.194 E0.21302
G1 X18.305 Y12.194 E0.21302
G1 X18.305 Y18.487 E0.21302
G1 X12.071 Y18.487 E0.21099
M204 S1000
;BEFORE_LAYER_CHANGE
G92 E0.0
;3


G1 Z3.000 F10800.000
;AFTER_LAYER_CHANGE
;3
G1 X10.383 Y20.115
M204 S800
G1 F900
G1 X10.383 Y10.565 E0.32326
G1 X19.933 Y10.565 E0.32326
G1 X19.933 Y20.115 E0.32326
G1 X10.443 Y20.115 E0.32123
M204 S1000
G1 X10.487 Y19.729 F10800.000
G1 X10.790 Y19.708
M204 S800
G1 F900
G1 X10.790 Y10.972 E0.29570
G1 X19.526 Y10.972 E0.29570
G1 X19.526 Y19.708 E0.29570
G1 X10.850 Y19.708 E0.29367
M204 S1000
G1 X11.197 Y19.301 F10800.000
M204 S800
G1 F900
G1 X11.197 Y11.379 E0.26814
G1 X19.119 Y11.379 E0.26814
G1 X19.119 Y19.301 E0.26814
G1 X11.257 Y19.301 E0.26611
M204 S1000
G1 X11.604 Y18.894 F10800.000
M204 S800
G1 F900
G1 X11.604 Y11.787 E0.24058
G1 X18.712 Y11.787 E0.24058
G1 X18.712 Y18.894 E0.24058
G1 X11.664 Y18.894 E0.23855
M204 S1000
G1 X12.011 Y18.487 F10800.000
M204 S800
G1 F900
G1 X12.011 Y12.194 E0.21302
G1 X18.305 Y12.194 E0.21302
G1 X18.305 Y18.487 E0.21302
G1 X12.071 Y18.487 E0.21099
M204 S1000
G1 X12.919 Y12.255 F10800.000
M204 S1250
G1 F900
G1 X12.256 Y12.918 E0.05682
G1 X12.256 Y13.510 E0.03583
G1 X13.328 Y12.438 E0.09180
G1 X13.919 Y12.438 E0.03583
G1 X12.256 Y14.101 E0.14247
G1 X12.256 Y14.693 E0.03583
G1 X14.511 Y12.438 E0.19314
G1 X15.102 Y12.438 E0.03583
G1 X12.256 Y15.285 E0.24381
G1 X12.256 Y15.876 E0.03583
G1 X15.694 Y12.438 E0.29448
G1 X16.286 Y12.438 E0.03583
G1 X12.256 Y16.468 E0.34515
G1 X12.256 Y17.059 E0.03583
G1 X16.877 Y12.438 E0.39581
G1 X17.469 Y12.438 E0.03583
G1 X12.256 Y17.651 E0.44648
G1 X12.256 Y18.243 E0.03583
G1 X18.060 Y12.438 E0.49715
G1 X18.060 Y13.029 E0.03582
G1 X12.847 Y18.243 E0.44649
G1 X13.439 Y18.243 E0.03583
G1 X18.060 Y13.621 E0.39582
G1 X18.060 Y14.213 E0.03583
G1 X14.030 Y18.243 E0.34516
G1 X14.622 Y18.243 E0.03583
G1 X18.060 Y14.804 E0.29449
G1 X18.060 Y15.396 E0.03583
G1 X15.214 Y18.243 E0.24382
G1 X15.805 Y18.243 E0.03583
G1 X18.060 Y15.987 E0.19315
G1 X18.060 Y16.579 E0.03583
G1 X16.397 Y18.243 E0.14248
G1 X16.988 Y18.243 E0.03583
G1 X18.060 Y17.171 E0.09181
G1 X18.060 Y17.762 E0.03583
G1 X17.397 Y18.426 E0.05683
M204 S1000
;BEFORE_LAYER_CHANGE
G92 E0.0
;3.2


G1 Z3.200 F10800.000
;AFTER_LAYER_CHANGE
;3.2
G1 X19.933 Y20.115
M204 S800
G1 F900
G1 X10.383 Y20.115 E0.32326
G1 X10.383 Y10.565 E0.32326
G1 X19.933 Y10.565 E0.32326
G1 X19.933 Y20.055 E0.32123
M204 S1000
G1 X19.547 Y20.012 F10800.000
G1 X19.526 Y19.708
M204 S800
G1 F900
G1 X10.790 Y19.708 E0.29570
G1 X10.790 Y10.972 E0.29570
G1 X19.526 Y10.972 E0.29570
G1 X19.526 Y19.648 E0.29367
M204 S1000
G1 X19.119 Y19.301 F10800.000
M204 S800
G1 F900
G1 X11.197 Y19.301 E0.26814
G1 X11.197 Y11.379 E0.26814
G1 X19.119 Y11.379 E0.26814
G1 X19.119 Y19.241 E0.26611
M204 S1000
G1 X18.712 Y18.894 F10800.000
M204 S800
G1 F900
G1 X11.604 Y18.894 E0.24058
G1 X11.604 Y11.787 E0.24058
G1 X18.712 Y11.787 E0.24058
G1 X18.712 Y18.834 E0.23855
M204 S1000
G1 X18.305 Y18.487 F10800.000
M204 S800
G1 F900
G1 X12.011 Y18.487 E0.21302
M73 Q32 S9
G1 X12.011 Y12.194 E0.21302
M73 P32 R9
G1 X18.305 Y12.194 E0.21302
G1 X18.305 Y18.427 E0.21099
M204 S1000
;BEFORE_LAYER_CHANGE
G92 E0.0
;3.4


G1 Z3.400 F10800.000
;AFTER_LAYER_CHANGE
;3.4
G1 X19.933 Y20.115
M204 S800
G1 F900
G1 X10.383 Y20.115 E0.32326
G1 X10.383 Y10.565 E0.32326
G1 X19.933 Y10.565 E0.32326
G1 X19.933 Y20.055 E0.32123
M204 S1000
G1 X19.547 Y20.012 F10800.000
G1 X19.526 Y19.708
M204 S800
G1 F900
G1 X10.790 Y19.708 E0.29570
G1 X10.790 Y10.972 E0.29570
G1 X19.526 Y10.972 E0.29570
G1 X19.526 Y19.648 E0.29367
M204 S1000
G1 X19.119 Y19.301 F10800.000
M204 S800
G1 F900
G1 X11.197 Y19.301 E0.26814
G1 X11.197 Y11.379 E0.26814
G1 X19.119 Y11.379 E0.26814
G1 X19.119 Y19.241 E0.26611
M204 S1000
G1 X18.712 Y18.894 F10800.000
M204 S800
G1 F900
G1 X11.604 Y18.894 E0.24058
G1 X11.604 Y11.787 E0.24058
G1 X18.712 Y11.787 E0.24058
G1 X18.712 Y18.834 E0.23855
M204 S1000
G1 X18.305 Y18.487 F10800.000
M204 S800
G1 F900
G1 X12.011 Y18.487 E0.21302
G1 X12.011 Y12.194 E0.21302
G1 X18.305 Y12.194 E0.21302
G1 X18.305 Y18.427 E0.21099
M204 S1000
G1 X12.072 Y17.579 F10800.000
M204 S1250
G1 F900
G1 X12.736 Y18.243 E0.05682
G1 X13.328 Y18.243 E0.03583
G1 X12.256 Y17.171 E0.09180
G1 X12.256 Y16.579 E0.03583
G1 X13.919 Y18.243 E0.14247
G1 X14.511 Y18.243 E0.03583
G1 X12.256 Y15.988 E0.19314
G1 X12.256 Y15.396 E0.03583
G1 X15.102 Y18.243 E0.24381
G1 X15.694 Y18.243 E0.03583
G1 X12.256 Y14.804 E0.29448
G1 X12.256 Y14.213 E0.03583
G1 X16.286 Y18.243 E0.34515
G1 X16.877 Y18.243 E0.03583
G1 X12.256 Y13.621 E0.39581
G1 X12.256 Y13.030 E0.03583
G1 X17.469 Y18.243 E0.44648
G1 X18.060 Y18.243 E0.03583
G1 X12.256 Y12.438 E0.49715
G1 X12.847 Y12.438 E0.03582
G1 X18.060 Y17.651 E0.44649
G1 X18.060 Y17.060 E0.03583
G1 X13.439 Y12.438 E0.39582
G1 X14.030 Y12.438 E0.03583
G1 X18.060 Y16.468 E0.34516
G1 X18.060 Y15.876 E0.03583
G1 X14.622 Y12.438 E0.29449
G1 X15.214 Y12.438 E0.03583
G1 X18.060 Y15.285 E0.24382
G1 X18.060 Y14.693 E0.03583
G1 X15.805 Y12.438 E0.19315
G1 X16.397 Y12.438 E0.03583
G1 X18.060 Y14.102 E0.14248
G1 X18.060 Y13.510 E0.03583
G1 X16.988 Y12.438 E0.09181
G1 X17.580 Y12.438 E0.03583
G1 X18.244 Y13.101 E0.05683
M204 S1000
;BEFORE_LAYER_CHANGE
G92 E0.0
;3.6


G1 Z3.600 F10800.000
;AFTER_LAYER_CHANGE
;3.6
G1 X19.933 Y10.565
M204 S800
G1 F900
G1 X19.933 Y20.115 E0.32326
G1 X10.383 Y20.115 E0.32326
G1 X10.383 Y10.565 E0.32326
G1 X19.873 Y10.565 E0.32123
M204 S1000
G1 X19.830 Y10.952 F10800.000
G1 X19.526 Y10.972
M204 S800
G1 F900
G1 X19.526 Y19.708 E0.29570
G1 X10.790 Y19.708 E0.29570
G1 X10.790 Y10.972 E0.29570
G1 X19.466 Y10.972 E0.29367
M204 S1000
G1 X19.119 Y11.379 F10800.000
M204 S800
G1 F900
G1 X19.119 Y19.301 E0.26814
G1 X11.197 Y19.301 E0.26814
G1 X11.197 Y11.379 E0.26814
G1 X19.059 Y11.379 E0.26611
M204 S1000
G1 X18.712 Y11.787 F10800.000
M204 S800
G1 F900
G1 X18.712 Y18.894 E0.24058
G1 X11.604 Y18.894 E0.24058
G1 X11.604 Y11.787 E0.24058
G1 X18.652 Y11.787 E0.23855
M204 S1000
G1 X18.305 Y12.194 F10800.000
M204 S800
G1 F900
G1 X18.305 Y18.487 E0.21302
G1 X12.011 Y18.487 E0.21302
G1 X12.011 Y12.194 E0.21302
G1 X18.245 Y12.194 E0.21099
M204 S1000
;BEFORE_LAYER_CHANGE
G92 E0.0
;3.8


G1 Z3.800 F10800.000
;AFTER_LAYER_CHANGE
;3.8
G1 X19.933 Y10.565
M204 S800
G1 F900
G1 X19.933 Y20.115 E0.32326
G1 X10.383 Y20.115 E0.32326
G1 X10.383 Y10.565 E0.32326
G1 X19.873 Y10.565 E0.32123
M204 S1000
G1 X19.830 Y10.952 F10800.000
G1 X19.526 Y10.972
M204 S800
G1 F900
G1 X19.526 Y19.708 E0.29570
G1 X10.790 Y19.708 E0.29570
G1 X10.790 Y10.972 E0.29570
G1 X19.466 Y10.972 E0.29367
M204 S1000
G1 X19.119 Y11.379 F10800.000
M204 S800
G1 F900
G1 X19.119 Y19.301 E0.26814
G1 X11.197 Y19.301 E0.26814
G1 X11.197 Y11.379 E0.26814
G1 X19.059 Y11.379 E0.26611
M204 S1000
G1 X18.712 Y11.787 F10800.000
M204 S800
G1 F900
G1 X18.712 Y18.894 E0.24058
G1 X11.604 Y18.894 E0.24058
G1 X11.604 Y11.787 E0.24058
G1 X18.652 Y11.787 E0.23855
M204 S1000
G1 X18.305 Y12.194 F10800.000
M204 S800
G1 F900
G1 X18.305 Y18.487 E0.21302
G1 X12.011 Y18.487 E0.21302
G1 X12.011 Y12.194 E0.21302
G1 X18.245 Y12.194 E0.21099
M204 S1000
G1 X17.397 Y18.426 F10800.000
M204 S1250
G1 F900
G1 X18.060 Y17.762 E0.05683
G1 X18.060 Y17.171 E0.03583
G1 X16.988 Y18.243 E0.09181
G1 X16.397 Y18.243 E0.03583
G1 X18.060 Y16.579 E0.14248
G1 X18.060 Y15.987 E0.03583
G1 X15.805 Y18.243 E0.19315
G1 X15.214 Y18.243 E0.03583
G1 X18.060 Y15.396 E0.24382
G1 X18.060 Y14.804 E0.03583
G1 X14.622 Y18.243 E0.29449
G1 X14.030 Y18.243 E0.03583
G1 X18.060 Y14.213 E0.34516
G1 X18.060 Y13.621 E0.03583
G1 X13.439 Y18.243 E0.39582
G1 X12.847 Y18.243 E0.03583
G1 X18.060 Y13.029 E0.44649
G1 X18.060 Y12.438 E0.03582
G1 X12.256 Y18.243 E0.49715
G1 X12.256 Y17.651 E0.03583
G1 X17.469 Y12.438 E0.44648
G1 X16.877 Y12.438 E0.03583
G1 X12.256 Y17.059 E0.39581
G1 X12.256 Y16.468 E0.03583
G1 X16.286 Y12.438 E0.34515
G1 X15.694 Y12.438 E0.03583
G1 X12.256 Y15.876 E0.29448
G1 X12.256 Y15.285 E0.03583
G1 X15.102 Y12.438 E0.24381
G1 X14.511 Y12.438 E0.03583
G1 X12.256 Y14.693 E0.19314
G1 X12.256 Y14.101 E0.03583
G1 X13.919 Y12.438 E0.14247
G1 X13.328 Y12.438 E0.03583
G1 X12.256 Y13.510 E0.09180
G1 X12.256 Y12.918 E0.03583
G1 X12.919 Y12.255 E0.05682
M204 S1000
;BEFORE_LAYER_CHANGE
G92 E0.0
;4


G1 Z4.000 F10800.000
;AFTER_LAYER_CHANGE
;4
G1 X10.383 Y10.565
M204 S800
G1 F900
G1 X19.933 Y10.565 E0.32326
G1 X19.933 Y20.115 E0.32326
G1 X10.383 Y20.115 E0.32326
G1 X10.383 Y10.625 E0.32123
M204 S1000
G1 X10.769 Y10.669 F10800.000
G1 X10.790 Y10.972
M204 S800
G1 F900
G1 X19.526 Y10.972 E0.29570
G1 X19.526 Y19.708 E0.29570
G1 X10.790 Y19.708 E0.29570
G1 X10.790 Y11.032 E0.29367
M204 S1000
G1 X11.197 Y11.379 F10800.000
M204 S800
G1 F900
G1 X19.119 Y11.379 E0.26814
G1 X19.119 Y19.301 E0.26814
G1 X11.197 Y19.301 E0.26814
G1 X11.197 Y11.439 E0.26611
M204 S1000
G1 X11.604 Y11.787 F10800.000
M204 S800
G1 F900
G1 X18.712 Y11.787 E0.24058
G1 X18.712 Y18.894 E0.24058
G1 X11.604 Y18.894 E0.24058
G1 X11.604 Y11.847 E0.23855
M204 S1000
G1 X12.011 Y12.194 F10800.000
M204 S800
G1 F900
G1 X18.305 Y12.194 E0.21302
G1 X18.305 Y18.487 E0.21302
G1 X12.011 Y18.487 E0.21302
G1 X12.011 Y12.254 E0.21099
M204 S1000
;BEFORE_LAYER_CHANGE
G92 E0.0
;4.2


G1 Z4.200 F10800.000
;AFTER_LAYER_CHANGE
;4.2
G1 X10.383 Y10.565
M204 S800
G1 F900
G1 X19.933 Y10.565 E0.32326
G1 X19.933 Y20.115 E0.32326
G1 X10.383 Y20.115 E0.32326
G1 X10.383 Y10.625 E0.32123
M73 Q40 S8
M204 S1000
G1 X10.769 Y10.669 F10800.000
G1 X10.790 Y10.972
M204 S800
G1 F900
G1 X19.526 Y10.972 E0.29570
M73 P40 R8
G1 X19.526 Y19.708 E0.29570
G1 X10.790 Y19.708 E0.29570
G1 X10.790 Y11.032 E0.29367
M204 S1000
G1 X11.197 Y11.379 F10800.000
M204 S800
G1 F900
G1 X19.119 Y11.379 E0.26814
G1 X19.119 Y19.301 E0.26814
G1 X11.197 Y19.301 E0.26814
G1 X11.197 Y11.439 E0.26611
M204 S1000
G1 X11.604 Y11.787 F10800.000
M204 S800
G1 F900
G1 X18.712 Y11.787 E0.24058
G1 X18.712 Y18.894 E0.24058
G1 X11.604 Y18.894 E0.24058
G1 X11.604 Y11.847 E0.23855
M204 S1000
G1 X12.011 Y12.194 F10800.000
M204 S800
G1 F900
G1 X18.305 Y12.194 E0.21302
G1 X18.305 Y18.487 E0.21302
G1 X12.011 Y18.487 E0.21302
G1 X12.011 Y12.254 E0.21099
M204 S1000
G1 X18.244 Y13.101 F10800.000
M204 S1250
G1 F900
G1 X17.580 Y12.438 E0.05683
G1 X16.988 Y12.438 E0.03583
G1 X18.060 Y13.510 E0.09181
G1 X18.060 Y14.102 E0.03583
G1 X16.397 Y12.438 E0.14248
G1 X15.805 Y12.438 E0.03583
G1 X18.060 Y14.693 E0.19315
G1 X18.060 Y15.285 E0.03583
G1 X15.214 Y12.438 E0.24382
G1 X14.622 Y12.438 E0.03583
G1 X18.060 Y15.876 E0.29449
G1 X18.060 Y16.468 E0.03583
G1 X14.030 Y12.438 E0.34516
G1 X13.439 Y12.438 E0.03583
G1 X18.060 Y17.060 E0.39582
G1 X18.060 Y17.651 E0.03583
G1 X12.847 Y12.438 E0.44649
G1 X12.256 Y12.438 E0.03582
G1 X18.060 Y18.243 E0.49715
G1 X17.469 Y18.243 E0.03583
G1 X12.256 Y13.030 E0.44648
G1 X12.256 Y13.621 E0.03583
G1 X16.877 Y18.243 E0.39581
G1 X16.286 Y18.243 E0.03583
G1 X12.256 Y14.213 E0.34515
G1 X12.256 Y14.804 E0.03583
G1 X15.694 Y18.243 E0.29448
G1 X15.102 Y18.243 E0.03583
G1 X12.256 Y15.396 E0.24381
G1 X12.256 Y15.988 E0.03583
G1 X14.511 Y18.243 E0.19314
G1 X13.919 Y18.243 E0.03583
G1 X12.256 Y16.579 E0.14247
G1 X12.256 Y17.171 E0.03583
G1 X13.328 Y18.243 E0.09180
G1 X12.736 Y18.243 E0.03583
G1 X12.072 Y17.579 E0.05682
M204 S1000
;BEFORE_LAYER_CHANGE
G92 E0.0
;4.4


G1 Z4.400 F10800.000
;AFTER_LAYER_CHANGE
;4.4
G1 X10.383 Y20.115
M204 S800
G1 F900
G1 X10.383 Y10.565 E0.32326
G1 X19.933 Y10.565 E0.32326
G1 X19.933 Y20.115 E0.32326
G1 X10.443 Y20.115 E0.32123
M204 S1000
G1 X10.487 Y19.729 F10800.000
G1 X10.790 Y19.708
M204 S800
G1 F900
G1 X10.790 Y10.972 E0.29570
G1 X19.526 Y10.972 E0.29570
G1 X19.526 Y19.708 E0.29570
G1 X10.850 Y19.708 E0.29367
M204 S1000
G1 X11.197 Y19.301 F10800.000
M204 S800
G1 F900
G1 X11.197 Y11.379 E0.26814
G1 X19.119 Y11.379 E0.26814
G1 X19.119 Y19.301 E0.26814
G1 X11.257 Y19.301 E0.26611
M204 S1000
G1 X11.604 Y18.894 F10800.000
M204 S800
G1 F900
G1 X11.604 Y11.787 E0.24058
G1 X18.712 Y11.787 E0.24058
G1 X18.712 Y18.894 E0.24058
G1 X11.664 Y18.894 E0.23855
M204 S1000
G1 X12.011 Y18.487 F10800.000
M204 S800
G1 F900
G1 X12.011 Y12.194 E0.21302
G1 X18.305 Y12.194 E0.21302
G1 X18.305 Y18.487 E0.21302
G1 X12.071 Y18.487 E0.21099
M204 S1000
;BEFORE_LAYER_CHANGE
G92 E0.0
;4.6


G1 Z4.600 F10800.000
;AFTER_LAYER_CHANGE
;4.6
G1 X10.383 Y20.115
M204 S800
G1 F900
G1 X10.383 Y10.565 E0.32326
G1 X19.933 Y10.565 E0.32326
G1 X19.933 Y20.115 E0.32326
G1 X10.443 Y20.115 E0.32123
M204 S1000
G1 X10.487 Y19.729 F10800.000
G1 X10.790 Y19.708
M204 S800
G1 F900
G1 X10.790 Y10.972 E0.29570
G1 X19.526 Y10.972 E0.29570
G1 X19.526 Y19.708 E0.29570
G1 X10.850 Y19.708 E0.29367
M204 S1000
G1 X11.197 Y19.301 F10800.000
M204 S800
G1 F900
G1 X11.197 Y11.379 E0.26814
G1 X19.119 Y11.379 E0.26814
G1 X19.119 Y19.301 E0.26814
G1 X11.257 Y19.301 E0.26611
M204 S1000
G1 X11.604 Y18.894 F10800.000
M204 S800
G1 F900
G1 X11.604 Y11.787 E0.24058
G1 X18.712 Y11.787 E0.24058
G1 X18.712 Y18.894 E0.24058
G1 X11.664 Y18.894 E0.23855
M204 S1000
G1 X12.011 Y18.487 F10800.000
M204 S800
G1 F900
G1 X12.011 Y12.194 E0.21302
G1 X18.305 Y12.194 E0.21302
G1 X18.305 Y18.487 E0.21302
G1 X12.071 Y18.487 E0.21099
M204 S1000
G1 X12.919 Y12.255 F10800.000
M204 S1250
G1 F900
G1 X12.256 Y12.918 E0.05682
G1 X12.256 Y13.510 E0.03583
G1 X13.328 Y12.438 E0.09180
G1 X13.919 Y12.438 E0.03583
G1 X12.256 Y14.101 E0.14247
G1 X12.256 Y14.693 E0.03583
G1 X14.511 Y12.438 E0.19314
G1 X15.102 Y12.438 E0.03583
G1 X12.256 Y15.285 E0.24381
G1 X12.256 Y15.876 E0.03583
G1 X15.694 Y12.438 E0.29448
G1 X16.286 Y12.438 E0.03583
G1 X12.256 Y16.468 E0.34515
G1 X12.256 Y17.059 E0.03583
G1 X16.877 Y12.438 E0.39581
G1 X17.469 Y12.438 E0.03583
G1 X12.256 Y17.651 E0.44648
G1 X12.256 Y18.243 E0.03583
G1 X18.060 Y12.438 E0.49715
G1 X18.060 Y13.029 E0.03582
G1 X12.847 Y18.243 E0.44649
G1 X13.439 Y18.243 E0.03583
G1 X18.060 Y13.621 E0.39582
G1 X18.060 Y14.213 E0.03583
G1 X14.030 Y18.243 E0.34516
G1 X14.622 Y18.243 E0.03583
G1 X18.060 Y14.804 E0.29449
G1 X18.060 Y15.396 E0.03583
G1 X15.214 Y18.243 E0.24382
G1 X15.805 Y18.243 E0.03583
G1 X18.060 Y15.987 E0.19315
G1 X18.060 Y16.579 E0.03583
G1 X16.397 Y18.243 E0.14248
G1 X16.988 Y18.243 E0.03583
G1 X18.060 Y17.171 E0.09181
G1 X18.060 Y17.762 E0.03583
G1 X17.397 Y18.426 E0.05683
M204 S1000
;BEFORE_LAYER_CHANGE
G92 E0.0
;4.8


G1 Z4.800 F10800.000
;AFTER_LAYER_CHANGE
;4.8
G1 X19.933 Y20.115
M204 S800
G1 F900
G1 X10.383 Y20.115 E0.32326
G1 X10.383 Y10.565 E0.32326
G1 X19.933 Y10.565 E0.32326
G1 X19.933 Y20.055 E0.32123
M204 S1000
G1 X19.547 Y20.012 F10800.000
G1 X19.526 Y19.708
M204 S800
G1 F900
G1 X10.790 Y19.708 E0.29570
G1 X10.790 Y10.972 E0.29570
G1 X19.526 Y10.972 E0.29570
G1 X19.526 Y19.648 E0.29367
M204 S1000
G1 X19.119 Y19.301 F10800.000
M204 S800
G1 F900
G1 X11.197 Y19.301 E0.26814
G1 X11.197 Y11.379 E0.26814
G1 X19.119 Y11.379 E0.26814
G1 X19.119 Y19.241 E0.26611
M204 S1000
G1 X18.712 Y18.894 F10800.000
M204 S800
G1 F900
G1 X11.604 Y18.894 E0.24058
G1 X11.604 Y11.787 E0.24058
G1 X18.712 Y11.787 E0.24058
G1 X18.712 Y18.834 E0.23855
M204 S1000
G1 X18.305 Y18.487 F10800.000
M204 S800
G1 F900
G1 X12.011 Y18.487 E0.21302
G1 X12.011 Y12.194 E0.21302
G1 X18.305 Y12.194 E0.21302
G1 X18.305 Y18.427 E0.21099
M204 S1000
;BEFORE_LAYER_CHANGE
G92 E0.0
;5


G1 Z5.000 F10800.000
;AFTER_LAYER_CHANGE
;5
G1 X19.933 Y20.115
M204 S800
G1 F900
G1 X10.383 Y20.115 E0.32326
G1 X10.383 Y10.565 E0.32326
G1 X19.933 Y10.565 E0.32326
G1 X19.933 Y20.055 E0.32123
M204 S1000
G1 X19.547 Y20.012 F10800.000
G1 X19.526 Y19.708
M204 S800
G1 F900
G1 X10.790 Y19.708 E0.29570
G1 X10.790 Y10.972 E0.29570
G1 X19.526 Y10.972 E0.29570
G1 X19.526 Y19.648 E0.29367
M204 S1000
G1 X19.119 Y19.301 F10800.000
M204 S800
G1 F900
G1 X11.197 Y19.301 E0.26814
G1 X11.197 Y11.379 E0.26814
G1 X19.119 Y11.379 E0.26814
M73 Q48 S7
G1 X19.119 Y19.241 E0.26611
M73 P48 R7
M204 S1000
G1 X18.712 Y18.894 F10800.000
M204 S800
G1 F900
G1 X11.604 Y18.894 E0.24058
G1 X11.604 Y11.787 E0.24058
G1 X18.712 Y11.787 E0.24058
G1 X18.712 Y18.834 E0.23855
M204 S1000
G1 X18.305 Y18.487 F10800.000
M204 S800
G1 F900
G1 X12.011 Y18.487 E0.21302
G1 X12.011 Y12.194 E0.21302
G1 X18.305 Y12.194 E0.21302
G1 X18.305 Y18.427 E0.21099
M204 S1000
G1 X12.072 Y17.579 F10800.000
M204 S1250
G1 F900
G1 X12.736 Y18.243 E0.05682
G1 X13.328 Y18.243 E0.03583
G1 X12.256 Y17.171 E0.09180
G1 X12.256 Y16.579 E0.03583
G1 X13.919 Y18.243 E0.14247
G1 X14.511 Y18.243 E0.03583
G1 X12.256 Y15.988 E0.19314
G1 X12.256 Y15.396 E0.03583
G1 X15.102 Y18.243 E0.24381
G1 X15.694 Y18.243 E0.03583
G1 X12.256 Y14.804 E0.29448
G1 X12.256 Y14.213 E0.03583
G1 X16.286 Y18.243 E0.34515
G1 X16.877 Y18.243 E0.03583
G1 X12.256 Y13.621 E0.39581
G1 X12.256 Y13.030 E0.03583
G1 X17.469 Y18.243 E0.44648
G1 X18.060 Y18.243 E0.03583
G1 X12.256 Y12.438 E0.49715
G1 X12.847 Y12.438 E0.03582
G1 X18.060 Y17.651 E0.44649
G1 X18.060 Y17.060 E0.03583
G1 X13.439 Y12.438 E0.39582
G1 X14.030 Y12.438 E0.03583
G1 X18.060 Y16.468 E0.34516
G1 X18.060 Y15.876 E0.03583
G1 X14.622 Y12.438 E0.29449
G1 X15.214 Y12.438 E0.03583
G1 X18.060 Y15.285 E0.24382
G1 X18.060 Y14.693 E0.03583
G1 X15.805 Y12.438 E0.19315
G1 X16.397 Y12.438 E0.03583
G1 X18.060 Y14.102 E0.14248
G1 X18.060 Y13.510 E0.03583
G1 X16.988 Y12.438 E0.09181
G1 X17.580 Y12.438 E0.03583
G1 X18.244 Y13.101 E0.05683
M204 S1000
;BEFORE_LAYER_CHANGE
G92 E0.0
;5.2


G1 Z5.200 F10800.000
;AFTER_LAYER_CHANGE
;5.2
G1 X19.933 Y10.565
M204 S800
G1 F900
G1 X19.933 Y20.115 E0.32326
G1 X10.383 Y20.115 E0.32326
G1 X10.383 Y10.565 E0.32326
G1 X19.873 Y10.565 E0.32123
M204 S1000
G1 X19.830 Y10.952 F10800.000
G1 X19.526 Y10.972
M204 S800
G1 F900
G1 X19.526 Y19.708 E0.29570
G1 X10.790 Y19.708 E0.29570
G1 X10.790 Y10.972 E0.29570
G1 X19.466 Y10.972 E0.29367
M204 S1000
G1 X19.119 Y11.379 F10800.000
M204 S800
G1 F900
G1 X19.119 Y19.301 E0.26814
G1 X11.197 Y19.301 E0.26814
G1 X11.197 Y11.379 E0.26814
G1 X19.059 Y11.379 E0.26611
M204 S1000
G1 X18.712 Y11.787 F10800.000
M204 S800
G1 F900
G1 X18.712 Y18.894 E0.24058
G1 X11.604 Y18.894 E0.24058
G1 X11.604 Y11.787 E0.24058
G1 X18.652 Y11.787 E0.23855
M204 S1000
G1 X18.305 Y12.194 F10800.000
M204 S800
G1 F900
G1 X18.305 Y18.487 E0.21302
G1 X12.011 Y18.487 E0.21302
G1 X12.011 Y12.194 E0.21302
G1 X18.245 Y12.194 E0.21099
M204 S1000
;BEFORE_LAYER_CHANGE
G92 E0.0
;5.4


G1 Z5.400 F10800.000
;AFTER_LAYER_CHANGE
;5.4
G1 X19.933 Y10.565
M204 S800
G1 F900
G1 X19.933 Y20.115 E0.32326
G1 X10.383 Y20.115 E0.32326
G1 X10.383 Y10.565 E0.32326
G1 X19.873 Y10.565 E0.32123
M204 S1000
G1 X19.830 Y10.952 F10800.000
G1 X19.526 Y10.972
M204 S800
G1 F900
G1 X19.526 Y19.708 E0.29570
G1 X10.790 Y19.708 E0.29570
G1 X10.790 Y10.972 E0.29570
G1 X19.466 Y10.972 E0.29367
M204 S1000
G1 X19.119 Y11.379 F10800.000
M204 S800
G1 F900
G1 X19.119 Y19.301 E0.26814
G1 X11.197 Y19.301 E0.26814
G1 X11.197 Y11.379 E0.26814
G1 X19.059 Y11.379 E0.26611
M204 S1000
G1 X18.712 Y11.787 F10800.000
M204 S800
G1 F900
G1 X18.712 Y18.894 E0.24058
G1 X11.604 Y18.894 E0.24058
G1 X11.604 Y11.787 E0.24058
G1 X18.652 Y11.787 E0.23855
M204 S1000
G1 X18.305 Y12.194 F10800.000
M204 S800
G1 F900
G1 X18.305 Y18.487 E0.21302
G1 X12.011 Y18.487 E0.21302
G1 X12.011 Y12.194 E0.21302
G1 X18.245 Y12.194 E0.21099
M204 S1000
G1 X17.397 Y18.426 F10800.000
M204 S1250
G1 F900
G1 X18.060 Y17.762 E0.05683
G1 X18.060 Y17.171 E0.03583
G1 X16.988 Y18.243 E0.09181
G1 X16.397 Y18.243 E0.03583
G1 X18.060 Y16.579 E0.14248
G1 X18.060 Y15.987 E0.03583
G1 X15.805 Y18.243 E0.19315
G1 X15.214 Y18.243 E0.03583
G1 X18.060 Y15.396 E0.24382
G1 X18.060 Y14.804 E0.03583
G1 X14.622 Y18.243 E0.29449
G1 X14.030 Y18.243 E0.03583
G1 X18.060 Y14.213 E0.34516
G1 X18.060 Y13.621 E0.03583
G1 X13.439 Y18.243 E0.39582
G1 X12.847 Y18.243 E0.03583
G1 X18.060 Y13.029 E0.44649
G1 X18.060 Y12.438 E0.03582
G1 X12.256 Y18.243 E0.49715
G1 X12.256 Y17.651 E0.03583
G1 X17.469 Y12.438 E0.44648
G1 X16.877 Y12.438 E0.03583
G1 X12.256 Y17.059 E0.39581
G1 X12.256 Y16.468 E0.03583
G1 X16.286 Y12.438 E0.34515
G1 X15.694 Y12.438 E0.03583
G1 X12.256 Y15.876 E0.29448
G1 X12.256 Y15.285 E0.03583
G1 X15.102 Y12.438 E0.24381
G1 X14.511 Y12.438 E0.03583
G1 X12.256 Y14.693 E0.19314
G1 X12.256 Y14.101 E0.03583
G1 X13.919 Y12.438 E0.14247
G1 X13.328 Y12.438 E0.03583
G1 X12.256 Y13.510 E0.09180
G1 X12.256 Y12.918 E0.03583
G1 X12.919 Y12.255 E0.05682
M204 S1000
;BEFORE_LAYER_CHANGE
G92 E0.0
;5.6


G1 Z5.600 F10800.000
;AFTER_LAYER_CHANGE
;5.6
G1 X10.383 Y10.565
M204 S800
G1 F900
G1 X19.933 Y10.565 E0.32326
G1 X19.933 Y20.115 E0.32326
G1 X10.383 Y20.115 E0.32326
G1 X10.383 Y10.625 E0.32123
M204 S1000
G1 X10.769 Y10.669 F10800.000
G1 X10.790 Y10.972
M204 S800
G1 F900
G1 X19.526 Y10.972 E0.29570
G1 X19.526 Y19.708 E0.29570
G1 X10.790 Y19.708 E0.29570
G1 X10.790 Y11.032 E0.29367
M204 S1000
G1 X11.197 Y11.379 F10800.000
M204 S800
G1 F900
G1 X19.119 Y11.379 E0.26814
G1 X19.119 Y19.301 E0.26814
G1 X11.197 Y19.301 E0.26814
G1 X11.197 Y11.439 E0.26611
M204 S1000
G1 X11.604 Y11.787 F10800.000
M204 S800
G1 F900
G1 X18.712 Y11.787 E0.24058
G1 X18.712 Y18.894 E0.24058
G1 X11.604 Y18.894 E0.24058
G1 X11.604 Y11.847 E0.23855
M204 S1000
G1 X12.011 Y12.194 F10800.000
M204 S800
G1 F900
G1 X18.305 Y12.194 E0.21302
G1 X18.305 Y18.487 E0.21302
G1 X12.011 Y18.487 E0.21302
G1 X12.011 Y12.254 E0.21099
M204 S1000
;BEFORE_LAYER_CHANGE
G92 E0.0
;5.8


G1 Z5.800 F10800.000
;AFTER_LAYER_CHANGE
;5.8
G1 X10.383 Y10.565
M204 S800
G1 F900
G1 X19.933 Y10.565 E0.32326
G1 X19.933 Y20.115 E0.32326
G1 X10.383 Y20.115 E0.32326
G1 X10.383 Y10.625 E0.32123
M204 S1000
G1 X10.769 Y10.669 F10800.000
G1 X10.790 Y10.972
M204 S800
G1 F900
G1 X19.526 Y10.972 E0.29570
G1 X19.526 Y19.708 E0.29570
G1 X10.790 Y19.708 E0.29570
G1 X10.790 Y11.032 E0.29367
M204 S1000
G1 X11.197 Y11.379 F10800.000
M204 S800
G1 F900
G1 X19.119 Y11.379 E0.26814
G1 X19.119 Y19.301 E0.26814
G1 X11.197 Y19.301 E0.26814
G1 X11.197 Y11.439 E0.26611
M204 S1000
G1 X11.604 Y11.787 F10800.000
M204 S800
G1 F900
G1 X18.712 Y11.787 E0.24058
G1 X18.712 Y18.894 E0.24058
G1 X11.604 Y18.894 E0.24058
G1 X11.604 Y11.847 E0.23855
M204 S1000
G1 X12.011 Y12.194 F10800.000
M204 S800
G1 F900
G1 X18.305 Y12.194 E0.21302
G1 X18.305 Y18.487 E0.21302
G1 X12.011 Y18.487 E0.21302
G1 X12.011 Y12.254 E0.21099
M73 Q56 S6
M204 S1000
G1 X18.244 Y13.101 F10800.000
M204 S1250
G1 F900
G1 X17.580 Y12.438 E0.05683
M73 P56 R6
G1 X16.988 Y12.438 E0.03583
G1 X18.060 Y13.510 E0.09181
G1 X18.060 Y14.102 E0.03583
G1 X16.397 Y12.438 E0.14248
G1 X15.805 Y12.438 E0.03583
G1 X18.060 Y14.693 E0.19315
G1 X18.060 Y15.285 E0.03583
G1 X15.214 Y12.438 E0.24382
G1 X14.622 Y12.438 E0.03583
G1 X18.060 Y15.876 E0.29449
G1 X18.060 Y16.468 E0.03583
G1 X14.030 Y12.438 E0.34516
G1 X13.439 Y12.438 E0.03583
G1 X18.060 Y17.060 E0.39582
G1 X18.060 Y17.651 E0.03583
G1 X12.847 Y12.438 E0.44649
G1 X12.256 Y12.438 E0.03582
G1 X18.060 Y18.243 E0.49715
G1 X17.469 Y18.243 E0.03583
G1 X12.256 Y13.030 E0.44648
G1 X12.256 Y13.621 E0.03583
G1 X16.877 Y18.243 E0.39581
G1 X16.286 Y18.243 E0.03583
G1 X12.256 Y14.213 E0.34515
G1 X12.256 Y14.804 E0.03583
G1 X15.694 Y18.243 E0.29448
G1 X15.102 Y18.243 E0.03583
G1 X12.256 Y15.396 E0.24381
G1 X12.256 Y15.988 E0.03583
G1 X14.511 Y18.243 E0.19314
G1 X13.919 Y18.243 E0.03583
G1 X12.256 Y16.579 E0.14247
G1 X12.256 Y17.171 E0.03583
G1 X13.328 Y18.243 E0.09180
G1 X12.736 Y18.243 E0.03583
G1 X12.072 Y17.579 E0.05682
M204 S1000
;BEFORE_LAYER_CHANGE
G92 E0.0
;6


G1 Z6.000 F10800.000
;AFTER_LAYER_CHANGE
;6
G1 X10.383 Y20.115
M204 S800
G1 F900
G1 X10.383 Y10.565 E0.32326
G1 X19.933 Y10.565 E0.32326
G1 X19.933 Y20.115 E0.32326
G1 X10.443 Y20.115 E0.32123
M204 S1000
G1 X10.487 Y19.729 F10800.000
G1 X10.790 Y19.708
M204 S800
G1 F900
G1 X10.790 Y10.972 E0.29570
G1 X19.526 Y10.972 E0.29570
G1 X19.526 Y19.708 E0.29570
G1 X10.850 Y19.708 E0.29367
M204 S1000
G1 X11.197 Y19.301 F10800.000
M204 S800
G1 F900
G1 X11.197 Y11.379 E0.26814
G1 X19.119 Y11.379 E0.26814
G1 X19.119 Y19.301 E0.26814
G1 X11.257 Y19.301 E0.26611
M204 S1000
G1 X11.604 Y18.894 F10800.000
M204 S800
G1 F900
G1 X11.604 Y11.787 E0.24058
G1 X18.712 Y11.787 E0.24058
G1 X18.712 Y18.894 E0.24058
G1 X11.664 Y18.894 E0.23855
M204 S1000
G1 X12.011 Y18.487 F10800.000
M204 S800
G1 F900
G1 X12.011 Y12.194 E0.21302
G1 X18.305 Y12.194 E0.21302
G1 X18.305 Y18.487 E0.21302
G1 X12.071 Y18.487 E0.21099
M204 S1000
;BEFORE_LAYER_CHANGE
G92 E0.0
;6.2


G1 Z6.200 F10800.000
;AFTER_LAYER_CHANGE
;6.2
G1 X10.383 Y20.115
M204 S800
G1 F900
G1 X10.383 Y10.565 E0.32326
G1 X19.933 Y10.565 E0.32326
G1 X19.933 Y20.115 E0.32326
G1 X10.443 Y20.115 E0.32123
M204 S1000
G1 X10.487 Y19.729 F10800.000
G1 X10.790 Y19.708
M204 S800
G1 F900
G1 X10.790 Y10.972 E0.29570
G1 X19.526 Y10.972 E0.29570
G1 X19.526 Y19.708 E0.29570
G1 X10.850 Y19.708 E0.29367
M204 S1000
G1 X11.197 Y19.301 F10800.000
M204 S800
G1 F900
G1 X11.197 Y11.379 E0.26814
G1 X19.119 Y11.379 E0.26814
G1 X19.119 Y19.301 E0.26814
G1 X11.257 Y19.301 E0.26611
M204 S1000
G1 X11.604 Y18.894 F10800.000
M204 S800
G1 F900
G1 X11.604 Y11.787 E0.24058
G1 X18.712 Y11.787 E0.24058
G1 X18.712 Y18.894 E0.24058
G1 X11.664 Y18.894 E0.23855
M204 S1000
G1 X12.011 Y18.487 F10800.000
M204 S800
G1 F900
G1 X12.011 Y12.194 E0.21302
G1 X18.305 Y12.194 E0.21302
G1 X18.305 Y18.487 E0.21302
G1 X12.071 Y18.487 E0.21099
M204 S1000
G1 X12.919 Y12.255 F10800.000
M204 S1250
G1 F900
G1 X12.256 Y12.918 E0.05682
G1 X12.256 Y13.510 E0.03583
G1 X13.328 Y12.438 E0.09180
G1 X13.919 Y12.438 E0.03583
G1 X12.256 Y14.101 E0.14247
G1 X12.256 Y14.693 E0.03583
G1 X14.511 Y12.438 E0.19314
G1 X15.102 Y12.438 E0.03583
G1 X12.256 Y15.285 E0.24381
G1 X12.256 Y15.876 E0.03583
G1 X15.694 Y12.438 E0.29448
G1 X16.286 Y12.438 E0.03583
G1 X12.256 Y16.468 E0.34515
G1 X12.256 Y17.059 E0.03583
G1 X16.877 Y12.438 E0.39581
G1 X17.469 Y12.438 E0.03583
G1 X12.256 Y17.651 E0.44648
G1 X12.256 Y18.243 E0.03583
G1 X18.060 Y12.438 E0.49715
G1 X18.060 Y13.029 E0.03582
G1 X12.847 Y18.243 E0.44649
G1 X13.439 Y18.243 E0.03583
G1 X18.060 Y13.621 E0.39582
G1 X18.060 Y14.213 E0.03583
G1 X14.030 Y18.243 E0.34516
G1 X14.622 Y18.243 E0.03583
G1 X18.060 Y14.804 E0.29449
G1 X18.060 Y15.396 E0.03583
G1 X15.214 Y18.243 E0.24382
G1 X15.805 Y18.243 E0.03583
G1 X18.060 Y15.987 E0.19315
G1 X18.060 Y16.579 E0.03583
G1 X16.397 Y18.243 E0.14248
G1 X16.988 Y18.243 E0.03583
G1 X18.060 Y17.171 E0.09181
G1 X18.060 Y17.762 E0.03583
G1 X17.397 Y18.426 E0.05683
M204 S1000
;BEFORE_LAYER_CHANGE
G92 E0.0
;6.4


G1 Z6.400 F10800.000
;AFTER_LAYER_CHANGE
;6.4
G1 X19.933 Y20.115
M204 S800
G1 F900
G1 X10.383 Y20.115 E0.32326
G1 X10.383 Y10.565 E0.32326
G1 X19.933 Y10.565 E0.32326
G1 X19.933 Y20.055 E0.32123
M204 S1000
G1 X19.547 Y20.012 F10800.000
G1 X19.526 Y19.708
M204 S800
G1 F900
G1 X10.790 Y19.708 E0.29570
G1 X10.790 Y10.972 E0.29570
G1 X19.526 Y10.972 E0.29570
G1 X19.526 Y19.648 E0.29367
M204 S1000
G1 X19.119 Y19.301 F10800.000
M204 S800
G1 F900
G1 X11.197 Y19.301 E0.26814
G1 X11.197 Y11.379 E0.26814
G1 X19.119 Y11.379 E0.26814
G1 X19.119 Y19.241 E0.26611
M204 S1000
G1 X18.712 Y18.894 F10800.000
M204 S800
G1 F900
G1 X11.604 Y18.894 E0.24058
G1 X11.604 Y11.787 E0.24058
G1 X18.712 Y11.787 E0.24058
G1 X18.712 Y18.834 E0.23855
M204 S1000
G1 X18.305 Y18.487 F10800.000
M204 S800
G1 F900
G1 X12.011 Y18.487 E0.21302
G1 X12.011 Y12.194 E0.21302
G1 X18.305 Y12.194 E0.21302
G1 X18.305 Y18.427 E0.21099
M204 S1000
;BEFORE_LAYER_CHANGE
G92 E0.0
;6.6


G1 Z6.600 F10800.000
;AFTER_LAYER_CHANGE
;6.6
G1 X19.933 Y20.115
M204 S800
G1 F900
G1 X10.383 Y20.115 E0.32326
G1 X10.383 Y10.565 E0.32326
G1 X19.933 Y10.565 E0.32326
G1 X19.933 Y20.055 E0.32123
M204 S1000
G1 X19.547 Y20.012 F10800.000
G1 X19.526 Y19.708
M204 S800
G1 F900
G1 X10.790 Y19.708 E0.29570
G1 X10.790 Y10.972 E0.29570
G1 X19.526 Y10.972 E0.29570
G1 X19.526 Y19.648 E0.29367
M204 S1000
G1 X19.119 Y19.301 F10800.000
M204 S800
G1 F900
G1 X11.197 Y19.301 E0.26814
G1 X11.197 Y11.379 E0.26814
G1 X19.119 Y11.379 E0.26814
G1 X19.119 Y19.241 E0.26611
M204 S1000
G1 X18.712 Y18.894 F10800.000
M204 S800
G1 F900
G1 X11.604 Y18.894 E0.24058
G1 X11.604 Y11.787 E0.24058
G1 X18.712 Y11.787 E0.24058
G1 X18.712 Y18.834 E0.23855
M204 S1000
G1 X18.305 Y18.487 F10800.000
M204 S800
G1 F900
G1 X12.011 Y18.487 E0.21302
G1 X12.011 Y12.194 E0.21302
G1 X18.305 Y12.194 E0.21302
G1 X18.305 Y18.427 E0.21099
M204 S1000
G1 X12.072 Y17.579 F10800.000
M204 S1250
G1 F900
G1 X12.736 Y18.243 E0.05682
G1 X13.328 Y18.243 E0.03583
G1 X12.256 Y17.171 E0.09180
G1 X12.256 Y16.579 E0.03583
G1 X13.919 Y18.243 E0.14247
G1 X14.511 Y18.243 E0.03583
G1 X12.256 Y15.988 E0.19314
G1 X12.256 Y15.396 E0.03583
G1 X15.102 Y18.243 E0.24381
G1 X15.694 Y18.243 E0.03583
G1 X12.256 Y14.804 E0.29448
G1 X12.256 Y14.213 E0.03583
G1 X16.286 Y18.243 E0.34515
G1 X16.877 Y18.243 E0.03583
G1 X12.256 Y13.621 E0.39581
G1 X12.256 Y13.030 E0.03583
G1 X17.469 Y18.243 E0.44648
G1 X18.060 Y18.243 E0.03583
G1 X12.256 Y12.438 E0.49715
G1 X12.847 Y12.438 E0.03582
G1 X18.060 Y17.651 E0.44649
M73 Q64 S5
M73 P64 R5
G1 X18.060 Y17.060 E0.03583
G1 X13.439 Y12.438 E0.39582
G1 X14.030 Y12.438 E0.03583
G1 X18.060 Y16.468 E0.34516
G1 X18.060 Y15.876 E0.03583
G1 X14.622 Y12.438 E0.29449
G1 X15.214 Y12.438 E0.03583
G1 X18.060 Y15.285 E0.24382
G1 X18.060 Y14.693 E0.03583
G1 X15.805 Y12.438 E0.19315
G1 X16.397 Y12.438 E0.03583
G1 X18.060 Y14.102 E0.14248
G1 X18.060 Y13.510 E0.03583
G1 X16.988 Y12.438 E0.09181
G1 X17.580 Y12.438 E0.03583
G1 X18.244 Y13.101 E0.05683
M204 S1000
;BEFORE_LAYER_CHANGE
G92 E0.0
;6.8


G1 Z6.800 F10800.000
;AFTER_LAYER_CHANGE
;6.8
G1 X19.933 Y10.565
M204 S800
G1 F900
G1 X19.933 Y20.115 E0.32326
G1 X10.383 Y20.115 E0.32326
G1 X10.383 Y10.565 E0.32326
G1 X19.873 Y10.565 E0.32123
M204 S1000
G1 X19.830 Y10.952 F10800.000
G1 X19.526 Y10.972
M204 S800
G1 F900
G1 X19.526 Y19.708 E0.29570
G1 X10.790 Y19.708 E0.29570
G1 X10.790 Y10.972 E0.29570
G1 X19.466 Y10.972 E0.29367
M204 S1000
G1 X19.119 Y11.379 F10800.000
M204 S800
G1 F900
G1 X19.119 Y19.301 E0.26814
G1 X11.197 Y19.301 E0.26814
G1 X11.197 Y11.379 E0.26814
G1 X19.059 Y11.379 E0.26611
M204 S1000
G1 X18.712 Y11.787 F10800.000
M204 S800
G1 F900
G1 X18.712 Y18.894 E0.24058
G1 X11.604 Y18.894 E0.24058
G1 X11.604 Y11.787 E0.24058
G1 X18.652 Y11.787 E0.23855
M204 S1000
G1 X18.305 Y12.194 F10800.000
M204 S800
G1 F900
G1 X18.305 Y18.487 E0.21302
G1 X12.011 Y18.487 E0.21302
G1 X12.011 Y12.194 E0.21302
G1 X18.245 Y12.194 E0.21099
M204 S1000
;BEFORE_LAYER_CHANGE
G92 E0.0
;7


G1 Z7.000 F10800.000
;AFTER_LAYER_CHANGE
;7
G1 X19.933 Y10.565
M204 S800
G1 F900
G1 X19.933 Y20.115 E0.32326
G1 X10.383 Y20.115 E0.32326
G1 X10.383 Y10.565 E0.32326
G1 X19.873 Y10.565 E0.32123
M204 S1000
G1 X19.830 Y10.952 F10800.000
G1 X19.526 Y10.972
M204 S800
G1 F900
G1 X19.526 Y19.708 E0.29570
G1 X10.790 Y19.708 E0.29570
G1 X10.790 Y10.972 E0.29570
G1 X19.466 Y10.972 E0.29367
M204 S1000
G1 X19.119 Y11.379 F10800.000
M204 S800
G1 F900
G1 X19.119 Y19.301 E0.26814
G1 X11.197 Y19.301 E0.26814
G1 X11.197 Y11.379 E0.26814
G1 X19.059 Y11.379 E0.26611
M204 S1000
G1 X18.712 Y11.787 F10800.000
M204 S800
G1 F900
G1 X18.712 Y18.894 E0.24058
G1 X11.604 Y18.894 E0.24058
G1 X11.604 Y11.787 E0.24058
G1 X18.652 Y11.787 E0.23855
M204 S1000
G1 X18.305 Y12.194 F10800.000
M204 S800
G1 F900
G1 X18.305 Y18.487 E0.21302
G1 X12.011 Y18.487 E0.21302
G1 X12.011 Y12.194 E0.21302
G1 X18.245 Y12.194 E0.21099
M204 S1000
G1 X17.397 Y18.426 F10800.000
M204 S1250
G1 F900
G1 X18.060 Y17.762 E0.05683
G1 X18.060 Y17.171 E0.03583
G1 X16.988 Y18.243 E0.09181
G1 X16.397 Y18.243 E0.03583
G1 X18.060 Y16.579 E0.14248
G1 X18.060 Y15.987 E0.03583
G1 X15.805 Y18.243 E0.19315
G1 X15.214 Y18.243 E0.03583
G1 X18.060 Y15.396 E0.24382
G1 X18.060 Y14.804 E0.03583
G1 X14.622 Y18.243 E0.29449
G1 X14.030 Y18.243 E0.03583
G1 X18.060 Y14.213 E0.34516
G1 X18.060 Y13.621 E0.03583
G1 X13.439 Y18.243 E0.39582
G1 X12.847 Y18.243 E0.03583
G1 X18.060 Y13.029 E0.44649
G1 X18.060 Y12.438 E0.03582
G1 X12.256 Y18.243 E0.49715
G1 X12.256 Y17.651 E0.03583
G1 X17.469 Y12.438 E0.44648
G1 X16.877 Y12.438 E0.03583
G1 X12.256 Y17.059 E0.39581
G1 X12.256 Y16.468 E0.03583
G1 X16.286 Y12.438 E0.34515
G1 X15.694 Y12.438 E0.03583
G1 X12.256 Y15.876 E0.29448
G1 X12.256 Y15.285 E0.03583
G1 X15.102 Y12.438 E0.24381
G1 X14.511 Y12.438 E0.03583
G1 X12.256 Y14.693 E0.19314
G1 X12.256 Y14.101 E0.03583
G1 X13.919 Y12.438 E0.14247
G1 X13.328 Y12.438 E0.03583
G1 X12.256 Y13.510 E0.09180
G1 X12.256 Y12.918 E0.03583
G1 X12.919 Y12.255 E0.05682
M204 S1000
;BEFORE_LAYER_CHANGE
G92 E0.0
;7.2


G1 Z7.200 F10800.000
;AFTER_LAYER_CHANGE
;7.2
G1 X10.383 Y10.565
M204 S800
G1 F900
G1 X19.933 Y10.565 E0.32326
G1 X19.933 Y20.115 E0.32326
G1 X10.383 Y20.115 E0.32326
G1 X10.383 Y10.625 E0.32123
M204 S1000
G1 X10.769 Y10.669 F10800.000
G1 X10.790 Y10.972
M204 S800
G1 F900
G1 X19.526 Y10.972 E0.29570
G1 X19.526 Y19.708 E0.29570
G1 X10.790 Y19.708 E0.29570
G1 X10.790 Y11.032 E0.29367
M204 S1000
G1 X11.197 Y11.379 F10800.000
M204 S800
G1 F900
G1 X19.119 Y11.379 E0.26814
G1 X19.119 Y19.301 E0.26814
G1 X11.197 Y19.301 E0.26814
G1 X11.197 Y11.439 E0.26611
M204 S1000
G1 X11.604 Y11.787 F10800.000
M204 S800
G1 F900
G1 X18.712 Y11.787 E0.24058
G1 X18.712 Y18.894 E0.24058
G1 X11.604 Y18.894 E0.24058
G1 X11.604 Y11.847 E0.23855
M204 S1000
G1 X12.011 Y12.194 F10800.000
M204 S800
G1 F900
G1 X18.305 Y12.194 E0.21302
G1 X18.305 Y18.487 E0.21302
G1 X12.011 Y18.487 E0.21302
G1 X12.011 Y12.254 E0.21099
M204 S1000
;BEFORE_LAYER_CHANGE
G92 E0.0
;7.4


G1 Z7.400 F10800.000
;AFTER_LAYER_CHANGE
;7.4
G1 X10.383 Y10.565
M204 S800
G1 F900
G1 X19.933 Y10.565 E0.32326
G1 X19.933 Y20.115 E0.32326
G1 X10.383 Y20.115 E0.32326
G1 X10.383 Y10.625 E0.32123
M204 S1000
G1 X10.769 Y10.669 F10800.000
G1 X10.790 Y10.972
M204 S800
G1 F900
G1 X19.526 Y10.972 E0.29570
G1 X19.526 Y19.708 E0.29570
G1 X10.790 Y19.708 E0.29570
G1 X10.790 Y11.032 E0.29367
M204 S1000
G1 X11.197 Y11.379 F10800.000
M204 S800
G1 F900
G1 X19.119 Y11.379 E0.26814
G1 X19.119 Y19.301 E0.26814
G1 X11.197 Y19.301 E0.26814
G1 X11.197 Y11.439 E0.26611
M204 S1000
G1 X11.604 Y11.787 F10800.000
M204 S800
G1 F900
G1 X18.712 Y11.787 E0.24058
G1 X18.712 Y18.894 E0.24058
G1 X11.604 Y18.894 E0.24058
G1 X11.604 Y11.847 E0.23855
M204 S1000
G1 X12.011 Y12.194 F10800.000
M204 S800
G1 F900
G1 X18.305 Y12.194 E0.21302
G1 X18.305 Y18.487 E0.21302
G1 X12.011 Y18.487 E0.21302
G1 X12.011 Y12.254 E0.21099
M204 S1000
G1 X18.244 Y13.101 F10800.000
M204 S1250
G1 F900
G1 X17.580 Y12.438 E0.05683
G1 X16.988 Y12.438 E0.03583
G1 X18.060 Y13.510 E0.09181
G1 X18.060 Y14.102 E0.03583
G1 X16.397 Y12.438 E0.14248
G1 X15.805 Y12.438 E0.03583
G1 X18.060 Y14.693 E0.19315
G1 X18.060 Y15.285 E0.03583
G1 X15.214 Y12.438 E0.24382
G1 X14.622 Y12.438 E0.03583
G1 X18.060 Y15.876 E0.29449
G1 X18.060 Y16.468 E0.03583
G1 X14.030 Y12.438 E0.34516
G1 X13.439 Y12.438 E0.03583
G1 X18.060 Y17.060 E0.39582
G1 X18.060 Y17.651 E0.03583
G1 X12.847 Y12.438 E0.44649
G1 X12.256 Y12.438 E0.03582
G1 X18.060 Y18.243 E0.49715
G1 X17.469 Y18.243 E0.03583
G1 X12.256 Y13.030 E0.44648
G1 X12.256 Y13.621 E0.03583
G1 X16.877 Y18.243 E0.39581
G1 X16.286 Y18.243 E0.03583
G1 X12.256 Y14.213 E0.34515
G1 X12.256 Y14.804 E0.03583
G1 X15.694 Y18.243 E0.29448
G1 X15.102 Y18.243 E0.03583
G1 X12.256 Y15.396 E0.24381
G1 X12.256 Y15.988 E0.03583
G1 X14.511 Y18.243 E0.19314
G1 X13.919 Y18.243 E0.03583
G1 X12.256 Y16.579 E0.14247
G1 X12.256 Y17.171 E0.03583
G1 X13.328 Y18.243 E0.09180
G1 X12.736 Y18.243 E0.03583
G1 X12.072 Y17.579 E0.05682
M204 S1000
;BEFORE_LAYER_CHANGE
G92 E0.0
;7.6


G1 Z7.600 F10800.000
;AFTER_LAYER_CHANGE
;7.6
G1 X10.383 Y20.115
M204 S800
G1 F900
G1 X10.383 Y10.565 E0.32326
G1 X19.933 Y10.565 E0.32326
G1 X19.933 Y20.115 E0.32326
M73 Q72 S3
M73 P72 R3
G1 X10.443 Y20.115 E0.32123
M204 S1000
G1 X10.487 Y19.729 F10800.000
G1 X10.790 Y19.708
M204 S800
G1 F900
G1 X10.790 Y10.972 E0.29570
G1 X19.526 Y10.972 E0.29570
G1 X19.526 Y19.708 E0.29570
G1 X10.850 Y19.708 E0.29367
M204 S1000
G1 X11.197 Y19.301 F10800.000
M204 S800
G1 F900
G1 X11.197 Y11.379 E0.26814
G1 X19.119 Y11.379 E0.26814
G1 X19.119 Y19.301 E0.26814
G1 X11.257 Y19.301 E0.26611
M204 S1000
G1 X11.604 Y18.894 F10800.000
M204 S800
G1 F900
G1 X11.604 Y11.787 E0.24058
G1 X18.712 Y11.787 E0.24058
G1 X18.712 Y18.894 E0.24058
G1 X11.664 Y18.894 E0.23855
M204 S1000
G1 X12.011 Y18.487 F10800.000
M204 S800
G1 F900
G1 X12.011 Y12.194 E0.21302
G1 X18.305 Y12.194 E0.21302
G1 X18.305 Y18.487 E0.21302
G1 X12.071 Y18.487 E0.21099
M204 S1000
;BEFORE_LAYER_CHANGE
G92 E0.0
;7.8


G1 Z7.800 F10800.000
;AFTER_LAYER_CHANGE
;7.8
G1 X10.383 Y20.115
M204 S800
G1 F900
G1 X10.383 Y10.565 E0.32326
G1 X19.933 Y10.565 E0.32326
G1 X19.933 Y20.115 E0.32326
G1 X10.443 Y20.115 E0.32123
M204 S1000
G1 X10.487 Y19.729 F10800.000
G1 X10.790 Y19.708
M204 S800
G1 F900
G1 X10.790 Y10.972 E0.29570
G1 X19.526 Y10.972 E0.29570
G1 X19.526 Y19.708 E0.29570
G1 X10.850 Y19.708 E0.29367
M204 S1000
G1 X11.197 Y19.301 F10800.000
M204 S800
G1 F900
G1 X11.197 Y11.379 E0.26814
G1 X19.119 Y11.379 E0.26814
G1 X19.119 Y19.301 E0.26814
G1 X11.257 Y19.301 E0.26611
M204 S1000
G1 X11.604 Y18.894 F10800.000
M204 S800
G1 F900
G1 X11.604 Y11.787 E0.24058
G1 X18.712 Y11.787 E0.24058
G1 X18.712 Y18.894 E0.24058
G1 X11.664 Y18.894 E0.23855
M204 S1000
G1 X12.011 Y18.487 F10800.000
M204 S800
G1 F900
G1 X12.011 Y12.194 E0.21302
G1 X18.305 Y12.194 E0.21302
G1 X18.305 Y18.487 E0.21302
G1 X12.071 Y18.487 E0.21099
M204 S1000
G1 X12.919 Y12.255 F10800.000
M204 S1250
G1 F900
G1 X12.256 Y12.918 E0.05682
G1 X12.256 Y13.510 E0.03583
G1 X13.328 Y12.438 E0.09180
G1 X13.919 Y12.438 E0.03583
G1 X12.256 Y14.101 E0.14247
G1 X12.256 Y14.693 E0.03583
G1 X14.511 Y12.438 E0.19314
G1 X15.102 Y12.438 E0.03583
G1 X12.256 Y15.285 E0.24381
G1 X12.256 Y15.876 E0.03583
G1 X15.694 Y12.438 E0.29448
G1 X16.286 Y12.438 E0.03583
G1 X12.256 Y16.468 E0.34515
G1 X12.256 Y17.059 E0.03583
G1 X16.877 Y12.438 E0.39581
G1 X17.469 Y12.438 E0.03583
G1 X12.256 Y17.651 E0.44648
G1 X12.256 Y18.243 E0.03583
G1 X18.060 Y12.438 E0.49715
G1 X18.060 Y13.029 E0.03582
G1 X12.847 Y18.243 E0.44649
G1 X13.439 Y18.243 E0.03583
G1 X18.060 Y13.621 E0.39582
G1 X18.060 Y14.213 E0.03583
G1 X14.030 Y18.243 E0.34516
G1 X14.622 Y18.243 E0.03583
G1 X18.060 Y14.804 E0.29449
G1 X18.060 Y15.396 E0.03583
G1 X15.214 Y18.243 E0.24382
G1 X15.805 Y18.243 E0.03583
G1 X18.060 Y15.987 E0.19315
G1 X18.060 Y16.579 E0.03583
G1 X16.397 Y18.243 E0.14248
G1 X16.988 Y18.243 E0.03583
G1 X18.060 Y17.171 E0.09181
G1 X18.060 Y17.762 E0.03583
G1 X17.397 Y18.426 E0.05683
M204 S1000
;BEFORE_LAYER_CHANGE
G92 E0.0
;8


G1 Z8.000 F10800.000
;AFTER_LAYER_CHANGE
;8
G1 X19.933 Y20.115
M204 S800
G1 F900
G1 X10.383 Y20.115 E0.32326
G1 X10.383 Y10.565 E0.32326
G1 X19.933 Y10.565 E0.32326
G1 X19.933 Y20.055 E0.32123
M204 S1000
G1 X19.547 Y20.012 F10800.000
G1 X19.526 Y19.708
M204 S800
G1 F900
G1 X10.790 Y19.708 E0.29570
G1 X10.790 Y10.972 E0.29570
G1 X19.526 Y10.972 E0.29570
G1 X19.526 Y19.648 E0.29367
M204 S1000
G1 X19.119 Y19.301 F10800.000
M204 S800
G1 F900
G1 X11.197 Y19.301 E0.26814
G1 X11.197 Y11.379 E0.26814
G1 X19.119 Y11.379 E0.26814
G1 X19.119 Y19.241 E0.26611
M204 S1000
G1 X18.712 Y18.894 F10800.000
M204 S800
G1 F900
G1 X11.604 Y18.894 E0.24058
G1 X11.604 Y11.787 E0.24058
G1 X18.712 Y11.787 E0.24058
G1 X18.712 Y18.834 E0.23855
M204 S1000
G1 X18.305 Y18.487 F10800.000
M204 S800
G1 F900
G1 X12.011 Y18.487 E0.21302
G1 X12.011 Y12.194 E0.21302
G1 X18.305 Y12.194 E0.21302
G1 X18.305 Y18.427 E0.21099
M204 S1000
;BEFORE_LAYER_CHANGE
G92 E0.0
;8.2


G1 Z8.200 F10800.000
;AFTER_LAYER_CHANGE
;8.2
G1 X19.933 Y20.115
M204 S800
G1 F900
G1 X10.383 Y20.115 E0.32326
G1 X10.383 Y10.565 E0.32326
G1 X19.933 Y10.565 E0.32326
G1 X19.933 Y20.055 E0.32123
M204 S1000
G1 X19.547 Y20.012 F10800.000
G1 X19.526 Y19.708
M204 S800
G1 F900
G1 X10.790 Y19.708 E0.29570
G1 X10.790 Y10.972 E0.29570
G1 X19.526 Y10.972 E0.29570
G1 X19.526 Y19.648 E0.29367
M204 S1000
G1 X19.119 Y19.301 F10800.000
M204 S800
G1 F900
G1 X11.197 Y19.301 E0.26814
G1 X11.197 Y11.379 E0.26814
G1 X19.119 Y11.379 E0.26814
G1 X19.119 Y19.241 E0.26611
M204 S1000
G1 X18.712 Y18.894 F10800.000
M204 S800
G1 F900
G1 X11.604 Y18.894 E0.24058
G1 X11.604 Y11.787 E0.24058
G1 X18.712 Y11.787 E0.24058
G1 X18.712 Y18.834 E0.23855
M204 S1000
G1 X18.305 Y18.487 F10800.000
M204 S800
G1 F900
G1 X12.011 Y18.487 E0.21302
G1 X12.011 Y12.194 E0.21302
G1 X18.305 Y12.194 E0.21302
G1 X18.305 Y18.427 E0.21099
M204 S1000
G1 X12.072 Y17.579 F10800.000
M204 S1250
G1 F900
G1 X12.736 Y18.243 E0.05682
G1 X13.328 Y18.243 E0.03583
G1 X12.256 Y17.171 E0.09180
G1 X12.256 Y16.579 E0.03583
G1 X13.919 Y18.243 E0.14247
G1 X14.511 Y18.243 E0.03583
G1 X12.256 Y15.988 E0.19314
G1 X12.256 Y15.396 E0.03583
G1 X15.102 Y18.243 E0.24381
G1 X15.694 Y18.243 E0.03583
G1 X12.256 Y14.804 E0.29448
G1 X12.256 Y14.213 E0.03583
G1 X16.286 Y18.243 E0.34515
G1 X16.877 Y18.243 E0.03583
G1 X12.256 Y13.621 E0.39581
G1 X12.256 Y13.030 E0.03583
G1 X17.469 Y18.243 E0.44648
G1 X18.060 Y18.243 E0.03583
G1 X12.256 Y12.438 E0.49715
G1 X12.847 Y12.438 E0.03582
G1 X18.060 Y17.651 E0.44649
G1 X18.060 Y17.060 E0.03583
G1 X13.439 Y12.438 E0.39582
G1 X14.030 Y12.438 E0.03583
G1 X18.060 Y16.468 E0.34516
G1 X18.060 Y15.876 E0.03583
G1 X14.622 Y12.438 E0.29449
G1 X15.214 Y12.438 E0.03583
G1 X18.060 Y15.285 E0.24382
G1 X18.060 Y14.693 E0.03583
G1 X15.805 Y12.438 E0.19315
G1 X16.397 Y12.438 E0.03583
G1 X18.060 Y14.102 E0.14248
G1 X18.060 Y13.510 E0.03583
G1 X16.988 Y12.438 E0.09181
G1 X17.580 Y12.438 E0.03583
G1 X18.244 Y13.101 E0.05683
M204 S1000
;BEFORE_LAYER_CHANGE
G92 E0.0
;8.4


G1 Z8.400 F10800.000
;AFTER_LAYER_CHANGE
;8.4
G1 X19.933 Y10.565
M204 S800
G1 F900
G1 X19.933 Y20.115 E0.32326
G1 X10.383 Y20.115 E0.32326
G1 X10.383 Y10.565 E0.32326
G1 X19.873 Y10.565 E0.32123
M204 S1000
G1 X19.830 Y10.952 F10800.000
G1 X19.526 Y10.972
M204 S800
G1 F900
G1 X19.526 Y19.708 E0.29570
G1 X10.790 Y19.708 E0.29570
G1 X10.790 Y10.972 E0.29570
G1 X19.466 Y10.972 E0.29367
M204 S1000
G1 X19.119 Y11.379 F10800.000
M204 S800
G1 F900
G1 X19.119 Y19.301 E0.26814
G1 X11.197 Y19.301 E0.26814
M73 Q80 S2
M73 P80 R2
G1 X11.197 Y11.379 E0.26814
G1 X19.059 Y11.379 E0.26611
M204 S1000
G1 X18.712 Y11.787 F10800.000
M204 S800
G1 F900
G1 X18.712 Y18.894 E0.24058
G1 X11.604 Y18.894 E0.24058
G1 X11.604 Y11.787 E0.24058
G1 X18.652 Y11.787 E0.23855
M204 S1000
G1 X18.305 Y12.194 F10800.000
M204 S800
G1 F900
G1 X18.305 Y18.487 E0.21302
G1 X12.011 Y18.487 E0.21302
G1 X12.011 Y12.194 E0.21302
G1 X18.245 Y12.194 E0.21099
M204 S1000
;BEFORE_LAYER_CHANGE
G92 E0.0
;8.6


G1 Z8.600 F10800.000
;AFTER_LAYER_CHANGE
;8.6
G1 X19.933 Y10.565
M204 S800
G1 F900
G1 X19.933 Y20.115 E0.32326
G1 X10.383 Y20.115 E0.32326
G1 X10.383 Y10.565 E0.32326
G1 X19.873 Y10.565 E0.32123
M204 S1000
G1 X19.830 Y10.952 F10800.000
G1 X19.526 Y10.972
M204 S800
G1 F900
G1 X19.526 Y19.708 E0.29570
G1 X10.790 Y19.708 E0.29570
G1 X10.790 Y10.972 E0.29570
G1 X19.466 Y10.972 E0.29367
M204 S1000
G1 X19.119 Y11.379 F10800.000
M204 S800
G1 F900
G1 X19.119 Y19.301 E0.26814
G1 X11.197 Y19.301 E0.26814
G1 X11.197 Y11.379 E0.26814
G1 X19.059 Y11.379 E0.26611
M204 S1000
G1 X18.712 Y11.787 F10800.000
M204 S800
G1 F900
G1 X18.712 Y18.894 E0.24058
G1 X11.604 Y18.894 E0.24058
G1 X11.604 Y11.787 E0.24058
G1 X18.652 Y11.787 E0.23855
M204 S1000
G1 X18.305 Y12.194 F10800.000
M204 S800
G1 F900
G1 X18.305 Y18.487 E0.21302
G1 X12.011 Y18.487 E0.21302
G1 X12.011 Y12.194 E0.21302
G1 X18.245 Y12.194 E0.21099
M204 S1000
G1 X17.397 Y18.426 F10800.000
M204 S1250
G1 F900
G1 X18.060 Y17.762 E0.05683
G1 X18.060 Y17.171 E0.03583
G1 X16.988 Y18.243 E0.09181
G1 X16.397 Y18.243 E0.03583
G1 X18.060 Y16.579 E0.14248
G1 X18.060 Y15.987 E0.03583
G1 X15.805 Y18.243 E0.19315
G1 X15.214 Y18.243 E0.03583
G1 X18.060 Y15.396 E0.24382
G1 X18.060 Y14.804 E0.03583
G1 X14.622 Y18.243 E0.29449
G1 X14.030 Y18.243 E0.03583
G1 X18.060 Y14.213 E0.34516
G1 X18.060 Y13.621 E0.03583
G1 X13.439 Y18.243 E0.39582
G1 X12.847 Y18.243 E0.03583
G1 X18.060 Y13.029 E0.44649
G1 X18.060 Y12.438 E0.03582
G1 X12.256 Y18.243 E0.49715
G1 X12.256 Y17.651 E0.03583
G1 X17.469 Y12.438 E0.44648
G1 X16.877 Y12.438 E0.03583
G1 X12.256 Y17.059 E0.39581
G1 X12.256 Y16.468 E0.03583
G1 X16.286 Y12.438 E0.34515
G1 X15.694 Y12.438 E0.03583
G1 X12.256 Y15.876 E0.29448
G1 X12.256 Y15.285 E0.03583
G1 X15.102 Y12.438 E0.24381
G1 X14.511 Y12.438 E0.03583
G1 X12.256 Y14.693 E0.19314
G1 X12.256 Y14.101 E0.03583
G1 X13.919 Y12.438 E0.14247
G1 X13.328 Y12.438 E0.03583
G1 X12.256 Y13.510 E0.09180
G1 X12.256 Y12.918 E0.03583
G1 X12.919 Y12.255 E0.05682
M204 S1000
;BEFORE_LAYER_CHANGE
G92 E0.0
;8.8


G1 Z8.800 F10800.000
;AFTER_LAYER_CHANGE
;8.8
G1 X10.383 Y10.565
M204 S800
G1 F900
G1 X19.933 Y10.565 E0.32326
G1 X19.933 Y20.115 E0.32326
G1 X10.383 Y20.115 E0.32326
G1 X10.383 Y10.625 E0.32123
M204 S1000
G1 X10.769 Y10.669 F10800.000
G1 X10.790 Y10.972
M204 S800
G1 F900
G1 X19.526 Y10.972 E0.29570
G1 X19.526 Y19.708 E0.29570
G1 X10.790 Y19.708 E0.29570
G1 X10.790 Y11.032 E0.29367
M204 S1000
G1 X11.197 Y11.379 F10800.000
M204 S800
G1 F900
G1 X19.119 Y11.379 E0.26814
G1 X19.119 Y19.301 E0.26814
G1 X11.197 Y19.301 E0.26814
G1 X11.197 Y11.439 E0.26611
M204 S1000
G1 X11.604 Y11.787 F10800.000
M204 S800
G1 F900
G1 X18.712 Y11.787 E0.24058
G1 X18.712 Y18.894 E0.24058
G1 X11.604 Y18.894 E0.24058
G1 X11.604 Y11.847 E0.23855
M204 S1000
G1 X12.011 Y12.194 F10800.000
M204 S800
G1 F900
G1 X18.305 Y12.194 E0.21302
G1 X18.305 Y18.487 E0.21302
G1 X12.011 Y18.487 E0.21302
G1 X12.011 Y12.254 E0.21099
M204 S1000
G1 X17.397 Y18.426 F10800.000
M204 S1250
G1 F900
G1 X18.060 Y17.762 E0.03177
G1 X18.060 Y17.171 E0.02003
G1 X16.988 Y18.243 E0.05132
G1 X16.397 Y18.243 E0.02003
G1 X18.060 Y16.579 E0.07964
G1 X18.060 Y15.987 E0.02003
G1 X15.805 Y18.243 E0.10796
G1 X15.214 Y18.243 E0.02003
G1 X18.060 Y15.396 E0.13628
G1 X18.060 Y14.804 E0.02003
G1 X14.622 Y18.243 E0.16460
G1 X14.030 Y18.243 E0.02003
G1 X18.060 Y14.213 E0.19292
G1 X18.060 Y13.621 E0.02003
G1 X13.439 Y18.243 E0.22124
G1 X12.847 Y18.243 E0.02003
G1 X18.060 Y13.029 E0.24956
G1 X18.060 Y12.438 E0.02002
G1 X12.256 Y18.243 E0.27787
G1 X12.256 Y17.651 E0.02003
G1 X17.469 Y12.438 E0.24955
G1 X16.877 Y12.438 E0.02003
G1 X12.256 Y17.059 E0.22123
G1 X12.256 Y16.468 E0.02003
G1 X16.286 Y12.438 E0.19291
G1 X15.694 Y12.438 E0.02003
G1 X12.256 Y15.876 E0.16459
G1 X12.256 Y15.285 E0.02003
G1 X15.102 Y12.438 E0.13627
G1 X14.511 Y12.438 E0.02003
G1 X12.256 Y14.693 E0.10795
G1 X12.256 Y14.101 E0.02003
G1 X13.919 Y12.438 E0.07963
G1 X13.328 Y12.438 E0.02003
G1 X12.256 Y13.510 E0.05131
G1 X12.256 Y12.918 E0.02003
G1 X12.919 Y12.255 E0.03176
M204 S1000
;BEFORE_LAYER_CHANGE
G92 E0.0
;9


G1 Z9.000 F10800.000
;AFTER_LAYER_CHANGE
;9
G1 X10.383 Y10.565
M204 S800
G1 F900
G1 X19.933 Y10.565 E0.32326
G1 X19.933 Y20.115 E0.32326
G1 X10.383 Y20.115 E0.32326
G1 X10.383 Y10.625 E0.32123
M204 S1000
G1 X10.769 Y10.669 F10800.000
G1 X10.790 Y10.972
M204 S800
G1 F900
G1 X19.526 Y10.972 E0.29570
G1 X19.526 Y19.708 E0.29570
G1 X10.790 Y19.708 E0.29570
G1 X10.790 Y11.032 E0.29367
M204 S1000
G1 X11.197 Y11.379 F10800.000
M204 S800
G1 F900
G1 X19.119 Y11.379 E0.26814
G1 X19.119 Y19.301 E0.26814
G1 X11.197 Y19.301 E0.26814
G1 X11.197 Y11.439 E0.26611
M204 S1000
G1 X11.604 Y11.787 F10800.000
M204 S800
G1 F900
G1 X18.712 Y11.787 E0.24058
G1 X18.712 Y18.894 E0.24058
G1 X11.604 Y18.894 E0.24058
G1 X11.604 Y11.847 E0.23855
M204 S1000
G1 X12.011 Y12.194 F10800.000
M204 S800
G1 F900
G1 X18.305 Y12.194 E0.21302
G1 X18.305 Y18.487 E0.21302
G1 X12.011 Y18.487 E0.21302
G1 X12.011 Y12.254 E0.21099
M204 S1000
G1 X18.244 Y13.101 F10800.000
M204 S1250
G1 F900
G1 X17.580 Y12.438 E0.03264
G1 X16.988 Y12.438 E0.02058
G1 X18.060 Y13.510 E0.05274
G1 X18.060 Y14.102 E0.02058
G1 X16.397 Y12.438 E0.08184
G1 X15.805 Y12.438 E0.02058
G1 X18.060 Y14.693 E0.11094
G1 X18.060 Y15.285 E0.02058
G1 X15.214 Y12.438 E0.14005
G1 X14.622 Y12.438 E0.02058
G1 X18.060 Y15.876 E0.16915
G1 X18.060 Y16.468 E0.02058
G1 X14.030 Y12.438 E0.19825
G1 X13.439 Y12.438 E0.02058
G1 X18.060 Y17.060 E0.22736
G1 X18.060 Y17.651 E0.02058
G1 X12.847 Y12.438 E0.25646
G1 X12.256 Y12.438 E0.02058
G1 X18.060 Y18.243 E0.28556
G1 X17.469 Y18.243 E0.02058
G1 X12.256 Y13.030 E0.25645
G1 X12.256 Y13.621 E0.02058
G1 X16.877 Y18.243 E0.22735
G1 X16.286 Y18.243 E0.02058
G1 X12.256 Y14.213 E0.19825
G1 X12.256 Y14.804 E0.02058
G1 X15.694 Y18.243 E0.16914
G1 X15.102 Y18.243 E0.02058
G1 X12.256 Y15.396 E0.14004
G1 X12.256 Y15.988 E0.02058
G1 X14.511 Y18.243 E0.11094
G1 X13.919 Y18.243 E0.02058
G1 X12.256 Y16.579 E0.08183
G1 X12.256 Y17.171 E0.02058
G1 X13.328 Y18.243 E0.05273
G1 X12.736 Y18.243 E0.02058
G1 X12.072 Y17.579 E0.03264
M204 S1000
;BEFORE_LAYER_CHANGE
G92 E0.0
;9.2


G1 Z9.200 F10800.000
;AFTER_LAYER_CHANGE
;9.2
G1 X10.383 Y20.115
M204 S800
G1 F900
G1 X10.383 Y10.565 E0.32326
G1 X19.933 Y10.565 E0.32326
G1 X19.933 Y20.115 E0.32326
G1 X10.443 Y20.115 E0.32123
M204 S1000
G1 X10.487 Y19.729 F10800.000
G1 X10.790 Y19.708
M204 S800
G1 F900
G1 X10.790 Y10.972 E0.29570
G1 X19.526 Y10.972 E0.29570
M73 Q88 S1
M73 P88 R1
G1 X19.526 Y19.708 E0.29570
G1 X10.850 Y19.708 E0.29367
M204 S1000
G1 X11.197 Y19.301 F10800.000
M204 S800
G1 F900
G1 X11.197 Y11.379 E0.26814
G1 X19.119 Y11.379 E0.26814
G1 X19.119 Y19.301 E0.26814
G1 X11.257 Y19.301 E0.26611
M204 S1000
G1 X11.604 Y18.894 F10800.000
M204 S800
G1 F900
G1 X11.604 Y11.787 E0.24058
G1 X18.712 Y11.787 E0.24058
G1 X18.712 Y18.894 E0.24058
G1 X11.664 Y18.894 E0.23855
M204 S1000
G1 X12.011 Y18.487 F10800.000
M204 S800
G1 F900
G1 X12.011 Y12.194 E0.21302
G1 X18.305 Y12.194 E0.21302
G1 X18.305 Y18.487 E0.21302
G1 X12.071 Y18.487 E0.21099
M204 S1000
G1 X12.919 Y12.255 F10800.000
M204 S1250
G1 F900
G1 X12.256 Y12.918 E0.03264
G1 X12.256 Y13.510 E0.02058
G1 X13.328 Y12.438 E0.05273
G1 X13.919 Y12.438 E0.02058
G1 X12.256 Y14.101 E0.08183
G1 X12.256 Y14.693 E0.02058
G1 X14.511 Y12.438 E0.11094
G1 X15.102 Y12.438 E0.02058
G1 X12.256 Y15.285 E0.14004
G1 X12.256 Y15.876 E0.02058
G1 X15.694 Y12.438 E0.16914
G1 X16.286 Y12.438 E0.02058
G1 X12.256 Y16.468 E0.19825
G1 X12.256 Y17.059 E0.02058
G1 X16.877 Y12.438 E0.22735
G1 X17.469 Y12.438 E0.02058
G1 X12.256 Y17.651 E0.25645
G1 X12.256 Y18.243 E0.02058
G1 X18.060 Y12.438 E0.28556
G1 X18.060 Y13.029 E0.02058
G1 X12.847 Y18.243 E0.25646
G1 X13.439 Y18.243 E0.02058
G1 X18.060 Y13.621 E0.22736
G1 X18.060 Y14.213 E0.02058
G1 X14.030 Y18.243 E0.19825
G1 X14.622 Y18.243 E0.02058
G1 X18.060 Y14.804 E0.16915
G1 X18.060 Y15.396 E0.02058
G1 X15.214 Y18.243 E0.14005
G1 X15.805 Y18.243 E0.02058
G1 X18.060 Y15.987 E0.11094
G1 X18.060 Y16.579 E0.02058
G1 X16.397 Y18.243 E0.08184
G1 X16.988 Y18.243 E0.02058
G1 X18.060 Y17.171 E0.05274
G1 X18.060 Y17.762 E0.02058
G1 X17.397 Y18.426 E0.03264
M204 S1000
;BEFORE_LAYER_CHANGE
G92 E0.0
;9.4


G1 Z9.400 F10800.000
;AFTER_LAYER_CHANGE
;9.4
G1 X19.933 Y20.115
M204 S800
G1 F900
G1 X10.383 Y20.115 E0.32326
G1 X10.383 Y10.565 E0.32326
G1 X19.933 Y10.565 E0.32326
G1 X19.933 Y20.055 E0.32123
M204 S1000
G1 X19.547 Y20.012 F10800.000
G1 X19.526 Y19.708
M204 S800
G1 F900
G1 X10.790 Y19.708 E0.29570
G1 X10.790 Y10.972 E0.29570
G1 X19.526 Y10.972 E0.29570
G1 X19.526 Y19.648 E0.29367
M204 S1000
G1 X19.119 Y19.301 F10800.000
M204 S800
G1 F900
G1 X11.197 Y19.301 E0.26814
G1 X11.197 Y11.379 E0.26814
G1 X19.119 Y11.379 E0.26814
G1 X19.119 Y19.241 E0.26611
M204 S1000
G1 X18.712 Y18.894 F10800.000
M204 S800
G1 F900
G1 X11.604 Y18.894 E0.24058
G1 X11.604 Y11.787 E0.24058
G1 X18.712 Y11.787 E0.24058
G1 X18.712 Y18.834 E0.23855
M204 S1000
G1 X18.305 Y18.487 F10800.000
M204 S800
G1 F900
G1 X12.011 Y18.487 E0.21302
G1 X12.011 Y12.194 E0.21302
G1 X18.305 Y12.194 E0.21302
G1 X18.305 Y18.427 E0.21099
M204 S1000
G1 X12.072 Y17.579 F10800.000
M204 S1250
G1 F900
G1 X12.736 Y18.243 E0.03264
G1 X13.328 Y18.243 E0.02058
G1 X12.256 Y17.171 E0.05273
G1 X12.256 Y16.579 E0.02058
G1 X13.919 Y18.243 E0.08183
G1 X14.511 Y18.243 E0.02058
G1 X12.256 Y15.988 E0.11094
G1 X12.256 Y15.396 E0.02058
G1 X15.102 Y18.243 E0.14004
G1 X15.694 Y18.243 E0.02058
G1 X12.256 Y14.804 E0.16914
G1 X12.256 Y14.213 E0.02058
G1 X16.286 Y18.243 E0.19825
G1 X16.877 Y18.243 E0.02058
G1 X12.256 Y13.621 E0.22735
G1 X12.256 Y13.030 E0.02058
G1 X17.469 Y18.243 E0.25645
G1 X18.060 Y18.243 E0.02058
G1 X12.256 Y12.438 E0.28556
G1 X12.847 Y12.438 E0.02058
G1 X18.060 Y17.651 E0.25646
G1 X18.060 Y17.060 E0.02058
G1 X13.439 Y12.438 E0.22736
G1 X14.030 Y12.438 E0.02058
G1 X18.060 Y16.468 E0.19825
G1 X18.060 Y15.876 E0.02058
G1 X14.622 Y12.438 E0.16915
G1 X15.214 Y12.438 E0.02058
G1 X18.060 Y15.285 E0.14005
G1 X18.060 Y14.693 E0.02058
G1 X15.805 Y12.438 E0.11094
G1 X16.397 Y12.438 E0.02058
G1 X18.060 Y14.102 E0.08184
G1 X18.060 Y13.510 E0.02058
G1 X16.988 Y12.438 E0.05274
G1 X17.580 Y12.438 E0.02058
G1 X18.244 Y13.101 E0.03264
M204 S1000
;BEFORE_LAYER_CHANGE
G92 E0.0
;9.6


G1 Z9.600 F10800.000
;AFTER_LAYER_CHANGE
;9.6
G1 X19.933 Y10.565
M204 S800
G1 F900
G1 X19.933 Y20.115 E0.32326
G1 X10.383 Y20.115 E0.32326
G1 X10.383 Y10.565 E0.32326
G1 X19.873 Y10.565 E0.32123
M204 S1000
G1 X19.830 Y10.952 F10800.000
G1 X19.526 Y10.972
M204 S800
G1 F900
G1 X19.526 Y19.708 E0.29570
G1 X10.790 Y19.708 E0.29570
G1 X10.790 Y10.972 E0.29570
G1 X19.466 Y10.972 E0.29367
M204 S1000
G1 X19.119 Y11.379 F10800.000
M204 S800
G1 F900
G1 X19.119 Y19.301 E0.26814
G1 X11.197 Y19.301 E0.26814
G1 X11.197 Y11.379 E0.26814
G1 X19.059 Y11.379 E0.26611
M204 S1000
G1 X18.712 Y11.787 F10800.000
M204 S800
G1 F900
G1 X18.712 Y18.894 E0.24058
G1 X11.604 Y18.894 E0.24058
G1 X11.604 Y11.787 E0.24058
G1 X18.652 Y11.787 E0.23855
M204 S1000
G1 X18.305 Y12.194 F10800.000
M204 S800
G1 F900
G1 X18.305 Y18.487 E0.21302
G1 X12.011 Y18.487 E0.21302
G1 X12.011 Y12.194 E0.21302
G1 X18.245 Y12.194 E0.21099
M204 S1000
G1 X17.397 Y18.426 F10800.000
M204 S1250
G1 F900
G1 X18.060 Y17.762 E0.03264
G1 X18.060 Y17.171 E0.02058
G1 X16.988 Y18.243 E0.05274
G1 X16.397 Y18.243 E0.02058
G1 X18.060 Y16.579 E0.08184
G1 X18.060 Y15.987 E0.02058
G1 X15.805 Y18.243 E0.11094
G1 X15.214 Y18.243 E0.02058
G1 X18.060 Y15.396 E0.14005
G1 X18.060 Y14.804 E0.02058
G1 X14.622 Y18.243 E0.16915
G1 X14.030 Y18.243 E0.02058
G1 X18.060 Y14.213 E0.19825
G1 X18.060 Y13.621 E0.02058
G1 X13.439 Y18.243 E0.22736
G1 X12.847 Y18.243 E0.02058
G1 X18.060 Y13.029 E0.25646
G1 X18.060 Y12.438 E0.02058
G1 X12.256 Y18.243 E0.28556
G1 X12.256 Y17.651 E0.02058
G1 X17.469 Y12.438 E0.25645
G1 X16.877 Y12.438 E0.02058
G1 X12.256 Y17.059 E0.22735
G1 X12.256 Y16.468 E0.02058
G1 X16.286 Y12.438 E0.19825
G1 X15.694 Y12.438 E0.02058
G1 X12.256 Y15.876 E0.16914
G1 X12.256 Y15.285 E0.02058
G1 X15.102 Y12.438 E0.14004
G1 X14.511 Y12.438 E0.02058
G1 X12.256 Y14.693 E0.11094
G1 X12.256 Y14.101 E0.02058
G1 X13.919 Y12.438 E0.08183
G1 X13.328 Y12.438 E0.02058
G1 X12.256 Y13.510 E0.05273
G1 X12.256 Y12.918 E0.02058
G1 X12.919 Y12.255 E0.03264
M204 S1000
;BEFORE_LAYER_CHANGE
G92 E0.0
;9.8


G1 Z9.800 F10800.000
;AFTER_LAYER_CHANGE
;9.8
G1 X10.383 Y10.565
M204 S800
G1 F900
G1 X19.933 Y10.565 E0.32326
G1 X19.933 Y20.115 E0.32326
G1 X10.383 Y20.115 E0.32326
G1 X10.383 Y10.625 E0.32123
M204 S1000
G1 X10.769 Y10.669 F10800.000
G1 X10.790 Y10.972
M204 S800
G1 F900
G1 X19.526 Y10.972 E0.29570
G1 X19.526 Y19.708 E0.29570
G1 X10.790 Y19.708 E0.29570
G1 X10.790 Y11.032 E0.29367
M204 S1000
G1 X11.197 Y11.379 F10800.000
M204 S800
G1 F900
G1 X19.119 Y11.379 E0.26814
G1 X19.119 Y19.301 E0.26814
G1 X11.197 Y19.301 E0.26814
G1 X11.197 Y11.439 E0.26611
M204 S1000
G1 X11.604 Y11.787 F10800.000
M204 S800
G1 F900
G1 X18.712 Y11.787 E0.24058
G1 X18.712 Y18.894 E0.24058
G1 X11.604 Y18.894 E0.24058
G1 X11.604 Y11.847 E0.23855
M204 S1000
G1 X12.011 Y12.194 F10800.000
M204 S800
G1 F900
G1 X18.305 Y12.194 E0.21302
G1 X18.305 Y18.487 E0.21302
G1 X12.011 Y18.487 E0.21302
G1 X12.011 Y12.254 E0.21099
M204 S1000
G1 X18.244 Y13.101 F10800.000
M204 S1250
G1 F900
G1 X17.580 Y12.438 E0.03264
G1 X16.988 Y12.438 E0.02058
G1 X18.060 Y13.510 E0.05274
G1 X18.060 Y14.102 E0.02058
G1 X16.397 Y12.438 E0.08184
G1 X15.805 Y12.438 E0.02058
G1 X18.060 Y14.693 E0.11094
G1 X18.060 Y15.285 E0.02058
G1 X15.214 Y12.438 E0.14005
G1 X14.622 Y12.438 E0.02058
G1 X18.060 Y15.876 E0.16915
M73 Q96 S0
M73 P96 R0
G1 X18.060 Y16.468 E0.02058
G1 X14.030 Y12.438 E0.19825
G1 X13.439 Y12.438 E0.02058
G1 X18.060 Y17.060 E0.22736
G1 X18.060 Y17.651 E0.02058
G1 X12.847 Y12.438 E0.25646
G1 X12.256 Y12.438 E0.02058
G1 X18.060 Y18.243 E0.28556
G1 X17.469 Y18.243 E0.02058
G1 X12.256 Y13.030 E0.25645
G1 X12.256 Y13.621 E0.02058
G1 X16.877 Y18.243 E0.22735
G1 X16.286 Y18.243 E0.02058
G1 X12.256 Y14.213 E0.19825
G1 X12.256 Y14.804 E0.02058
G1 X15.694 Y18.243 E0.16914
G1 X15.102 Y18.243 E0.02058
G1 X12.256 Y15.396 E0.14004
G1 X12.256 Y15.988 E0.02058
G1 X14.511 Y18.243 E0.11094
G1 X13.919 Y18.243 E0.02058
G1 X12.256 Y16.579 E0.08183
G1 X12.256 Y17.171 E0.02058
G1 X13.328 Y18.243 E0.05273
G1 X12.736 Y18.243 E0.02058
G1 X12.072 Y17.579 E0.03264
M204 S1000
;BEFORE_LAYER_CHANGE
G92 E0.0
;10


G1 Z10.000 F10800.000
;AFTER_LAYER_CHANGE
;10
G1 X10.383 Y20.115
M204 S800
G1 F900
G1 X10.383 Y10.565 E0.32326
G1 X19.933 Y10.565 E0.32326
G1 X19.933 Y20.115 E0.32326
G1 X10.443 Y20.115 E0.32123
M204 S1000
G1 X10.487 Y19.729 F10800.000
G1 X10.790 Y19.708
M204 S800
G1 F900
G1 X10.790 Y10.972 E0.29570
G1 X19.526 Y10.972 E0.29570
G1 X19.526 Y19.708 E0.29570
G1 X10.850 Y19.708 E0.29367
M204 S1000
G1 X11.197 Y19.301 F10800.000
M204 S800
G1 F900
G1 X11.197 Y11.379 E0.26814
G1 X19.119 Y11.379 E0.26814
G1 X19.119 Y19.301 E0.26814
G1 X11.257 Y19.301 E0.26611
M204 S1000
G1 X11.604 Y18.894 F10800.000
M204 S800
G1 F900
G1 X11.604 Y11.787 E0.24058
G1 X18.712 Y11.787 E0.24058
G1 X18.712 Y18.894 E0.24058
G1 X11.664 Y18.894 E0.23855
M204 S1000
G1 X12.011 Y18.487 F10800.000
M204 S800
G1 F900
G1 X12.011 Y12.194 E0.21302
G1 X18.305 Y12.194 E0.21302
G1 X18.305 Y18.487 E0.21302
G1 X12.071 Y18.487 E0.21099
M204 S1000
G1 X12.070 Y12.993 F10800.000
M204 S1250
G1 F900
G1 X12.650 Y12.413 E0.02497
G1 X13.168 Y12.413 E0.01576
G1 X12.231 Y13.350 E0.04033
G1 X12.231 Y13.868 E0.01576
G1 X13.685 Y12.413 E0.06262
G1 X14.203 Y12.413 E0.01576
G1 X12.231 Y14.385 E0.08490
G1 X12.231 Y14.903 E0.01576
G1 X14.721 Y12.413 E0.10718
G1 X15.238 Y12.413 E0.01576
G1 X12.231 Y15.421 E0.12946
G1 X12.231 Y15.938 E0.01576
G1 X15.756 Y12.413 E0.15174
G1 X16.274 Y12.413 E0.01576
G1 X12.231 Y16.456 E0.17403
G1 X12.231 Y16.974 E0.01576
G1 X16.791 Y12.413 E0.19631
G1 X17.309 Y12.413 E0.01576
G1 X12.231 Y17.491 E0.21859
G1 X12.231 Y18.009 E0.01576
G1 X17.827 Y12.413 E0.24087
G1 X18.086 Y12.413 E0.00788
G1 X18.086 Y12.672 E0.00788
G1 X12.489 Y18.268 E0.24088
G1 X13.007 Y18.268 E0.01576
G1 X18.086 Y13.189 E0.21860
G1 X18.086 Y13.707 E0.01576
G1 X13.525 Y18.268 E0.19631
G1 X14.042 Y18.268 E0.01576
G1 X18.086 Y14.225 E0.17403
G1 X18.086 Y14.742 E0.01576
G1 X14.560 Y18.268 E0.15175
G1 X15.078 Y18.268 E0.01576
G1 X18.086 Y15.260 E0.12947
G1 X18.086 Y15.778 E0.01576
G1 X15.595 Y18.268 E0.10719
G1 X16.113 Y18.268 E0.01576
G1 X18.086 Y16.295 E0.08490
G1 X18.086 Y16.813 E0.01576
G1 X16.631 Y18.268 E0.06262
G1 X17.148 Y18.268 E0.01576
G1 X18.086 Y17.331 E0.04034
G1 X18.086 Y17.848 E0.01576
G1 X17.505 Y18.428 E0.02497
M204 S1000
M107
; Filament-specific end gcode
G4 ; wait
M221 S100
M104 S0 ; turn off temperature
M140 S0 ; turn off heatbed
M107 ; turn off fan
G1 Z40 ; Move print head up
G1 X0 Y200 F3000 ; home X axis
M84 ; disable motors
M73 P100 R0
M73 Q100 S0
; filament used [mm] = 411.5
; filament used [cm3] = 1.0
; filament used [g] = 1.2
; filament cost = 0.0

; total filament used [g] = 1.2
; total filament cost = 0.0
; estimated printing time (normal mode) = 12m 35s
; estimated printing time (silent mode) = 12m 35s

; avoid_crossing_perimeters = 0
; bed_custom_model = 
; bed_custom_texture = 
; bed_shape = 0x0,250x0,250x210,0x210
; bed_temperature = 75
; before_layer_gcode = ;BEFORE_LAYER_CHANGE\nG92 E0.0\n;[layer_z]\n\n
; between_objects_gcode = 
; bottom_fill_pattern = rectilinear
; bottom_solid_layers = 5
; bottom_solid_min_thickness = 0
; bridge_acceleration = 1000
; bridge_angle = 0
; bridge_fan_speed = 100
; bridge_flow_ratio = 0.95
; bridge_speed = 30
; brim_width = 0
; clip_multipart_objects = 1
; compatible_printers_condition_cummulative = "printer_notes=~/.*PRINTER_VENDOR_PRUSA3D.*/ and printer_notes=~/.*PRINTER_MODEL_MK3.*/ and nozzle_diameter[0]==0.4";"! (printer_notes=~/.*PRINTER_VENDOR_PRUSA3D.*/ and printer_notes=~/.*PRINTER_MODEL_MK(2.5|3).*/ and single_extruder_multi_material)"
; complete_objects = 0
; cooling = 1
; cooling_tube_length = 5
; cooling_tube_retraction = 91.5
; default_acceleration = 1000
; default_filament_profile = "Prusament PLA"
; default_print_profile = 0.15mm QUALITY MK3
; deretract_speed = 0
; disable_fan_first_layers = 1
; dont_support_bridges = 1
; draft_shield = 0
; duplicate_distance = 6
; elefant_foot_compensation = 0
; end_filament_gcode = "; Filament-specific end gcode"
; end_gcode = G4 ; wait\nM221 S100\nM104 S0 ; turn off temperature\nM140 S0 ; turn off heatbed\nM107 ; turn off fan\n{if layer_z < max_print_height}G1 Z{z_offset+min(layer_z+30, max_print_height)}{endif} ; Move print head up\nG1 X0 Y200 F3000 ; home X axis\nM84 ; disable motors
; ensure_vertical_shell_thickness = 1
; external_perimeter_extrusion_width = 0.45
; external_perimeter_speed = 35
; external_perimeters_first = 1
; extra_loading_move = -2
; extra_perimeters = 0
; extruder_clearance_height = 25
; extruder_clearance_radius = 45
; extruder_colour = ""
; extruder_offset = 0x0
; extrusion_axis = E
; extrusion_multiplier = 1
; extrusion_width = 0.45
; fan_always_on = 1
; fan_below_layer_time = 100
; filament_colour = #FF8000
; filament_cooling_final_speed = 3.4
; filament_cooling_initial_speed = 2.2
; filament_cooling_moves = 4
; filament_cost = 24.99
; filament_density = 1.24
; filament_diameter = 1.75
; filament_load_time = 0
; filament_loading_speed = 28
; filament_loading_speed_start = 3
; filament_max_volumetric_speed = 12.5
; filament_minimal_purge_on_wipe_tower = 15
; filament_notes = "Affordable filament for everyday printing in premium quality manufactured in-house by Josef Prusa"
; filament_ramming_parameters = "120 100 6.6 6.8 7.2 7.6 7.9 8.2 8.7 9.4 9.9 10.0| 0.05 6.6 0.45 6.8 0.95 7.8 1.45 8.3 1.95 9.7 2.45 10 2.95 7.6 3.45 7.6 3.95 7.6 4.45 7.6 4.95 7.6"
; filament_settings_id = PLA
; filament_soluble = 0
; filament_toolchange_delay = 0
; filament_type = PLA
; filament_unload_time = 0
; filament_unloading_speed = 90
; filament_unloading_speed_start = 100
; filament_vendor = (Unknown)
; fill_angle = 45
; fill_density = 100%
; fill_pattern = rectilinear
; first_layer_acceleration = 1000
; first_layer_bed_temperature = 75
; first_layer_extrusion_width = 0.42
; first_layer_height = 0.2
; first_layer_speed = 20
; first_layer_temperature = 215
; gap_fill_speed = 40
; gcode_comments = 0
; gcode_flavor = marlin
; gcode_label_objects = 0
; high_current_on_filament_swap = 0
; host_type = octoprint
; infill_acceleration = 1250
; infill_every_layers = 2
; infill_extruder = 1
; infill_extrusion_width = 0.45
; infill_first = 0
; infill_only_where_needed = 0
; infill_overlap = 40%
; infill_speed = 200
; inherits_cummulative = "0.20mm SPEED MK3";"Prusament PLA";"Original Prusa i3 MK3S"
; interface_shells = 0
; layer_gcode = ;AFTER_LAYER_CHANGE\n;[layer_z]
; layer_height = 0.2
; machine_max_acceleration_e = 5000,5000
; machine_max_acceleration_extruding = 1250,1250
; machine_max_acceleration_retracting = 1250,1250
; machine_max_acceleration_x = 1000,960
; machine_max_acceleration_y = 1000,960
; machine_max_acceleration_z = 1000,1000
; machine_max_feedrate_e = 120,120
; machine_max_feedrate_x = 200,100
; machine_max_feedrate_y = 200,100
; machine_max_feedrate_z = 12,12
; machine_max_jerk_e = 1.5,1.5
; machine_max_jerk_x = 8,8
; machine_max_jerk_y = 8,8
; machine_max_jerk_z = 0.4,0.4
; machine_min_extruding_rate = 0,0
; machine_min_travel_rate = 0,0
; max_fan_speed = 100
; max_layer_height = 0.25
; max_print_height = 210
; max_print_speed = 200
; max_volumetric_speed = 0
; min_fan_speed = 100
; min_layer_height = 0.07
; min_print_speed = 15
; min_skirt_length = 4
; notes = 
; nozzle_diameter = 0.4
; only_retract_when_crossing_perimeters = 0
; ooze_prevention = 0
; output_filename_format = {input_filename_base}_{total_weight}_{print_time}.gcode
; overhangs = 1
; parking_pos_retraction = 92
; perimeter_acceleration = 800
; perimeter_extruder = 1
; perimeter_extrusion_width = 0.45
; perimeter_speed = 60
; perimeters = 5
; post_process = 
; print_settings_id = 0.20mm SOLIDBOYS
; printer_model = MK3S
; printer_notes = Don't remove the following keywords! These keywords are used in the "compatible printer" condition of the print and filament profiles to link the particular print and filament profiles to this printer profile.\nPRINTER_VENDOR_PRUSA3D\nPRINTER_MODEL_MK3\n
; printer_settings_id = Original Prusa i3 MK3S - NoIntro
; printer_technology = FFF
; printer_variant = 0.4
; printer_vendor = 
; raft_layers = 0
; remaining_times = 1
; resolution = 0
; retract_before_travel = 1
; retract_before_wipe = 0%
; retract_layer_change = 1
; retract_length = 0
; retract_length_toolchange = 4
; retract_lift = 0.6
; retract_lift_above = 0
; retract_lift_below = 209
; retract_restart_extra = 0
; retract_restart_extra_toolchange = 0
; retract_speed = 35
; seam_position = nearest
; serial_port = 
; serial_speed = 250000
; silent_mode = 1
; single_extruder_multi_material = 0
; single_extruder_multi_material_priming = 0
; skirt_distance = 2
; skirt_height = 3
; skirts = 0
; slice_closing_radius = 0.049
; slowdown_below_layer_time = 20
; small_perimeter_speed = 25
; solid_infill_below_area = 0
; solid_infill_every_layers = 0
; solid_infill_extruder = 1
; solid_infill_extrusion_width = 0.45
; solid_infill_speed = 200
; spiral_vase = 0
; standby_temperature_delta = -5
; start_filament_gcode = "M900 K{if printer_notes=~/.*PRINTER_MODEL_MINI.*/ and nozzle_diameter[0]==0.6}0.12{elsif printer_notes=~/.*PRINTER_MODEL_MINI.*/}0.2{elsif printer_notes=~/.*PRINTER_HAS_BOWDEN.*/}200{elsif nozzle_diameter[0]==0.6}18{else}30{endif} ; Filament gcode"
; start_gcode = M862.3 P "[printer_model]" ; printer model check\nM862.1 P[nozzle_diameter] ; nozzle diameter check\nM115 U3.8.1 ; tell printer latest fw version\nG90 ; use absolute coordinates\nM83 ; extruder relative mode\nM104 S[first_layer_temperature] ; set extruder temp\nM140 S[first_layer_bed_temperature] ; set bed temp\nM190 S[first_layer_bed_temperature] ; wait for bed temp\nM109 S[first_layer_temperature] ; wait for extruder temp\nG28 W ; home all without mesh bed level\nG80 ; mesh bed leveling\nG1 Y-3.0 F1000.0 ; go outside print area\nG92 E0.0\nG1 X60.0 E9.0 F1000.0 ; intro line\nG1 X100.0 E12.5 F1000.0 ; intro line\nG92 E0.0\nM221 S{if layer_height<0.075}100{else}95{endif}
; support_material = 1
; support_material_angle = 0
; support_material_auto = 1
; support_material_buildplate_only = 0
; support_material_contact_distance = 0.1
; support_material_enforce_layers = 0
; support_material_extruder = 0
; support_material_extrusion_width = 0.35
; support_material_interface_contact_loops = 0
; support_material_interface_extruder = 0
; support_material_interface_layers = 2
; support_material_interface_spacing = 0.2
; support_material_interface_speed = 100%
; support_material_pattern = honeycomb
; support_material_spacing = 2
; support_material_speed = 50
; support_material_synchronize_layers = 0
; support_material_threshold = 10
; support_material_with_sheath = 0
; support_material_xy_spacing = 50%
; temperature = 210
; thin_walls = 0
; threads = 12
; thumbnails = 
; toolchange_gcode = 
; top_fill_pattern = rectilinear
; top_infill_extrusion_width = 0.4
; top_solid_infill_speed = 50
; top_solid_layers = 6
; top_solid_min_thickness = 0
; travel_speed = 180
; use_firmware_retraction = 0
; use_relative_e_distances = 1
; use_volumetric_e = 0
; variable_layer_height = 1
; wipe = 1
; wipe_into_infill = 0
; wipe_into_objects = 0
; wipe_tower = 1
; wipe_tower_bridging = 10
; wipe_tower_no_sparse_layers = 0
; wipe_tower_rotation_angle = 0
; wipe_tower_width = 60
; wipe_tower_x = 170
; wipe_tower_y = 125
; wiping_volumes_extruders = 70,70
; wiping_volumes_matrix = 0
; xy_size_compensation = 0
; z_offset = 0
