G04 EAGLE Gerber RS-274X export*
G75*
%MOMM*%
%FSLAX34Y34*%
%LPD*%
%INCopper Layer 2*%
%IPPOS*%
%AMOC8*
5,1,8,0,0,1.08239X$1,22.5*%
G01*
%ADD10C,1.800000*%
%ADD11C,4.266000*%
%ADD12C,1.524000*%
%ADD13C,0.706400*%
%ADD14C,0.152400*%
%ADD15C,0.806400*%


D10*
X146500Y40000D03*
X183500Y40000D03*
X216500Y40000D03*
X253500Y40000D03*
D11*
X355000Y45000D03*
X45000Y355000D03*
X45000Y45000D03*
D12*
X232950Y131572D03*
X232950Y160528D03*
X19050Y131572D03*
X19050Y160528D03*
X19050Y107950D03*
X232950Y107950D03*
X19050Y82550D03*
D13*
X76169Y299056D03*
D14*
X76169Y307859D01*
D13*
X260588Y336000D03*
D14*
X249590Y330182D02*
X246820Y332952D01*
X249590Y330182D02*
X254770Y330182D01*
X260588Y336000D01*
X101263Y332952D02*
X76169Y307859D01*
X101263Y332952D02*
X246820Y332952D01*
D13*
X252000Y336000D03*
D14*
X100000Y336000D01*
D13*
X67000Y299000D03*
D14*
X67000Y303000D02*
X100000Y336000D01*
X67000Y303000D02*
X67000Y299000D01*
D13*
X163000Y366000D03*
D14*
X145000Y348000D01*
D13*
X46410Y263818D03*
D14*
X37000Y273228D01*
X50000Y306000D02*
X58000Y306000D01*
X50000Y306000D02*
X37000Y293000D01*
X100000Y348000D02*
X145000Y348000D01*
X100000Y348000D02*
X58000Y306000D01*
X37000Y293000D02*
X37000Y273228D01*
D13*
X47616Y242156D03*
X124000Y366000D03*
D14*
X109048Y351048D01*
X33592Y256180D02*
X47616Y242156D01*
X48737Y309048D02*
X56737Y309048D01*
X33592Y293903D02*
X33592Y256180D01*
X33592Y293903D02*
X48737Y309048D01*
X56737Y309048D02*
X98737Y351048D01*
X109048Y351048D01*
D13*
X42000Y234848D03*
D14*
X41000Y235848D02*
X41000Y243848D01*
X41000Y235848D02*
X42000Y234848D01*
X41000Y243848D02*
X30544Y254304D01*
D13*
X111000Y366000D03*
D14*
X99096Y354096D01*
X97475Y354096D01*
X55475Y312096D01*
X47475Y312096D01*
X30544Y295165D01*
X30544Y254304D01*
D13*
X264000Y155000D03*
D14*
X238478Y155000D01*
X232950Y160528D01*
X171528Y160528D01*
X161000Y150000D02*
X123000Y150000D01*
D13*
X123000Y150000D03*
D14*
X161000Y150000D02*
X171528Y160528D01*
D13*
X67000Y143000D03*
D14*
X40578Y143000D01*
X23050Y160528D01*
X19050Y160528D01*
D13*
X109773Y298001D03*
D14*
X119984Y298001D01*
X127589Y305605D02*
X128737Y305605D01*
X130134Y307002D01*
X127589Y305605D02*
X119984Y298001D01*
X130134Y307002D02*
X130134Y308347D01*
X135328Y313540D01*
X142673Y313540D01*
X148213Y308000D01*
X180056Y308000D01*
X189862Y298194D02*
X212856Y298194D01*
D13*
X212856Y298194D03*
D14*
X189862Y298194D02*
X180056Y308000D01*
D13*
X180400Y282556D03*
D14*
X180400Y290391D01*
X177904Y292887D01*
X177904Y297220D02*
X176268Y298856D01*
X133378Y298856D01*
X131261Y296739D01*
D13*
X131261Y296739D03*
D14*
X177904Y297220D02*
X177904Y292887D01*
D13*
X305500Y130500D03*
X142796Y291818D03*
X251000Y194000D03*
X355000Y265000D03*
X355000Y272500D03*
X340000Y277500D03*
X340000Y260000D03*
X325000Y260000D03*
X325000Y277500D03*
X317500Y277500D03*
X317500Y260000D03*
X370000Y260000D03*
X370000Y277500D03*
X377500Y277500D03*
X377500Y260000D03*
X347500Y272500D03*
X347500Y265000D03*
X332500Y260000D03*
X332500Y277500D03*
X362500Y277500D03*
X362500Y260000D03*
X385000Y277500D03*
X385000Y260000D03*
X91000Y272000D03*
X91000Y237000D03*
X109000Y255000D03*
X73000Y255000D03*
X54000Y196000D03*
X140000Y275000D03*
X168957Y255957D03*
X246000Y247000D03*
X240000Y281000D03*
X224000Y281000D03*
X224000Y263000D03*
X240000Y263000D03*
X248000Y312000D03*
X214000Y312500D03*
X287000Y302000D03*
D15*
X109524Y315965D03*
X45000Y319000D03*
X249000Y323000D03*
D13*
X15000Y278000D03*
X10000Y239000D03*
X87500Y40000D03*
X95000Y40000D03*
X102500Y40000D03*
X110000Y40000D03*
X117500Y40000D03*
X87500Y7500D03*
X95000Y7500D03*
X102500Y7500D03*
X110000Y7500D03*
X117500Y7500D03*
X282500Y40000D03*
X290000Y40000D03*
X297500Y40000D03*
X305000Y40000D03*
X312500Y40000D03*
X282500Y7500D03*
X290000Y7500D03*
X297500Y7500D03*
X305000Y7500D03*
X312500Y7500D03*
X298000Y130500D03*
X288000Y130500D03*
X280500Y130500D03*
X298000Y123000D03*
X298000Y115500D03*
X305500Y115500D03*
X305500Y123000D03*
X288000Y123000D03*
X280500Y123000D03*
X280500Y115500D03*
X288000Y115500D03*
X107500Y127500D03*
X100000Y127500D03*
X90000Y127500D03*
X82500Y127500D03*
X100000Y120000D03*
X100000Y112500D03*
X107500Y112500D03*
X107500Y120000D03*
X90000Y120000D03*
X82500Y120000D03*
X82500Y112500D03*
X90000Y112500D03*
X190000Y140000D03*
X182500Y140000D03*
X182500Y132500D03*
X182500Y125000D03*
X190000Y125000D03*
X190000Y132500D03*
X239000Y200000D03*
X141000Y238000D03*
X81394Y191000D03*
X26681Y247939D03*
X187000Y246000D03*
D15*
X57000Y298000D03*
D13*
X224000Y298000D03*
X302500Y327500D03*
X310000Y327500D03*
X317500Y327500D03*
X325000Y327500D03*
X332500Y327500D03*
X357500Y225000D03*
X365000Y225000D03*
X372500Y225000D03*
X380000Y225000D03*
X387500Y225000D03*
X65000Y153000D03*
X140000Y112500D03*
X140000Y105000D03*
X140000Y97500D03*
X140000Y90000D03*
X140000Y82500D03*
X190000Y85000D03*
X190000Y92500D03*
X190000Y100000D03*
X182500Y100000D03*
X182500Y92500D03*
X182500Y85000D03*
X267500Y80000D03*
X260000Y80000D03*
X252500Y80000D03*
X245000Y80000D03*
X237500Y80000D03*
X237500Y87500D03*
X72500Y77500D03*
X65000Y77500D03*
X57500Y77500D03*
X50000Y77500D03*
X42500Y77500D03*
X42500Y85000D03*
X340000Y107500D03*
X340000Y100000D03*
X340000Y92500D03*
X340000Y85000D03*
X340000Y77500D03*
X289114Y165114D03*
D14*
X266410Y169406D02*
X261590Y169406D01*
X258182Y165998D01*
X270702Y165114D02*
X289114Y165114D01*
X270702Y165114D02*
X266410Y169406D01*
X258182Y165998D02*
X258182Y163278D01*
X256000Y161096D01*
X250702Y161096D01*
X140770Y156096D02*
X138000Y158866D01*
D13*
X138000Y158866D03*
D14*
X238316Y173482D02*
X250702Y161096D01*
X238316Y173482D02*
X227584Y173482D01*
X220726Y166624D01*
X168313Y166624D01*
X157785Y156096D01*
X140770Y156096D01*
D13*
X129327Y155818D03*
D14*
X132097Y153048D01*
X228847Y170434D02*
X237053Y170434D01*
X228847Y170434D02*
X221989Y163576D01*
X258460Y158048D02*
X264000Y163588D01*
D13*
X264000Y163588D03*
D14*
X159048Y153048D02*
X132097Y153048D01*
X159048Y153048D02*
X169576Y163576D01*
X221989Y163576D01*
X237053Y170434D02*
X249439Y158048D01*
X258460Y158048D01*
D13*
X372500Y327500D03*
X365000Y327500D03*
X357500Y327500D03*
D15*
X105000Y325000D03*
X162056Y264908D03*
X266000Y324000D03*
D13*
X302500Y225000D03*
X310000Y225000D03*
X317500Y225000D03*
X280709Y271437D03*
D14*
X280709Y271437D01*
X291092Y261053D01*
D13*
X291092Y261053D03*
X274636Y265364D03*
D14*
X285019Y254981D01*
D13*
X285019Y254981D03*
X84752Y297777D03*
D14*
X84752Y269180D01*
X131523Y248144D02*
X133523Y250144D01*
X152015Y244911D02*
X153932Y244911D01*
X199558Y234096D02*
X206328Y240866D01*
X105788Y248144D02*
X84752Y269180D01*
X105788Y248144D02*
X131523Y248144D01*
X133523Y250144D02*
X146782Y250144D01*
X152015Y244911D01*
X153932Y244911D02*
X164747Y234096D01*
X199558Y234096D01*
X217590Y240866D02*
X217655Y240801D01*
D13*
X217655Y240801D03*
D14*
X217590Y240866D02*
X206328Y240866D01*
D13*
X55886Y288886D03*
D14*
X55886Y283028D01*
X60000Y278914D01*
X70707Y278914D01*
X150752Y241863D02*
X152670Y241863D01*
X200820Y231048D02*
X207590Y237818D01*
X212410Y237818D02*
X217114Y233114D01*
X222114Y233114D01*
D13*
X222114Y233114D03*
D14*
X150752Y241863D02*
X145520Y247096D01*
X152670Y241863D02*
X163485Y231048D01*
X200820Y231048D01*
X207590Y237818D02*
X212410Y237818D01*
X134785Y247096D02*
X132785Y245096D01*
X134785Y247096D02*
X145520Y247096D01*
X104525Y245096D02*
X70707Y278914D01*
X104525Y245096D02*
X132785Y245096D01*
D13*
X48556Y293701D03*
D14*
X48556Y281310D01*
X54000Y275866D01*
X149490Y238815D02*
X151407Y238815D01*
X206000Y228000D02*
X210000Y232000D01*
D13*
X210000Y232000D03*
D14*
X69445Y275866D02*
X54000Y275866D01*
X144257Y244048D02*
X149490Y238815D01*
X151407Y238815D02*
X162222Y228000D01*
X206000Y228000D01*
X144257Y244048D02*
X136048Y244048D01*
X134048Y242048D01*
X103263Y242048D01*
X69445Y275866D01*
D13*
X148997Y232997D03*
D14*
X68182Y272818D02*
X47468Y272818D01*
D13*
X47468Y272818D03*
D14*
X144225Y232997D02*
X148997Y232997D01*
X144225Y232997D02*
X143410Y232182D01*
X138590Y232182D01*
X135182Y235590D01*
X135182Y237818D01*
X134000Y239000D01*
X102000Y239000D01*
X68182Y272818D01*
D13*
X192272Y304012D03*
D14*
X188355Y304012D01*
X181319Y311048D01*
X134065Y316588D02*
X127086Y309609D01*
X127086Y309413D01*
X149475Y311048D02*
X181319Y311048D01*
X149475Y311048D02*
X143935Y316588D01*
X134065Y316588D01*
X127086Y309413D02*
X118722Y301049D01*
X114953Y301049D01*
X112183Y303819D01*
X103290Y303819D02*
X97248Y297777D01*
D13*
X97248Y297777D03*
D14*
X103290Y303819D02*
X112183Y303819D01*
D13*
X190000Y289412D03*
D14*
X184000Y295412D01*
X184000Y299745D01*
X178793Y304952D01*
X141410Y310492D02*
X136590Y310492D01*
X133182Y307084D01*
X141410Y310492D02*
X146950Y304952D01*
X133182Y305739D02*
X133182Y307084D01*
X133182Y305739D02*
X130000Y302557D01*
X128851Y302557D01*
X118294Y292000D01*
X146950Y304952D02*
X178793Y304952D01*
D13*
X92000Y313637D03*
D14*
X91430Y300187D02*
X91430Y295367D01*
X94838Y291959D01*
X99658Y291959D01*
X92000Y300757D02*
X92000Y313637D01*
X92000Y300757D02*
X91430Y300187D01*
X99658Y291959D02*
X99699Y292000D01*
X118294Y292000D01*
D13*
X191000Y265444D03*
D14*
X191000Y283000D01*
X190406Y283594D01*
X187590Y283594D01*
X184182Y287002D02*
X184182Y290919D01*
X180952Y294149D01*
X180952Y298483D01*
X184182Y287002D02*
X187590Y283594D01*
X180952Y298483D02*
X177531Y301904D01*
X141770Y301904D02*
X139000Y304674D01*
D13*
X139000Y304674D03*
D14*
X141770Y301904D02*
X177531Y301904D01*
D13*
X161000Y205000D03*
X155000Y194000D03*
X138818Y224721D03*
X183000Y190959D03*
D14*
X166818Y207141D01*
X166818Y207410D01*
X163228Y211000D01*
X153000Y211000D01*
X139280Y224721D01*
X138818Y224721D01*
D13*
X163588Y194184D03*
X38000Y220800D03*
D14*
X94772Y177000D02*
X104006Y186234D01*
D13*
X104006Y186234D03*
D14*
X94772Y177000D02*
X48000Y177000D01*
D13*
X39000Y166000D03*
D14*
X39000Y168000D01*
X48000Y177000D01*
M02*
