G04 EAGLE Gerber RS-274X export*
G75*
%MOMM*%
%FSLAX34Y34*%
%LPD*%
%INSilkscreen Bottom*%
%IPPOS*%
%AMOC8*
5,1,8,0,0,1.08239X$1,22.5*%
G01*
%ADD10C,0.203200*%
%ADD11C,0.152400*%


D10*
X293970Y325650D02*
X293970Y312950D01*
D11*
X180760Y169044D02*
X180762Y169154D01*
X180768Y169264D01*
X180778Y169374D01*
X180792Y169483D01*
X180810Y169591D01*
X180831Y169699D01*
X180857Y169806D01*
X180886Y169912D01*
X180920Y170017D01*
X180957Y170121D01*
X180997Y170223D01*
X181042Y170324D01*
X181090Y170423D01*
X181141Y170520D01*
X181196Y170615D01*
X181255Y170709D01*
X181316Y170800D01*
X181382Y170889D01*
X181450Y170975D01*
X181521Y171059D01*
X181595Y171140D01*
X181672Y171219D01*
X181752Y171294D01*
X181835Y171367D01*
X181920Y171437D01*
X182008Y171503D01*
X182098Y171567D01*
X182190Y171627D01*
X182284Y171684D01*
X182380Y171737D01*
X182478Y171787D01*
X182578Y171833D01*
X182680Y171876D01*
X182783Y171914D01*
X182887Y171950D01*
X182993Y171981D01*
X183099Y172008D01*
X183207Y172032D01*
X183315Y172052D01*
X183424Y172068D01*
X183533Y172080D01*
X183643Y172088D01*
X183753Y172092D01*
X183863Y172092D01*
X183973Y172088D01*
X184083Y172080D01*
X184192Y172068D01*
X184301Y172052D01*
X184409Y172032D01*
X184517Y172008D01*
X184623Y171981D01*
X184729Y171950D01*
X184833Y171914D01*
X184936Y171876D01*
X185038Y171833D01*
X185138Y171787D01*
X185236Y171737D01*
X185332Y171684D01*
X185426Y171627D01*
X185518Y171567D01*
X185608Y171503D01*
X185696Y171437D01*
X185781Y171367D01*
X185864Y171294D01*
X185944Y171219D01*
X186021Y171140D01*
X186095Y171059D01*
X186166Y170975D01*
X186234Y170889D01*
X186300Y170800D01*
X186361Y170709D01*
X186420Y170615D01*
X186475Y170520D01*
X186526Y170423D01*
X186574Y170324D01*
X186619Y170223D01*
X186659Y170121D01*
X186696Y170017D01*
X186730Y169912D01*
X186759Y169806D01*
X186785Y169699D01*
X186806Y169591D01*
X186824Y169483D01*
X186838Y169374D01*
X186848Y169264D01*
X186854Y169154D01*
X186856Y169044D01*
X186854Y168934D01*
X186848Y168824D01*
X186838Y168714D01*
X186824Y168605D01*
X186806Y168497D01*
X186785Y168389D01*
X186759Y168282D01*
X186730Y168176D01*
X186696Y168071D01*
X186659Y167967D01*
X186619Y167865D01*
X186574Y167764D01*
X186526Y167665D01*
X186475Y167568D01*
X186420Y167473D01*
X186361Y167379D01*
X186300Y167288D01*
X186234Y167199D01*
X186166Y167113D01*
X186095Y167029D01*
X186021Y166948D01*
X185944Y166869D01*
X185864Y166794D01*
X185781Y166721D01*
X185696Y166651D01*
X185608Y166585D01*
X185518Y166521D01*
X185426Y166461D01*
X185332Y166404D01*
X185236Y166351D01*
X185138Y166301D01*
X185038Y166255D01*
X184936Y166212D01*
X184833Y166174D01*
X184729Y166138D01*
X184623Y166107D01*
X184517Y166080D01*
X184409Y166056D01*
X184301Y166036D01*
X184192Y166020D01*
X184083Y166008D01*
X183973Y166000D01*
X183863Y165996D01*
X183753Y165996D01*
X183643Y166000D01*
X183533Y166008D01*
X183424Y166020D01*
X183315Y166036D01*
X183207Y166056D01*
X183099Y166080D01*
X182993Y166107D01*
X182887Y166138D01*
X182783Y166174D01*
X182680Y166212D01*
X182578Y166255D01*
X182478Y166301D01*
X182380Y166351D01*
X182284Y166404D01*
X182190Y166461D01*
X182098Y166521D01*
X182008Y166585D01*
X181920Y166651D01*
X181835Y166721D01*
X181752Y166794D01*
X181672Y166869D01*
X181595Y166948D01*
X181521Y167029D01*
X181450Y167113D01*
X181382Y167199D01*
X181316Y167288D01*
X181255Y167379D01*
X181196Y167473D01*
X181141Y167568D01*
X181090Y167665D01*
X181042Y167764D01*
X180997Y167865D01*
X180957Y167967D01*
X180920Y168071D01*
X180886Y168176D01*
X180857Y168282D01*
X180831Y168389D01*
X180810Y168497D01*
X180792Y168605D01*
X180778Y168714D01*
X180768Y168824D01*
X180762Y168934D01*
X180760Y169044D01*
M02*
