G04 EAGLE Gerber RS-274X export*
G75*
%MOMM*%
%FSLAX34Y34*%
%LPD*%
%INSilkscreen Top*%
%IPPOS*%
%AMOC8*
5,1,8,0,0,1.08239X$1,22.5*%
G01*
%ADD10C,0.203200*%
%ADD11C,0.400000*%
%ADD12C,0.127000*%
%ADD13C,0.152400*%
%ADD14C,0.200000*%


D10*
X55000Y218500D02*
X60000Y218500D01*
X55000Y218500D02*
X55000Y223500D01*
X55000Y285500D02*
X55000Y290500D01*
X60000Y290500D01*
D11*
X52500Y216080D03*
D10*
X127000Y285500D02*
X127000Y290500D01*
X122000Y290500D01*
X122000Y218500D02*
X127000Y218500D01*
X127000Y223500D01*
D12*
X291000Y360000D02*
X291000Y364000D01*
X213000Y364000D02*
X213000Y360000D01*
X234000Y345000D02*
X235000Y345000D01*
X269000Y345000D02*
X270000Y345000D01*
X208000Y345000D02*
X205000Y345000D01*
X296000Y345000D02*
X299000Y345000D01*
X291000Y339000D02*
X291000Y337000D01*
X213000Y337000D02*
X213000Y339000D01*
D10*
X294350Y325650D02*
X294350Y312950D01*
X392500Y369500D02*
X392500Y167500D01*
X302500Y167500D02*
X302500Y246500D01*
X302500Y290500D01*
X302500Y369500D01*
X391500Y369500D01*
X392500Y167500D02*
X302500Y167500D01*
X302500Y290500D02*
X317500Y290500D01*
X317500Y246500D01*
X302500Y246500D01*
X201500Y340000D02*
X170500Y340000D01*
X201500Y340000D02*
X201500Y390000D01*
X170500Y390000D01*
X106500Y390000D02*
X75500Y390000D01*
X75500Y340000D01*
X106500Y340000D01*
X132500Y336000D02*
X132500Y331000D01*
X144500Y331000D01*
X144500Y336000D01*
X101500Y334000D02*
X101502Y334063D01*
X101508Y334125D01*
X101518Y334187D01*
X101531Y334249D01*
X101549Y334309D01*
X101570Y334368D01*
X101595Y334426D01*
X101624Y334482D01*
X101656Y334536D01*
X101691Y334588D01*
X101729Y334637D01*
X101771Y334685D01*
X101815Y334729D01*
X101863Y334771D01*
X101912Y334809D01*
X101964Y334844D01*
X102018Y334876D01*
X102074Y334905D01*
X102132Y334930D01*
X102191Y334951D01*
X102251Y334969D01*
X102313Y334982D01*
X102375Y334992D01*
X102437Y334998D01*
X102500Y335000D01*
X102563Y334998D01*
X102625Y334992D01*
X102687Y334982D01*
X102749Y334969D01*
X102809Y334951D01*
X102868Y334930D01*
X102926Y334905D01*
X102982Y334876D01*
X103036Y334844D01*
X103088Y334809D01*
X103137Y334771D01*
X103185Y334729D01*
X103229Y334685D01*
X103271Y334637D01*
X103309Y334588D01*
X103344Y334536D01*
X103376Y334482D01*
X103405Y334426D01*
X103430Y334368D01*
X103451Y334309D01*
X103469Y334249D01*
X103482Y334187D01*
X103492Y334125D01*
X103498Y334063D01*
X103500Y334000D01*
X103498Y333937D01*
X103492Y333875D01*
X103482Y333813D01*
X103469Y333751D01*
X103451Y333691D01*
X103430Y333632D01*
X103405Y333574D01*
X103376Y333518D01*
X103344Y333464D01*
X103309Y333412D01*
X103271Y333363D01*
X103229Y333315D01*
X103185Y333271D01*
X103137Y333229D01*
X103088Y333191D01*
X103036Y333156D01*
X102982Y333124D01*
X102926Y333095D01*
X102868Y333070D01*
X102809Y333049D01*
X102749Y333031D01*
X102687Y333018D01*
X102625Y333008D01*
X102563Y333002D01*
X102500Y333000D01*
X102437Y333002D01*
X102375Y333008D01*
X102313Y333018D01*
X102251Y333031D01*
X102191Y333049D01*
X102132Y333070D01*
X102074Y333095D01*
X102018Y333124D01*
X101964Y333156D01*
X101912Y333191D01*
X101863Y333229D01*
X101815Y333271D01*
X101771Y333315D01*
X101729Y333363D01*
X101691Y333412D01*
X101656Y333464D01*
X101624Y333518D01*
X101595Y333574D01*
X101570Y333632D01*
X101549Y333691D01*
X101531Y333751D01*
X101518Y333813D01*
X101508Y333875D01*
X101502Y333937D01*
X101500Y334000D01*
D13*
X319200Y139150D02*
X319202Y139259D01*
X319208Y139368D01*
X319218Y139476D01*
X319232Y139584D01*
X319249Y139692D01*
X319271Y139799D01*
X319296Y139905D01*
X319326Y140009D01*
X319359Y140113D01*
X319396Y140216D01*
X319436Y140317D01*
X319480Y140416D01*
X319528Y140514D01*
X319580Y140611D01*
X319634Y140705D01*
X319692Y140797D01*
X319754Y140887D01*
X319819Y140974D01*
X319886Y141060D01*
X319957Y141143D01*
X320031Y141223D01*
X320108Y141300D01*
X320187Y141375D01*
X320269Y141446D01*
X320354Y141515D01*
X320441Y141580D01*
X320530Y141643D01*
X320622Y141701D01*
X320716Y141757D01*
X320811Y141809D01*
X320909Y141858D01*
X321008Y141903D01*
X321109Y141945D01*
X321211Y141982D01*
X321314Y142016D01*
X321419Y142047D01*
X321525Y142073D01*
X321631Y142096D01*
X321739Y142114D01*
X321847Y142129D01*
X321955Y142140D01*
X322064Y142147D01*
X322173Y142150D01*
X322282Y142149D01*
X322391Y142144D01*
X322499Y142135D01*
X322607Y142122D01*
X322715Y142105D01*
X322822Y142085D01*
X322928Y142060D01*
X323033Y142032D01*
X323137Y142000D01*
X323240Y141964D01*
X323342Y141924D01*
X323442Y141881D01*
X323540Y141834D01*
X323637Y141784D01*
X323731Y141730D01*
X323824Y141672D01*
X323915Y141612D01*
X324003Y141548D01*
X324089Y141481D01*
X324172Y141411D01*
X324253Y141338D01*
X324331Y141262D01*
X324406Y141183D01*
X324479Y141101D01*
X324548Y141017D01*
X324614Y140931D01*
X324677Y140842D01*
X324737Y140751D01*
X324794Y140658D01*
X324847Y140563D01*
X324896Y140466D01*
X324942Y140367D01*
X324984Y140267D01*
X325023Y140165D01*
X325058Y140061D01*
X325089Y139957D01*
X325117Y139852D01*
X325140Y139745D01*
X325160Y139638D01*
X325176Y139530D01*
X325188Y139422D01*
X325196Y139313D01*
X325200Y139204D01*
X325200Y139096D01*
X325196Y138987D01*
X325188Y138878D01*
X325176Y138770D01*
X325160Y138662D01*
X325140Y138555D01*
X325117Y138448D01*
X325089Y138343D01*
X325058Y138239D01*
X325023Y138135D01*
X324984Y138033D01*
X324942Y137933D01*
X324896Y137834D01*
X324847Y137737D01*
X324794Y137642D01*
X324737Y137549D01*
X324677Y137458D01*
X324614Y137369D01*
X324548Y137283D01*
X324479Y137199D01*
X324406Y137117D01*
X324331Y137038D01*
X324253Y136962D01*
X324172Y136889D01*
X324089Y136819D01*
X324003Y136752D01*
X323915Y136688D01*
X323824Y136628D01*
X323731Y136570D01*
X323637Y136516D01*
X323540Y136466D01*
X323442Y136419D01*
X323342Y136376D01*
X323240Y136336D01*
X323137Y136300D01*
X323033Y136268D01*
X322928Y136240D01*
X322822Y136215D01*
X322715Y136195D01*
X322607Y136178D01*
X322499Y136165D01*
X322391Y136156D01*
X322282Y136151D01*
X322173Y136150D01*
X322064Y136153D01*
X321955Y136160D01*
X321847Y136171D01*
X321739Y136186D01*
X321631Y136204D01*
X321525Y136227D01*
X321419Y136253D01*
X321314Y136284D01*
X321211Y136318D01*
X321109Y136355D01*
X321008Y136397D01*
X320909Y136442D01*
X320811Y136491D01*
X320716Y136543D01*
X320622Y136599D01*
X320530Y136657D01*
X320441Y136720D01*
X320354Y136785D01*
X320269Y136854D01*
X320187Y136925D01*
X320108Y137000D01*
X320031Y137077D01*
X319957Y137157D01*
X319886Y137240D01*
X319819Y137326D01*
X319754Y137413D01*
X319692Y137503D01*
X319634Y137595D01*
X319580Y137689D01*
X319528Y137786D01*
X319480Y137884D01*
X319436Y137983D01*
X319396Y138084D01*
X319359Y138187D01*
X319326Y138291D01*
X319296Y138395D01*
X319271Y138501D01*
X319249Y138608D01*
X319232Y138716D01*
X319218Y138824D01*
X319208Y138932D01*
X319202Y139041D01*
X319200Y139150D01*
X121200Y136150D02*
X121202Y136259D01*
X121208Y136368D01*
X121218Y136476D01*
X121232Y136584D01*
X121249Y136692D01*
X121271Y136799D01*
X121296Y136905D01*
X121326Y137009D01*
X121359Y137113D01*
X121396Y137216D01*
X121436Y137317D01*
X121480Y137416D01*
X121528Y137514D01*
X121580Y137611D01*
X121634Y137705D01*
X121692Y137797D01*
X121754Y137887D01*
X121819Y137974D01*
X121886Y138060D01*
X121957Y138143D01*
X122031Y138223D01*
X122108Y138300D01*
X122187Y138375D01*
X122269Y138446D01*
X122354Y138515D01*
X122441Y138580D01*
X122530Y138643D01*
X122622Y138701D01*
X122716Y138757D01*
X122811Y138809D01*
X122909Y138858D01*
X123008Y138903D01*
X123109Y138945D01*
X123211Y138982D01*
X123314Y139016D01*
X123419Y139047D01*
X123525Y139073D01*
X123631Y139096D01*
X123739Y139114D01*
X123847Y139129D01*
X123955Y139140D01*
X124064Y139147D01*
X124173Y139150D01*
X124282Y139149D01*
X124391Y139144D01*
X124499Y139135D01*
X124607Y139122D01*
X124715Y139105D01*
X124822Y139085D01*
X124928Y139060D01*
X125033Y139032D01*
X125137Y139000D01*
X125240Y138964D01*
X125342Y138924D01*
X125442Y138881D01*
X125540Y138834D01*
X125637Y138784D01*
X125731Y138730D01*
X125824Y138672D01*
X125915Y138612D01*
X126003Y138548D01*
X126089Y138481D01*
X126172Y138411D01*
X126253Y138338D01*
X126331Y138262D01*
X126406Y138183D01*
X126479Y138101D01*
X126548Y138017D01*
X126614Y137931D01*
X126677Y137842D01*
X126737Y137751D01*
X126794Y137658D01*
X126847Y137563D01*
X126896Y137466D01*
X126942Y137367D01*
X126984Y137267D01*
X127023Y137165D01*
X127058Y137061D01*
X127089Y136957D01*
X127117Y136852D01*
X127140Y136745D01*
X127160Y136638D01*
X127176Y136530D01*
X127188Y136422D01*
X127196Y136313D01*
X127200Y136204D01*
X127200Y136096D01*
X127196Y135987D01*
X127188Y135878D01*
X127176Y135770D01*
X127160Y135662D01*
X127140Y135555D01*
X127117Y135448D01*
X127089Y135343D01*
X127058Y135239D01*
X127023Y135135D01*
X126984Y135033D01*
X126942Y134933D01*
X126896Y134834D01*
X126847Y134737D01*
X126794Y134642D01*
X126737Y134549D01*
X126677Y134458D01*
X126614Y134369D01*
X126548Y134283D01*
X126479Y134199D01*
X126406Y134117D01*
X126331Y134038D01*
X126253Y133962D01*
X126172Y133889D01*
X126089Y133819D01*
X126003Y133752D01*
X125915Y133688D01*
X125824Y133628D01*
X125731Y133570D01*
X125637Y133516D01*
X125540Y133466D01*
X125442Y133419D01*
X125342Y133376D01*
X125240Y133336D01*
X125137Y133300D01*
X125033Y133268D01*
X124928Y133240D01*
X124822Y133215D01*
X124715Y133195D01*
X124607Y133178D01*
X124499Y133165D01*
X124391Y133156D01*
X124282Y133151D01*
X124173Y133150D01*
X124064Y133153D01*
X123955Y133160D01*
X123847Y133171D01*
X123739Y133186D01*
X123631Y133204D01*
X123525Y133227D01*
X123419Y133253D01*
X123314Y133284D01*
X123211Y133318D01*
X123109Y133355D01*
X123008Y133397D01*
X122909Y133442D01*
X122811Y133491D01*
X122716Y133543D01*
X122622Y133599D01*
X122530Y133657D01*
X122441Y133720D01*
X122354Y133785D01*
X122269Y133854D01*
X122187Y133925D01*
X122108Y134000D01*
X122031Y134077D01*
X121957Y134157D01*
X121886Y134240D01*
X121819Y134326D01*
X121754Y134413D01*
X121692Y134503D01*
X121634Y134595D01*
X121580Y134689D01*
X121528Y134786D01*
X121480Y134884D01*
X121436Y134983D01*
X121396Y135084D01*
X121359Y135187D01*
X121326Y135291D01*
X121296Y135395D01*
X121271Y135501D01*
X121249Y135608D01*
X121232Y135716D01*
X121218Y135824D01*
X121208Y135932D01*
X121202Y136041D01*
X121200Y136150D01*
X309950Y55270D02*
X309950Y34730D01*
X285050Y34840D02*
X285050Y55020D01*
X114950Y55270D02*
X114950Y34730D01*
X90050Y34840D02*
X90050Y55020D01*
D14*
X187450Y295600D02*
X187452Y295663D01*
X187458Y295725D01*
X187468Y295787D01*
X187481Y295849D01*
X187499Y295909D01*
X187520Y295968D01*
X187545Y296026D01*
X187574Y296082D01*
X187606Y296136D01*
X187641Y296188D01*
X187679Y296237D01*
X187721Y296285D01*
X187765Y296329D01*
X187813Y296371D01*
X187862Y296409D01*
X187914Y296444D01*
X187968Y296476D01*
X188024Y296505D01*
X188082Y296530D01*
X188141Y296551D01*
X188201Y296569D01*
X188263Y296582D01*
X188325Y296592D01*
X188387Y296598D01*
X188450Y296600D01*
X188513Y296598D01*
X188575Y296592D01*
X188637Y296582D01*
X188699Y296569D01*
X188759Y296551D01*
X188818Y296530D01*
X188876Y296505D01*
X188932Y296476D01*
X188986Y296444D01*
X189038Y296409D01*
X189087Y296371D01*
X189135Y296329D01*
X189179Y296285D01*
X189221Y296237D01*
X189259Y296188D01*
X189294Y296136D01*
X189326Y296082D01*
X189355Y296026D01*
X189380Y295968D01*
X189401Y295909D01*
X189419Y295849D01*
X189432Y295787D01*
X189442Y295725D01*
X189448Y295663D01*
X189450Y295600D01*
X189448Y295537D01*
X189442Y295475D01*
X189432Y295413D01*
X189419Y295351D01*
X189401Y295291D01*
X189380Y295232D01*
X189355Y295174D01*
X189326Y295118D01*
X189294Y295064D01*
X189259Y295012D01*
X189221Y294963D01*
X189179Y294915D01*
X189135Y294871D01*
X189087Y294829D01*
X189038Y294791D01*
X188986Y294756D01*
X188932Y294724D01*
X188876Y294695D01*
X188818Y294670D01*
X188759Y294649D01*
X188699Y294631D01*
X188637Y294618D01*
X188575Y294608D01*
X188513Y294602D01*
X188450Y294600D01*
X188387Y294602D01*
X188325Y294608D01*
X188263Y294618D01*
X188201Y294631D01*
X188141Y294649D01*
X188082Y294670D01*
X188024Y294695D01*
X187968Y294724D01*
X187914Y294756D01*
X187862Y294791D01*
X187813Y294829D01*
X187765Y294871D01*
X187721Y294915D01*
X187679Y294963D01*
X187641Y295012D01*
X187606Y295064D01*
X187574Y295118D01*
X187545Y295174D01*
X187520Y295232D01*
X187499Y295291D01*
X187481Y295351D01*
X187468Y295413D01*
X187458Y295475D01*
X187452Y295537D01*
X187450Y295600D01*
D12*
X209500Y297500D02*
X254500Y297500D01*
X254500Y246500D02*
X209500Y246500D01*
X193500Y90500D02*
X189500Y90500D01*
X189500Y100500D01*
X217500Y90500D02*
X221500Y90500D01*
X221500Y100500D01*
X221500Y124500D02*
X221500Y132500D01*
X189500Y132500D02*
X189500Y124500D01*
X124000Y300000D02*
X117000Y300000D01*
X185586Y331500D02*
X185588Y331575D01*
X185594Y331649D01*
X185604Y331723D01*
X185617Y331796D01*
X185635Y331869D01*
X185656Y331940D01*
X185681Y332011D01*
X185710Y332080D01*
X185743Y332147D01*
X185779Y332212D01*
X185818Y332276D01*
X185860Y332337D01*
X185906Y332396D01*
X185955Y332453D01*
X186007Y332506D01*
X186061Y332557D01*
X186118Y332606D01*
X186178Y332650D01*
X186240Y332692D01*
X186304Y332731D01*
X186370Y332766D01*
X186437Y332797D01*
X186507Y332825D01*
X186577Y332849D01*
X186649Y332870D01*
X186722Y332886D01*
X186795Y332899D01*
X186870Y332908D01*
X186944Y332913D01*
X187019Y332914D01*
X187093Y332911D01*
X187168Y332904D01*
X187241Y332893D01*
X187315Y332879D01*
X187387Y332860D01*
X187458Y332838D01*
X187528Y332812D01*
X187597Y332782D01*
X187663Y332749D01*
X187728Y332712D01*
X187791Y332672D01*
X187852Y332628D01*
X187910Y332582D01*
X187966Y332532D01*
X188019Y332480D01*
X188070Y332425D01*
X188117Y332367D01*
X188161Y332307D01*
X188202Y332244D01*
X188240Y332180D01*
X188274Y332114D01*
X188305Y332045D01*
X188332Y331976D01*
X188355Y331905D01*
X188374Y331833D01*
X188390Y331760D01*
X188402Y331686D01*
X188410Y331612D01*
X188414Y331537D01*
X188414Y331463D01*
X188410Y331388D01*
X188402Y331314D01*
X188390Y331240D01*
X188374Y331167D01*
X188355Y331095D01*
X188332Y331024D01*
X188305Y330955D01*
X188274Y330886D01*
X188240Y330820D01*
X188202Y330756D01*
X188161Y330693D01*
X188117Y330633D01*
X188070Y330575D01*
X188019Y330520D01*
X187966Y330468D01*
X187910Y330418D01*
X187852Y330372D01*
X187791Y330328D01*
X187728Y330288D01*
X187663Y330251D01*
X187597Y330218D01*
X187528Y330188D01*
X187458Y330162D01*
X187387Y330140D01*
X187315Y330121D01*
X187241Y330107D01*
X187168Y330096D01*
X187093Y330089D01*
X187019Y330086D01*
X186944Y330087D01*
X186870Y330092D01*
X186795Y330101D01*
X186722Y330114D01*
X186649Y330130D01*
X186577Y330151D01*
X186507Y330175D01*
X186437Y330203D01*
X186370Y330234D01*
X186304Y330269D01*
X186240Y330308D01*
X186178Y330350D01*
X186118Y330394D01*
X186061Y330443D01*
X186007Y330494D01*
X185955Y330547D01*
X185906Y330604D01*
X185860Y330663D01*
X185818Y330724D01*
X185779Y330788D01*
X185743Y330853D01*
X185710Y330920D01*
X185681Y330989D01*
X185656Y331060D01*
X185635Y331131D01*
X185617Y331204D01*
X185604Y331277D01*
X185594Y331351D01*
X185588Y331425D01*
X185586Y331500D01*
X33000Y221000D02*
X33000Y217000D01*
X33000Y211000D02*
X33000Y207000D01*
X33000Y190000D02*
X33000Y186000D01*
X378000Y87500D02*
X387000Y96500D01*
X332000Y87500D02*
X323000Y96500D01*
X187000Y101500D02*
X178000Y92500D01*
X132000Y92500D02*
X123000Y101500D01*
M02*
