G04 EAGLE Gerber RS-274X export*
G75*
%MOMM*%
%FSLAX34Y34*%
%LPD*%
%INSolderpaste Top*%
%IPPOS*%
%AMOC8*
5,1,8,0,0,1.08239X$1,22.5*%
G01*
%ADD10R,0.700000X0.275000*%
%ADD11R,0.275000X0.700000*%
%ADD12R,1.900000X1.800000*%
%ADD13R,2.100000X1.600000*%
%ADD14R,0.400000X1.350000*%
%ADD15C,0.500000*%
%ADD16R,0.760000X2.400000*%
%ADD17R,0.650000X1.750000*%
%ADD18R,3.300000X2.410000*%
%ADD19R,0.700000X0.575000*%
%ADD20R,0.575000X0.700000*%
%ADD21R,0.900000X1.000000*%
%ADD22R,0.800000X0.950000*%
%ADD23R,1.800000X1.600000*%
%ADD24R,0.700000X1.200000*%
%ADD25R,2.700000X1.800000*%
%ADD26R,1.802000X1.865600*%
%ADD27C,0.102500*%
%ADD28R,0.736600X1.270000*%
%ADD29R,2.000000X2.000000*%
%ADD30R,1.193800X0.533400*%
%ADD31R,0.950000X0.800000*%
%ADD32R,1.100000X1.900000*%
%ADD33R,1.200000X1.400000*%
%ADD34R,1.800000X3.600000*%

G36*
X112765Y264177D02*
X112765Y264177D01*
X112831Y264179D01*
X112874Y264197D01*
X112921Y264205D01*
X112978Y264239D01*
X113038Y264264D01*
X113073Y264295D01*
X113114Y264320D01*
X113156Y264371D01*
X113204Y264415D01*
X113226Y264457D01*
X113255Y264494D01*
X113276Y264556D01*
X113307Y264615D01*
X113315Y264669D01*
X113327Y264706D01*
X113326Y264746D01*
X113334Y264800D01*
X113334Y276200D01*
X113323Y276265D01*
X113321Y276331D01*
X113303Y276374D01*
X113295Y276421D01*
X113261Y276478D01*
X113236Y276538D01*
X113205Y276573D01*
X113180Y276614D01*
X113129Y276656D01*
X113085Y276704D01*
X113043Y276726D01*
X113006Y276755D01*
X112944Y276776D01*
X112885Y276807D01*
X112831Y276815D01*
X112794Y276827D01*
X112754Y276826D01*
X112700Y276834D01*
X101300Y276834D01*
X101235Y276823D01*
X101169Y276821D01*
X101126Y276803D01*
X101079Y276795D01*
X101022Y276761D01*
X100962Y276736D01*
X100927Y276705D01*
X100886Y276680D01*
X100845Y276629D01*
X100796Y276585D01*
X100774Y276543D01*
X100745Y276506D01*
X100724Y276444D01*
X100693Y276385D01*
X100685Y276331D01*
X100673Y276294D01*
X100674Y276254D01*
X100666Y276200D01*
X100666Y264800D01*
X100677Y264735D01*
X100679Y264669D01*
X100697Y264626D01*
X100705Y264579D01*
X100739Y264522D01*
X100764Y264462D01*
X100795Y264427D01*
X100820Y264386D01*
X100871Y264345D01*
X100915Y264296D01*
X100957Y264274D01*
X100994Y264245D01*
X101056Y264224D01*
X101115Y264193D01*
X101169Y264185D01*
X101206Y264173D01*
X101246Y264174D01*
X101300Y264166D01*
X112700Y264166D01*
X112765Y264177D01*
G37*
G36*
X80765Y264177D02*
X80765Y264177D01*
X80831Y264179D01*
X80874Y264197D01*
X80921Y264205D01*
X80978Y264239D01*
X81038Y264264D01*
X81073Y264295D01*
X81114Y264320D01*
X81156Y264371D01*
X81204Y264415D01*
X81226Y264457D01*
X81255Y264494D01*
X81276Y264556D01*
X81307Y264615D01*
X81315Y264669D01*
X81327Y264706D01*
X81326Y264746D01*
X81334Y264800D01*
X81334Y276200D01*
X81323Y276265D01*
X81321Y276331D01*
X81303Y276374D01*
X81295Y276421D01*
X81261Y276478D01*
X81236Y276538D01*
X81205Y276573D01*
X81180Y276614D01*
X81129Y276656D01*
X81085Y276704D01*
X81043Y276726D01*
X81006Y276755D01*
X80944Y276776D01*
X80885Y276807D01*
X80831Y276815D01*
X80794Y276827D01*
X80754Y276826D01*
X80700Y276834D01*
X69300Y276834D01*
X69235Y276823D01*
X69169Y276821D01*
X69126Y276803D01*
X69079Y276795D01*
X69022Y276761D01*
X68962Y276736D01*
X68927Y276705D01*
X68886Y276680D01*
X68845Y276629D01*
X68796Y276585D01*
X68774Y276543D01*
X68745Y276506D01*
X68724Y276444D01*
X68693Y276385D01*
X68685Y276331D01*
X68673Y276294D01*
X68674Y276254D01*
X68666Y276200D01*
X68666Y264800D01*
X68677Y264735D01*
X68679Y264669D01*
X68697Y264626D01*
X68705Y264579D01*
X68739Y264522D01*
X68764Y264462D01*
X68795Y264427D01*
X68820Y264386D01*
X68871Y264345D01*
X68915Y264296D01*
X68957Y264274D01*
X68994Y264245D01*
X69056Y264224D01*
X69115Y264193D01*
X69169Y264185D01*
X69206Y264173D01*
X69246Y264174D01*
X69300Y264166D01*
X80700Y264166D01*
X80765Y264177D01*
G37*
G36*
X96765Y248177D02*
X96765Y248177D01*
X96831Y248179D01*
X96874Y248197D01*
X96921Y248205D01*
X96978Y248239D01*
X97038Y248264D01*
X97073Y248295D01*
X97114Y248320D01*
X97156Y248371D01*
X97204Y248415D01*
X97226Y248457D01*
X97255Y248494D01*
X97276Y248556D01*
X97307Y248615D01*
X97315Y248669D01*
X97327Y248706D01*
X97326Y248746D01*
X97334Y248800D01*
X97334Y260200D01*
X97323Y260265D01*
X97321Y260331D01*
X97303Y260374D01*
X97295Y260421D01*
X97261Y260478D01*
X97236Y260538D01*
X97205Y260573D01*
X97180Y260614D01*
X97129Y260656D01*
X97085Y260704D01*
X97043Y260726D01*
X97006Y260755D01*
X96944Y260776D01*
X96885Y260807D01*
X96831Y260815D01*
X96794Y260827D01*
X96754Y260826D01*
X96700Y260834D01*
X85300Y260834D01*
X85235Y260823D01*
X85169Y260821D01*
X85126Y260803D01*
X85079Y260795D01*
X85022Y260761D01*
X84962Y260736D01*
X84927Y260705D01*
X84886Y260680D01*
X84845Y260629D01*
X84796Y260585D01*
X84774Y260543D01*
X84745Y260506D01*
X84724Y260444D01*
X84693Y260385D01*
X84685Y260331D01*
X84673Y260294D01*
X84674Y260254D01*
X84666Y260200D01*
X84666Y248800D01*
X84677Y248735D01*
X84679Y248669D01*
X84697Y248626D01*
X84705Y248579D01*
X84739Y248522D01*
X84764Y248462D01*
X84795Y248427D01*
X84820Y248386D01*
X84871Y248345D01*
X84915Y248296D01*
X84957Y248274D01*
X84994Y248245D01*
X85056Y248224D01*
X85115Y248193D01*
X85169Y248185D01*
X85206Y248173D01*
X85246Y248174D01*
X85300Y248166D01*
X96700Y248166D01*
X96765Y248177D01*
G37*
G36*
X112765Y232177D02*
X112765Y232177D01*
X112831Y232179D01*
X112874Y232197D01*
X112921Y232205D01*
X112978Y232239D01*
X113038Y232264D01*
X113073Y232295D01*
X113114Y232320D01*
X113156Y232371D01*
X113204Y232415D01*
X113226Y232457D01*
X113255Y232494D01*
X113276Y232556D01*
X113307Y232615D01*
X113315Y232669D01*
X113327Y232706D01*
X113326Y232746D01*
X113334Y232800D01*
X113334Y244200D01*
X113323Y244265D01*
X113321Y244331D01*
X113303Y244374D01*
X113295Y244421D01*
X113261Y244478D01*
X113236Y244538D01*
X113205Y244573D01*
X113180Y244614D01*
X113129Y244656D01*
X113085Y244704D01*
X113043Y244726D01*
X113006Y244755D01*
X112944Y244776D01*
X112885Y244807D01*
X112831Y244815D01*
X112794Y244827D01*
X112754Y244826D01*
X112700Y244834D01*
X101300Y244834D01*
X101235Y244823D01*
X101169Y244821D01*
X101126Y244803D01*
X101079Y244795D01*
X101022Y244761D01*
X100962Y244736D01*
X100927Y244705D01*
X100886Y244680D01*
X100845Y244629D01*
X100796Y244585D01*
X100774Y244543D01*
X100745Y244506D01*
X100724Y244444D01*
X100693Y244385D01*
X100685Y244331D01*
X100673Y244294D01*
X100674Y244254D01*
X100666Y244200D01*
X100666Y232800D01*
X100677Y232735D01*
X100679Y232669D01*
X100697Y232626D01*
X100705Y232579D01*
X100739Y232522D01*
X100764Y232462D01*
X100795Y232427D01*
X100820Y232386D01*
X100871Y232345D01*
X100915Y232296D01*
X100957Y232274D01*
X100994Y232245D01*
X101056Y232224D01*
X101115Y232193D01*
X101169Y232185D01*
X101206Y232173D01*
X101246Y232174D01*
X101300Y232166D01*
X112700Y232166D01*
X112765Y232177D01*
G37*
G36*
X80765Y232177D02*
X80765Y232177D01*
X80831Y232179D01*
X80874Y232197D01*
X80921Y232205D01*
X80978Y232239D01*
X81038Y232264D01*
X81073Y232295D01*
X81114Y232320D01*
X81156Y232371D01*
X81204Y232415D01*
X81226Y232457D01*
X81255Y232494D01*
X81276Y232556D01*
X81307Y232615D01*
X81315Y232669D01*
X81327Y232706D01*
X81326Y232746D01*
X81334Y232800D01*
X81334Y244200D01*
X81323Y244265D01*
X81321Y244331D01*
X81303Y244374D01*
X81295Y244421D01*
X81261Y244478D01*
X81236Y244538D01*
X81205Y244573D01*
X81180Y244614D01*
X81129Y244656D01*
X81085Y244704D01*
X81043Y244726D01*
X81006Y244755D01*
X80944Y244776D01*
X80885Y244807D01*
X80831Y244815D01*
X80794Y244827D01*
X80754Y244826D01*
X80700Y244834D01*
X69300Y244834D01*
X69235Y244823D01*
X69169Y244821D01*
X69126Y244803D01*
X69079Y244795D01*
X69022Y244761D01*
X68962Y244736D01*
X68927Y244705D01*
X68886Y244680D01*
X68845Y244629D01*
X68796Y244585D01*
X68774Y244543D01*
X68745Y244506D01*
X68724Y244444D01*
X68693Y244385D01*
X68685Y244331D01*
X68673Y244294D01*
X68674Y244254D01*
X68666Y244200D01*
X68666Y232800D01*
X68677Y232735D01*
X68679Y232669D01*
X68697Y232626D01*
X68705Y232579D01*
X68739Y232522D01*
X68764Y232462D01*
X68795Y232427D01*
X68820Y232386D01*
X68871Y232345D01*
X68915Y232296D01*
X68957Y232274D01*
X68994Y232245D01*
X69056Y232224D01*
X69115Y232193D01*
X69169Y232185D01*
X69206Y232173D01*
X69246Y232174D01*
X69300Y232166D01*
X80700Y232166D01*
X80765Y232177D01*
G37*
D10*
X126000Y272000D03*
X126000Y267000D03*
X126000Y262000D03*
X126000Y277000D03*
X126000Y282000D03*
X126000Y257000D03*
X126000Y252000D03*
X126000Y247000D03*
D11*
X88500Y219500D03*
X83500Y219500D03*
X78500Y219500D03*
X93500Y219500D03*
X98500Y219500D03*
X73500Y219500D03*
X68500Y219500D03*
X103500Y219500D03*
X108500Y219500D03*
X63500Y219500D03*
D10*
X126000Y227000D03*
X126000Y232000D03*
D11*
X118500Y219500D03*
D10*
X126000Y237000D03*
X126000Y242000D03*
D11*
X113500Y219500D03*
X118500Y289500D03*
X113500Y289500D03*
X108500Y289500D03*
X103500Y289500D03*
X98500Y289500D03*
X93500Y289500D03*
X88500Y289500D03*
X83500Y289500D03*
X78500Y289500D03*
X73500Y289500D03*
X68500Y289500D03*
X63500Y289500D03*
D10*
X56000Y282000D03*
X56000Y277000D03*
X56000Y272000D03*
X56000Y267000D03*
X56000Y262000D03*
X56000Y257000D03*
X56000Y252000D03*
X56000Y247000D03*
X56000Y242000D03*
X56000Y237000D03*
X56000Y232000D03*
X56000Y227000D03*
D12*
X290000Y375000D03*
D13*
X283000Y349500D03*
X221000Y349500D03*
D14*
X252000Y348250D03*
X258500Y348250D03*
X265000Y348250D03*
X245500Y348250D03*
X239000Y348250D03*
D12*
X262500Y375000D03*
X241500Y375000D03*
X214000Y375000D03*
D15*
X301310Y316800D02*
X337810Y316800D01*
X301310Y316800D02*
X301310Y321800D01*
X337810Y321800D01*
X337810Y316800D01*
X337810Y321550D02*
X301310Y321550D01*
X357190Y316800D02*
X393690Y316800D01*
X357190Y316800D02*
X357190Y321800D01*
X393690Y321800D01*
X393690Y316800D01*
X393690Y321550D02*
X357190Y321550D01*
X337810Y291400D02*
X301310Y291400D01*
X301310Y296400D01*
X337810Y296400D01*
X337810Y291400D01*
X337810Y296150D02*
X301310Y296150D01*
X357190Y291400D02*
X393690Y291400D01*
X357190Y291400D02*
X357190Y296400D01*
X393690Y296400D01*
X393690Y291400D01*
X393690Y296150D02*
X357190Y296150D01*
X337810Y266000D02*
X301310Y266000D01*
X301310Y271000D01*
X337810Y271000D01*
X337810Y266000D01*
X337810Y270750D02*
X301310Y270750D01*
X357190Y266000D02*
X393690Y266000D01*
X357190Y266000D02*
X357190Y271000D01*
X393690Y271000D01*
X393690Y266000D01*
X393690Y270750D02*
X357190Y270750D01*
X337810Y240600D02*
X301310Y240600D01*
X301310Y245600D01*
X337810Y245600D01*
X337810Y240600D01*
X337810Y245350D02*
X301310Y245350D01*
X357190Y240600D02*
X393690Y240600D01*
X357190Y240600D02*
X357190Y245600D01*
X393690Y245600D01*
X393690Y240600D01*
X393690Y245350D02*
X357190Y245350D01*
X337810Y215200D02*
X301310Y215200D01*
X301310Y220200D01*
X337810Y220200D01*
X337810Y215200D01*
X337810Y219950D02*
X301310Y219950D01*
X357190Y215200D02*
X393690Y215200D01*
X357190Y215200D02*
X357190Y220200D01*
X393690Y220200D01*
X393690Y215200D01*
X393690Y219950D02*
X357190Y219950D01*
D16*
X138500Y384500D03*
X151200Y384500D03*
X163900Y384500D03*
X125800Y384500D03*
X113100Y384500D03*
X113100Y345500D03*
X125800Y345500D03*
X138500Y345500D03*
X151200Y345500D03*
X163900Y345500D03*
D17*
X312050Y151000D03*
X299450Y151000D03*
X286750Y151000D03*
X274050Y151000D03*
X312050Y95000D03*
X299350Y95000D03*
X286650Y95000D03*
X273950Y95000D03*
D18*
X293000Y123000D03*
D17*
X114050Y148000D03*
X101450Y148000D03*
X88750Y148000D03*
X76050Y148000D03*
X114050Y92000D03*
X101350Y92000D03*
X88650Y92000D03*
X75950Y92000D03*
D18*
X95000Y120000D03*
D19*
X77500Y175250D03*
X77500Y164750D03*
X107500Y175250D03*
X107500Y164750D03*
X214500Y330250D03*
X214500Y319750D03*
X225000Y319750D03*
X225000Y330250D03*
D20*
X17750Y229000D03*
X28250Y229000D03*
D21*
X278000Y312000D03*
X237000Y312000D03*
X278000Y328000D03*
X237000Y328000D03*
D22*
X35000Y267000D03*
X19000Y267000D03*
D23*
X30500Y284000D03*
X30500Y312000D03*
D24*
X36500Y252000D03*
X17500Y252000D03*
D20*
X28250Y239000D03*
X17750Y239000D03*
X137250Y247000D03*
X147750Y247000D03*
D19*
X84000Y199250D03*
X84000Y209750D03*
X54000Y308750D03*
X54000Y319250D03*
D23*
X256000Y95000D03*
X256000Y123000D03*
X58000Y92000D03*
X58000Y120000D03*
D25*
X297500Y67000D03*
X297500Y23000D03*
X102500Y67000D03*
X102500Y23000D03*
D19*
X117500Y175250D03*
X117500Y164750D03*
X127500Y175250D03*
X127500Y164750D03*
X87500Y175250D03*
X87500Y164750D03*
X97500Y175250D03*
X97500Y164750D03*
D26*
X232000Y272000D03*
D27*
X210138Y289962D02*
X196362Y289962D01*
X196362Y293038D01*
X210138Y293038D01*
X210138Y289962D01*
X210138Y290936D02*
X196362Y290936D01*
X196362Y291910D02*
X210138Y291910D01*
X210138Y292884D02*
X196362Y292884D01*
X196362Y283462D02*
X210138Y283462D01*
X196362Y283462D02*
X196362Y286538D01*
X210138Y286538D01*
X210138Y283462D01*
X210138Y284436D02*
X196362Y284436D01*
X196362Y285410D02*
X210138Y285410D01*
X210138Y286384D02*
X196362Y286384D01*
X196362Y276962D02*
X210138Y276962D01*
X196362Y276962D02*
X196362Y280038D01*
X210138Y280038D01*
X210138Y276962D01*
X210138Y277936D02*
X196362Y277936D01*
X196362Y278910D02*
X210138Y278910D01*
X210138Y279884D02*
X196362Y279884D01*
X196362Y270462D02*
X210138Y270462D01*
X196362Y270462D02*
X196362Y273538D01*
X210138Y273538D01*
X210138Y270462D01*
X210138Y271436D02*
X196362Y271436D01*
X196362Y272410D02*
X210138Y272410D01*
X210138Y273384D02*
X196362Y273384D01*
X196362Y263962D02*
X210138Y263962D01*
X196362Y263962D02*
X196362Y267038D01*
X210138Y267038D01*
X210138Y263962D01*
X210138Y264936D02*
X196362Y264936D01*
X196362Y265910D02*
X210138Y265910D01*
X210138Y266884D02*
X196362Y266884D01*
X196362Y257462D02*
X210138Y257462D01*
X196362Y257462D02*
X196362Y260538D01*
X210138Y260538D01*
X210138Y257462D01*
X210138Y258436D02*
X196362Y258436D01*
X196362Y259410D02*
X210138Y259410D01*
X210138Y260384D02*
X196362Y260384D01*
X196362Y250962D02*
X210138Y250962D01*
X196362Y250962D02*
X196362Y254038D01*
X210138Y254038D01*
X210138Y250962D01*
X210138Y251936D02*
X196362Y251936D01*
X196362Y252910D02*
X210138Y252910D01*
X210138Y253884D02*
X196362Y253884D01*
X253862Y250962D02*
X267638Y250962D01*
X253862Y250962D02*
X253862Y254038D01*
X267638Y254038D01*
X267638Y250962D01*
X267638Y251936D02*
X253862Y251936D01*
X253862Y252910D02*
X267638Y252910D01*
X267638Y253884D02*
X253862Y253884D01*
X253862Y257462D02*
X267638Y257462D01*
X253862Y257462D02*
X253862Y260538D01*
X267638Y260538D01*
X267638Y257462D01*
X267638Y258436D02*
X253862Y258436D01*
X253862Y259410D02*
X267638Y259410D01*
X267638Y260384D02*
X253862Y260384D01*
X253862Y263962D02*
X267638Y263962D01*
X253862Y263962D02*
X253862Y267038D01*
X267638Y267038D01*
X267638Y263962D01*
X267638Y264936D02*
X253862Y264936D01*
X253862Y265910D02*
X267638Y265910D01*
X267638Y266884D02*
X253862Y266884D01*
X253862Y270462D02*
X267638Y270462D01*
X253862Y270462D02*
X253862Y273538D01*
X267638Y273538D01*
X267638Y270462D01*
X267638Y271436D02*
X253862Y271436D01*
X253862Y272410D02*
X267638Y272410D01*
X267638Y273384D02*
X253862Y273384D01*
X253862Y276962D02*
X267638Y276962D01*
X253862Y276962D02*
X253862Y280038D01*
X267638Y280038D01*
X267638Y276962D01*
X267638Y277936D02*
X253862Y277936D01*
X253862Y278910D02*
X267638Y278910D01*
X267638Y279884D02*
X253862Y279884D01*
X253862Y283462D02*
X267638Y283462D01*
X253862Y283462D02*
X253862Y286538D01*
X267638Y286538D01*
X267638Y283462D01*
X267638Y284436D02*
X253862Y284436D01*
X253862Y285410D02*
X267638Y285410D01*
X267638Y286384D02*
X253862Y286384D01*
X253862Y289962D02*
X267638Y289962D01*
X253862Y289962D02*
X253862Y293038D01*
X267638Y293038D01*
X267638Y289962D01*
X267638Y290936D02*
X253862Y290936D01*
X253862Y291910D02*
X267638Y291910D01*
X267638Y292884D02*
X253862Y292884D01*
D20*
X187250Y256000D03*
X176750Y256000D03*
X187250Y274000D03*
X176750Y274000D03*
D22*
X238500Y237000D03*
X254500Y237000D03*
X166500Y275000D03*
X150500Y275000D03*
D28*
X244450Y220447D03*
X231750Y220447D03*
X219050Y220447D03*
X206350Y220447D03*
X193650Y220447D03*
X180950Y220447D03*
X168250Y220447D03*
X155550Y220447D03*
X155550Y179553D03*
X168250Y179553D03*
X180950Y179553D03*
X193650Y179553D03*
X206350Y179553D03*
X219050Y179553D03*
X231750Y179553D03*
X244450Y179553D03*
D19*
X263000Y174750D03*
X263000Y185250D03*
D20*
X287250Y283000D03*
X276750Y283000D03*
X287250Y293000D03*
X276750Y293000D03*
D29*
X205500Y92500D03*
X205500Y132500D03*
D30*
X91940Y305500D03*
X91940Y324500D03*
X118060Y305500D03*
X118060Y315000D03*
X118060Y324500D03*
D31*
X65500Y309500D03*
X65500Y325500D03*
X78000Y309500D03*
X78000Y325500D03*
D22*
X131500Y322000D03*
X147500Y322000D03*
D19*
X263000Y194750D03*
X263000Y205250D03*
D20*
X38750Y185500D03*
X49250Y185500D03*
D32*
X41500Y203000D03*
X66500Y203000D03*
D33*
X163000Y322500D03*
X163000Y300500D03*
X179000Y300500D03*
X179000Y322500D03*
D20*
X58750Y185500D03*
X69250Y185500D03*
D19*
X150000Y296750D03*
X150000Y307250D03*
X192000Y315750D03*
X192000Y326250D03*
D20*
X28250Y219000D03*
X17750Y219000D03*
X28250Y209000D03*
X17750Y209000D03*
D19*
X8000Y218750D03*
X8000Y229250D03*
X8000Y209250D03*
X8000Y198750D03*
D20*
X28250Y188000D03*
X17750Y188000D03*
X28250Y199000D03*
X17750Y199000D03*
D19*
X68000Y175250D03*
X68000Y164750D03*
X58000Y164750D03*
X58000Y175250D03*
X48000Y164750D03*
X48000Y175250D03*
D34*
X355000Y93500D03*
X355000Y146500D03*
X155000Y98500D03*
X155000Y151500D03*
M02*
