G04 EAGLE Gerber RS-274X export*
G75*
%MOMM*%
%FSLAX34Y34*%
%LPD*%
%INSolderpaste Bottom*%
%IPPOS*%
%AMOC8*
5,1,8,0,0,1.08239X$1,22.5*%
G01*
%ADD10R,0.990600X0.304800*%
%ADD11R,1.250000X3.000000*%


D10*
X172822Y180950D03*
X172822Y187300D03*
X172822Y193650D03*
X172822Y200000D03*
X172822Y206350D03*
X172822Y212700D03*
X172822Y219050D03*
X227178Y180950D03*
X227178Y187300D03*
X227178Y193650D03*
X227178Y200000D03*
X227178Y206350D03*
X227178Y212700D03*
X227178Y219050D03*
D11*
X67300Y195750D03*
X41900Y195750D03*
X16500Y195750D03*
X92700Y195750D03*
X118100Y195750D03*
X143500Y195750D03*
M02*
