G04 EAGLE Gerber RS-274X export*
G75*
%MOMM*%
%FSLAX34Y34*%
%LPD*%
%INSoldermask Top*%
%IPPOS*%
%AMOC8*
5,1,8,0,0,1.08239X$1,22.5*%
G01*
%ADD10R,0.903200X0.478200*%
%ADD11R,0.478200X0.903200*%
%ADD12R,5.003200X5.003200*%
%ADD13R,2.103200X2.003200*%
%ADD14R,2.303200X1.803200*%
%ADD15R,0.603200X1.553200*%
%ADD16C,0.697853*%
%ADD17R,0.963200X2.603200*%
%ADD18R,0.853200X1.953200*%
%ADD19R,3.503200X2.613200*%
%ADD20C,2.235200*%
%ADD21R,0.903200X0.778200*%
%ADD22C,5.553200*%
%ADD23R,0.778200X0.903200*%
%ADD24R,1.103200X1.203200*%
%ADD25R,1.003200X1.153200*%
%ADD26R,2.003200X1.803200*%
%ADD27R,0.903200X1.403200*%
%ADD28R,2.903200X2.003200*%
%ADD29C,0.306600*%
%ADD30R,3.053200X3.153200*%
%ADD31R,0.939800X1.473200*%
%ADD32R,2.203200X2.203200*%
%ADD33R,1.397000X0.736600*%
%ADD34R,1.153200X1.003200*%
%ADD35R,1.303200X2.103200*%
%ADD36R,1.403200X1.603200*%
%ADD37C,2.082800*%
%ADD38R,2.003200X3.803200*%


D10*
X126000Y272000D03*
X126000Y267000D03*
X126000Y262000D03*
X126000Y277000D03*
X126000Y282000D03*
X126000Y257000D03*
X126000Y252000D03*
X126000Y247000D03*
D11*
X88500Y219500D03*
X83500Y219500D03*
X78500Y219500D03*
X93500Y219500D03*
X98500Y219500D03*
X73500Y219500D03*
X68500Y219500D03*
X103500Y219500D03*
X108500Y219500D03*
X63500Y219500D03*
D10*
X126000Y227000D03*
X126000Y232000D03*
D11*
X118500Y219500D03*
D10*
X126000Y237000D03*
X126000Y242000D03*
D11*
X113500Y219500D03*
X118500Y289500D03*
X113500Y289500D03*
X108500Y289500D03*
X103500Y289500D03*
X98500Y289500D03*
X93500Y289500D03*
X88500Y289500D03*
X83500Y289500D03*
X78500Y289500D03*
X73500Y289500D03*
X68500Y289500D03*
X63500Y289500D03*
D10*
X56000Y282000D03*
X56000Y277000D03*
X56000Y272000D03*
X56000Y267000D03*
X56000Y262000D03*
X56000Y257000D03*
X56000Y252000D03*
X56000Y247000D03*
X56000Y242000D03*
X56000Y237000D03*
X56000Y232000D03*
X56000Y227000D03*
D12*
X91000Y254500D03*
D13*
X290000Y375000D03*
D14*
X283000Y349500D03*
X221000Y349500D03*
D15*
X252000Y348250D03*
X258500Y348250D03*
X265000Y348250D03*
X245500Y348250D03*
X239000Y348250D03*
D13*
X262500Y375000D03*
X241500Y375000D03*
X214000Y375000D03*
D16*
X301283Y316773D02*
X337837Y316773D01*
X301283Y316773D02*
X301283Y321827D01*
X337837Y321827D01*
X337837Y316773D01*
X357163Y316773D02*
X393717Y316773D01*
X357163Y316773D02*
X357163Y321827D01*
X393717Y321827D01*
X393717Y316773D01*
X337837Y291373D02*
X301283Y291373D01*
X301283Y296427D01*
X337837Y296427D01*
X337837Y291373D01*
X357163Y291373D02*
X393717Y291373D01*
X357163Y291373D02*
X357163Y296427D01*
X393717Y296427D01*
X393717Y291373D01*
X337837Y265973D02*
X301283Y265973D01*
X301283Y271027D01*
X337837Y271027D01*
X337837Y265973D01*
X357163Y265973D02*
X393717Y265973D01*
X357163Y265973D02*
X357163Y271027D01*
X393717Y271027D01*
X393717Y265973D01*
X337837Y240573D02*
X301283Y240573D01*
X301283Y245627D01*
X337837Y245627D01*
X337837Y240573D01*
X357163Y240573D02*
X393717Y240573D01*
X357163Y240573D02*
X357163Y245627D01*
X393717Y245627D01*
X393717Y240573D01*
X337837Y215173D02*
X301283Y215173D01*
X301283Y220227D01*
X337837Y220227D01*
X337837Y215173D01*
X357163Y215173D02*
X393717Y215173D01*
X357163Y215173D02*
X357163Y220227D01*
X393717Y220227D01*
X393717Y215173D01*
D17*
X138500Y384500D03*
X151200Y384500D03*
X163900Y384500D03*
X125800Y384500D03*
X113100Y384500D03*
X113100Y345500D03*
X125800Y345500D03*
X138500Y345500D03*
X151200Y345500D03*
X163900Y345500D03*
D18*
X312050Y151000D03*
X299450Y151000D03*
X286750Y151000D03*
X274050Y151000D03*
X312050Y95000D03*
X299350Y95000D03*
X286650Y95000D03*
X273950Y95000D03*
D19*
X293000Y123000D03*
D18*
X114050Y148000D03*
X101450Y148000D03*
X88750Y148000D03*
X76050Y148000D03*
X114050Y92000D03*
X101350Y92000D03*
X88650Y92000D03*
X75950Y92000D03*
D19*
X95000Y120000D03*
D20*
X146500Y50160D02*
X146500Y29840D01*
X183500Y29840D02*
X183500Y50160D01*
X216500Y50160D02*
X216500Y29840D01*
X253500Y29840D02*
X253500Y50160D01*
D21*
X77500Y175250D03*
X77500Y164750D03*
X107500Y175250D03*
X107500Y164750D03*
D22*
X355000Y45000D03*
X45000Y355000D03*
X45000Y45000D03*
D21*
X214500Y330250D03*
X214500Y319750D03*
X225000Y319750D03*
X225000Y330250D03*
D23*
X17750Y229000D03*
X28250Y229000D03*
D24*
X278000Y312000D03*
X237000Y312000D03*
X278000Y328000D03*
X237000Y328000D03*
D25*
X35000Y267000D03*
X19000Y267000D03*
D26*
X30500Y284000D03*
X30500Y312000D03*
D27*
X36500Y252000D03*
X17500Y252000D03*
D23*
X28250Y239000D03*
X17750Y239000D03*
X137250Y247000D03*
X147750Y247000D03*
D21*
X84000Y199250D03*
X84000Y209750D03*
X54000Y308750D03*
X54000Y319250D03*
D26*
X256000Y95000D03*
X256000Y123000D03*
X58000Y92000D03*
X58000Y120000D03*
D28*
X297500Y67000D03*
X297500Y23000D03*
X102500Y67000D03*
X102500Y23000D03*
D21*
X117500Y175250D03*
X117500Y164750D03*
X127500Y175250D03*
X127500Y164750D03*
X87500Y175250D03*
X87500Y164750D03*
X97500Y175250D03*
X97500Y164750D03*
D29*
X196367Y289967D02*
X210133Y289967D01*
X196367Y289967D02*
X196367Y293033D01*
X210133Y293033D01*
X210133Y289967D01*
X210133Y292880D02*
X196367Y292880D01*
X196367Y283467D02*
X210133Y283467D01*
X196367Y283467D02*
X196367Y286533D01*
X210133Y286533D01*
X210133Y283467D01*
X210133Y286380D02*
X196367Y286380D01*
X196367Y276967D02*
X210133Y276967D01*
X196367Y276967D02*
X196367Y280033D01*
X210133Y280033D01*
X210133Y276967D01*
X210133Y279880D02*
X196367Y279880D01*
X196367Y270467D02*
X210133Y270467D01*
X196367Y270467D02*
X196367Y273533D01*
X210133Y273533D01*
X210133Y270467D01*
X210133Y273380D02*
X196367Y273380D01*
X196367Y263967D02*
X210133Y263967D01*
X196367Y263967D02*
X196367Y267033D01*
X210133Y267033D01*
X210133Y263967D01*
X210133Y266880D02*
X196367Y266880D01*
X196367Y257467D02*
X210133Y257467D01*
X196367Y257467D02*
X196367Y260533D01*
X210133Y260533D01*
X210133Y257467D01*
X210133Y260380D02*
X196367Y260380D01*
X196367Y250967D02*
X210133Y250967D01*
X196367Y250967D02*
X196367Y254033D01*
X210133Y254033D01*
X210133Y250967D01*
X210133Y253880D02*
X196367Y253880D01*
X253867Y250967D02*
X267633Y250967D01*
X253867Y250967D02*
X253867Y254033D01*
X267633Y254033D01*
X267633Y250967D01*
X267633Y253880D02*
X253867Y253880D01*
X253867Y257467D02*
X267633Y257467D01*
X253867Y257467D02*
X253867Y260533D01*
X267633Y260533D01*
X267633Y257467D01*
X267633Y260380D02*
X253867Y260380D01*
X253867Y263967D02*
X267633Y263967D01*
X253867Y263967D02*
X253867Y267033D01*
X267633Y267033D01*
X267633Y263967D01*
X267633Y266880D02*
X253867Y266880D01*
X253867Y270467D02*
X267633Y270467D01*
X253867Y270467D02*
X253867Y273533D01*
X267633Y273533D01*
X267633Y270467D01*
X267633Y273380D02*
X253867Y273380D01*
X253867Y276967D02*
X267633Y276967D01*
X253867Y276967D02*
X253867Y280033D01*
X267633Y280033D01*
X267633Y276967D01*
X267633Y279880D02*
X253867Y279880D01*
X253867Y283467D02*
X267633Y283467D01*
X253867Y283467D02*
X253867Y286533D01*
X267633Y286533D01*
X267633Y283467D01*
X267633Y286380D02*
X253867Y286380D01*
X253867Y289967D02*
X267633Y289967D01*
X253867Y289967D02*
X253867Y293033D01*
X267633Y293033D01*
X267633Y289967D01*
X267633Y292880D02*
X253867Y292880D01*
D30*
X232000Y272000D03*
D23*
X187250Y256000D03*
X176750Y256000D03*
X187250Y274000D03*
X176750Y274000D03*
D25*
X238500Y237000D03*
X254500Y237000D03*
X166500Y275000D03*
X150500Y275000D03*
D31*
X244450Y220447D03*
X231750Y220447D03*
X219050Y220447D03*
X206350Y220447D03*
X193650Y220447D03*
X180950Y220447D03*
X168250Y220447D03*
X155550Y220447D03*
X155550Y179553D03*
X168250Y179553D03*
X180950Y179553D03*
X193650Y179553D03*
X206350Y179553D03*
X219050Y179553D03*
X231750Y179553D03*
X244450Y179553D03*
D21*
X263000Y174750D03*
X263000Y185250D03*
D23*
X287250Y283000D03*
X276750Y283000D03*
X287250Y293000D03*
X276750Y293000D03*
D32*
X205500Y92500D03*
X205500Y132500D03*
D33*
X91940Y305500D03*
X91940Y324500D03*
X118060Y305500D03*
X118060Y315000D03*
X118060Y324500D03*
D34*
X65500Y309500D03*
X65500Y325500D03*
X78000Y309500D03*
X78000Y325500D03*
D25*
X131500Y322000D03*
X147500Y322000D03*
D21*
X263000Y194750D03*
X263000Y205250D03*
D23*
X38750Y185500D03*
X49250Y185500D03*
D35*
X41500Y203000D03*
X66500Y203000D03*
D36*
X163000Y322500D03*
X163000Y300500D03*
X179000Y300500D03*
X179000Y322500D03*
D23*
X58750Y185500D03*
X69250Y185500D03*
D21*
X150000Y296750D03*
X150000Y307250D03*
X192000Y315750D03*
X192000Y326250D03*
D23*
X28250Y219000D03*
X17750Y219000D03*
X28250Y209000D03*
X17750Y209000D03*
D21*
X8000Y218750D03*
X8000Y229250D03*
X8000Y209250D03*
X8000Y198750D03*
D23*
X28250Y188000D03*
X17750Y188000D03*
X28250Y199000D03*
X17750Y199000D03*
D37*
X232950Y131572D03*
X232950Y160528D03*
X19050Y131572D03*
X19050Y160528D03*
X19050Y107950D03*
X232950Y107950D03*
D21*
X68000Y175250D03*
X68000Y164750D03*
X58000Y164750D03*
X58000Y175250D03*
X48000Y164750D03*
X48000Y175250D03*
D37*
X19050Y82550D03*
D38*
X355000Y93500D03*
X355000Y146500D03*
X155000Y98500D03*
X155000Y151500D03*
M02*
